1000	33	0.970878	0.006032	0.961790	0.002152	0.000787
1000	100	2.946522	0.005639	2.916846	0.021262	0.002612
1000	200	6.003464	0.009496	5.895106	0.085591	0.013079
1000	300	8.971786	0.008788	8.730678	0.191867	0.040152
1000	400	12.381702	0.008486	11.928103	0.342115	0.102566
1000	600	18.561592	0.006047	17.396284	0.757600	0.401007
1000	1200	46.718624	0.006030	34.805612	3.116634	8.789056
1000	2400	199.161334	0.008413	68.637073	12.704758	117.808766
1000	4800	1201.664167	0.005925	141.664540	51.501020	1008.487077
