PS00001 N-{P}-[ST]-{P}
PS00004 [RK](2)-x-[ST]
PS00005 [ST]-x-[RK]
PS00006 [ST]-x(2)-[DE]
PS00007 [RK]-x(2,3)-[DE]-x(2,3)-Y
PS00008 G-{EDRKHPFYW}-x(2)-[STAGCN]-{P}
PS00009 x-G-[RK]-[RK]
PS00010 C-x-[DN]-x(4)-[FY]-x-C-x-C
PS00011 E-x(2)-[ERK]-E-x-C-x(6)-[EDR]-x(10,11)-[FYA]-[YW]
PS00012 [DEQGSTALMKRH]-[LIVMFYSTAC]-[GNQ]-[LIVMFYAG]-[DNEKHS]-S-[LIVMST]-{PCFY}
PS00016 R-G-D
PS00017 [AG]-x(4)-G-K-[ST]
PS00018 D-{W}-[DNS]-{ILVFYW}-[DENSTG]-[DNQGHRK]-{GP}-[LIVMC]-[DENQSTAGC]-x(2)
PS00019 [EQ]-{LNYH}-x-[ATV]-[FY]-{LDAM}-{T}-W-{PG}-N
PS00020 [LIVM]-x-[SGNL]-[LIVMN]-[DAGHENRS]-[SAGPNVT]-x-[DNEAG]-[LIVM]-x-[DEAGQ]
PS00021 [FY]-C-[RH]-[NS]-x(7,8)-[WY]-C
PS00022 C-x-C-x(2)-{V}-x(2)-G-{C}-x-C
PS00023 C-x(2)-P-F-x-[FYWIV]-x(7)-C-x(8,10)-W-C-x(4)-[DNSR]-[FYW]-x(3,5)-[FYW]-x
PS00024 [LIFAT]-{IL}-x(2)-W-x(2,3)-[PE]-x-{VF}-[LIVMFY]-[DENQS]-[STA]-[AV]
PS00025 [KRH]-x(2)-C-x-[FYPSTV]-x(3,4)-[ST]-x(3)-C-x(4)-C-C-[FYWH]
PS00026 C-x(4,5)-C-C-S-x(2)-G-x-C-G-x(3,4)-[FYW]-C
PS00027 [LIVMFYG]-[ASLVR]-x(2)-[LIVMSTACN]-x-[LIVM]-{Y}-x(2)-{L}-[LIV]
PS00028 C-x(2,4)-C-x(3)-[LIVMFYWC]-x(8)-H-x(3,5)-H
PS00029 L-x(6)-L-x(6)-L-x(6)-L
PS00031 C-x(2)-C-x(1,2)-[DENAVSPHKQT]-x(5,6)-[HNY]-[FY]-x(4)-C-x(2)-C-x(2)-F(2)
PS00032 [LIVMFE]-[FY]-P-W-M-[KRQTA]
PS00033 L-M-A-[EQ]-G-L-Y-N
PS00034 R-P-C-x(11)-C-V-S
PS00035 [RKQ]-R-[LIM]-x-[LF]-G-[LIVMFY]-x-Q-x-[DNQ]-V-G
PS00036 [KR]-x(1,3)-[RKSAQ]-N-{VL}-x-[SAQ](2)-{L}-[RKTAENQ]-x-R-{S}-[RK]
PS00039 [LIVMF](2)-D-E-A-D-[RKEN]-x-[LIVMFYGSTN]
PS00041 [KRQ]-[LIVMA]-x(2)-[GSTALIV]-{FYWPGDN}-x(2)-[LIVMSA]-x(4,9)-[LIVMF]-x
PS00042 [LIVM]-[STAG]-[RHNWM]-x(2)-[LIM]-[GA]-x-[LIVMFYAS]-[LIVSC]-[GA]-x
PS00045 [GSK]-F-x(2)-[LIVMF]-x(4)-[RKEQA]-x(2)-[RST]-x(1,2)-[GA]-x-[KN]-P-x-[TN]
PS00046 [AC]-G-L-x-F-P-V
PS00047 G-A-K-R-H
PS00048 [AV]-R-[NFY]-R-x(2,3)-[ST]-{S}-S-{NS}-S
PS00049 [GA]-[LIV](3)-x(9,10)-[DNS]-G-x(4)-[FY]-x(2)-[NT]-x(2)-V-[LIV]
PS00050 [RK](2)-[AM]-[IVFYT]-[IV]-[RKT]-L-[STANEQK]-x(7)-[LIVMFT]
PS00051 [KRM]-[PTKS]-x(3)-[LIVMFG]-x(2)-[NHS]-x(3)-R-[DNHY]-W-R-[RS]
PS00052 [DENSK]-x-[LIVMDET]-x(3)-[LIVMFTA](2)-x(6)-G-K-[KR]-x(5)-[LIVMF]
PS00053 [GE]-x(2)-[LIV](2)-[STY]-[ST]-{A}-x-G-[LIVM](2)-x(4)-[AG]-[KRHAYIL]
PS00054 [LIVMFR]-x-[GSTACQI]-[LIVMF]-x(1,2)-[GSTALVM]-x(0,1)-[GSN]-[LIVMFY]-x
PS00055 [RK]-x-P-N-S-[AR]-x-R
PS00056 G-D-x-[LIV]-x-[LIVA]-x-[QEK]-x-[RK]-P-[LIV]-S
PS00057 [IVRLP]-[DYN]-[YLF]-x(2,3)-[LIVMTPFS]-x(2)-[LIVM]-x(2)-[FYTS]-[LIVMT]
PS00058 G-F-R-G-E-[AG]-L
PS00059 G-H-E-x-{EL}-G-{AP}-x(4)-[GA]-x(2)-[IVSAC]
PS00060 [GSW]-x-[LIVTSACD]-[GH]-x(2)-[GSAE]-[GSHYQ]-x-[LIVTP]-[GAST]-[GAS]-x(3)
PS00061 [LIVSPADNK]-x(9)-{P}-x(2)-Y-[PSTAGNCV]-[STAGNQCIVM]-[STAGC]-K-{PC}
PS00062 [LIVMFY]-x(8)-{L}-[KREQ]-{K}-[LIVM]-G-[LIVM]-[SC]-N-[FY]
PS00063 [LIVM]-[PAIV]-[KR]-[ST]-{EPQG}-{RFI}-x(2)-R-{SVAF}-x-[GSTAEQK]-[NSL]-x
PS00064 [LIVMA]-G-[EQ]-H-G-[DN]-[ST]
PS00065 [LIVMA]-[AG]-[IVT]-[LIVMFY]-[AG]-x-G-[NHKRQGSAC]-[LIV]-G-x(13,14)
PS00066 [RKH]-x-{Y}-{I}-x-{I}-{L}-D-x-M-G-x-N-x-[LIVMA]
PS00067 [DNES]-x(2)-[GA]-F-[LIVMFYA]-x-[NT]-R-x(3)-[PA]-[LIVMFY]-[LIVMFYST]
PS00068 [LIVM]-T-[TRKMN]-L-D-x(2)-R-[STA]-x(3)-[LIVMFY]
PS00069 D-H-[YF]-L-G-K-[EQK]
PS00070 [FYLVA]-x-{GVEP}-{DILV}-G-[QE]-{LPYG}-C-[LIVMGSTANC]-[AGCN]-{HE}
PS00071 [ASV]-S-C-[NT]-T-{S}-x-[LIM]
PS00072 [GAC]-[LIVM]-[ST]-E-x(2)-[GSAN]-G-[ST]-D-x(2)-[GSA]
PS00073 [QDE]-x-{P}-G-[GS]-x-G-[LIVMFY]-x(2)-[DEN]-x(4)-[KR]-x(3)-[DEN]
PS00074 [LIV]-x(2)-G-G-[SAG]-K-x-[GV]-x(3)-[DNST]-[PL]
PS00075 [LVAGC]-[LIF]-G-x(4)-[LIVMF]-P-W-x(4,5)-[DE]-x(3)-[FYIV]-x(3)-[STIQ]
PS00076 G-G-x-C-[LIVA]-x(2)-G-C-[LIVM]-P
PS00077 [YWG]-[LIVFYWTA](2)-[VGS]-H-[LNP]-x-V-x(44,47)-H-H
PS00078 V-x-H-x(33,40)-C-x(3)-C-x(3)-H-x(2)-M
PS00079 G-x-[FYW]-x-[LIVMFYW]-x-[CST]-x-{PR}-{K}-x(2)-{S}-x-{LFH}-G-[LM]-x(3)
PS00080 H-C-H-x(3)-H-x(3)-[AG]-[LM]
PS00081 [LIVMACST]-H-P-[LIVM]-x-[KRQV]-[LIVMF](2)-x-[AP]-H
PS00082 [GNTIV]-x-H-x(5,7)-[LIVMF]-Y-x(2)-[DENTA]-P-x-[GP]-x(2,3)-E
PS00083 [LIVMF]-x-G-x-[LIVM]-x(4)-[GS]-x(2)-[LIVMA]-x(4)-[LIVM]-[DE]-[LIVMFYC]
PS00084 H-H-M-x(2)-F-x-C
PS00085 H-x-F-x(4)-H-T-H-x(2)-G
PS00086 [FW]-[SGNH]-x-[GD]-{F}-[RKHPT]-{P}-C-[LIVMFAP]-[GAD]
PS00087 [GA]-[IMFAT]-H-[LIVF]-H-{S}-x-[GP]-[SDG]-x-[STAGDE]
PS00088 D-x-[WF]-E-H-[STA]-[FY](2)
PS00089 W-x(2)-[LIVF]-x(6,7)-G-[LIVM]-[FYRA]-[NH]-x(3)-[STAQLIVM]-[ASC]-x(2)
PS00090 [STANQ]-[ET]-C-x(5)-G-D-[DN]-[LIVMT]-x-[STAGR]-[LIVMFYST]
PS00091 R-x(2)-[LIVMT]-x(2,3)-[FWY]-[QNYDI]-x(8,13)-[LVESI]-x-P-C-[HAVMLC]-x(3)
PS00092 [LIVMAC]-[LIVFYWA]-{DYP}-[DN]-P-P-[FYW]
PS00093 [LIVMF]-T-S-P-P-[FY]
PS00094 [DENKS]-x-[FLIV]-x(2)-[GSTC]-x-P-C-x-{V}-[FYWLIM]-S
PS00095 [RKQGTF]-x(2)-G-N-[SA]-[LIVF]-x-[VIP]-x-[LVMT]-x(3)-[LIVM]-x(3)-[LIVM]
PS00096 [DEQHY]-[LIVMFYA]-x-[GSTMVA]-[GSTAV]-[ST]-[STVM]-[HQ]-K-[STG]-[LFMI]-x
PS00097 F-x-[EK]-x-S-[GT]-R-T
PS00098 [LIVM]-[NST]-{T}-x-C-[SAGLI]-[ST]-[SAG]-[LIVMFYNS]-x-[STAG]-[LIVM]-x(6)
PS00099 [AG]-[LIVMA]-[STAGCLIVM]-[STAG]-[LIVMA]-C-{Q}-[AG]-x-[AG]-x-[AG]-x-[SAG]
PS00100 Q-[LIV]-H-H-[SA]-x(2)-D-G-[FY]-H
PS00101 [LIV]-[GAED]-x(2)-[STAV]-x-[LIV]-x(3)-[LIVAC]-x-[LIV]-[GAED]-x(2)
PS00102 E-A-[SC]-G-x-[GS]-x-M-K-x(2)-[LM]-N
PS00103 [LIVMFYWCTA]-[LIVM]-[LIVMA]-[LIVMFC]-[DE]-D-[LIVMS]-[LIVM]-[STAVD]
PS00104 [LIVF]-{LV}-x-[GANQK]-[NLG]-[SA]-[GA]-[TAI]-[STAGV]-{N}-R-x-[LIVMFYAT]-x
PS00105 [GS]-[LIVMFYTAC]-[GSTA]-K-x(2)-[GSALVN]-[LIVMFA]-x-[GNAR]-{V}-R-[LIVMA]
PS00106 G-R-x-N-[LIV]-I-G-[DE]-H-x-D-Y
PS00107 [LIV]-G-{P}-G-{P}-[FYWMGSTNH]-[SGA]-{PW}-[LIVCAT]-{PD}-x-[GSTACLIVMFY]
PS00108 [LIVMFYC]-x-[HY]-x-D-[LIVMFY]-K-x(2)-N-[LIVMFYCT](3)
PS00109 [LIVMFYC]-{A}-[HY]-x-D-[LIVMFY]-[RSTAC]-{D}-{PF}-N-[LIVMFYC](3)
PS00110 [LIVAC]-x-[LIVM](2)-[SAPCV]-K-[LIV]-E-[NKRST]-x-[DEQHS]-[GSTA]-[LIVM]
PS00111 [KRHGTCVN]-[VT]-[LIVMF]-[LIVMC]-R-x-D-x-N-[SACV]-P
PS00112 C-P-x(0,1)-[ST]-N-[ILV]-G-T
PS00113 [LIVMFYWCA]-[LIVMFYW](2)-D-G-[FYI]-P-R-x(3)-[NQ]
PS00114 D-[LIM]-H-[SANDT]-x-[QS]-[IMSTAVF]-[QMLPH]-[GA]-[FY]-F-x(2)-P
PS00115 Y-[ST]-P-[ST]-S-P-[STANK]
PS00116 [YA]-[GLIVMSTAC]-D-T-D-[SG]-[LIVMFTC]-{LA}-[LIVMSTAC]
PS00117 F-E-N-[RK]-G-x(3)-G-x(4)-H-P-H-x-Q
PS00118 C-C-{P}-x-H-{LGY}-x-C
PS00119 [LIVMA]-C-{LIVMFYWPCST}-C-D-{GS}-{G}-{N}-x-{QS}-C
PS00120 [LIV]-{KG}-[LIVFY]-[LIVMST]-G-[HYWV]-S-{YAG}-G-[GSTAC]
PS00121 Y-x(2)-Y-Y-x-C-x-C
PS00122 F-[GR]-G-x(4)-[LIVM]-x-[LIV]-x-G-x-S-[STAG]-G
PS00123 [IV]-x-D-S-[GAS]-[GASC]-[GAST]-[GA]-T
PS00124 [AG]-[RK]-[LI]-x(1,2)-[LIV]-[FY]-E-x(2)-P-[LIVM]-[GSA]
PS00125 [LIVMN]-[KR]-G-N-H-E
PS00126 H-D-[LIVMFY]-x-H-x-[AG]-x(2)-[NQ]-x-[LIVMFY]
PS00127 C-K-x(2)-N-T-F
PS00128 C-x(3)-C-x(2)-[LMF]-x(3)-[DEN]-[LI]-x(5)-C
PS00129 [GFY]-[LIVMF]-W-x-D-M-[NSA]-E
PS00130 [KR]-[LIVA]-[LIVC]-[LIVM]-x-G-[QI]-D-P-Y
PS00131 [LIVM]-x-[GSTA]-E-S-Y-[AG]-[GS]
PS00132 [PK]-x-[LIVMFY]-x-[LIVMFY]-x(2)-{E}-x-H-[STAG]-x-E-x-[LIVM]-[STAG]-{L}
PS00133 H-[STAG]-{ADNV}-{VGFI}-{YAR}-[LIVME]-{SDEP}-x-[LIVMFYW]-P-[FYW]
PS00134 [LIVM]-[ST]-A-[STAG]-H-C
PS00135 [DNSTAGC]-[GSTAPIMVQH]-x(2)-G-[DE]-S-G-[GS]-[SAPHV]-[LIVMFYWH]
PS00136 [STAIV]-{ERDL}-[LIVMF]-[LIVM]-D-[DSTA]-G-[LIVMFC]-x(2,3)-[DNH]
PS00137 H-G-[STM]-x-[VIC]-[STAGC]-[GS]-x-[LIVMA]-[STAGCLV]-[SAGM]
PS00138 G-T-S-x-[SA]-x-P-x-{L}-[STAVC]-[AG]
PS00139 Q-{V}-x-{DE}-[GE]-{F}-C-[YW]-{DN}-x-[STAGC]-[STAGCV]
PS00140 Q-x(3)-N-[SA]-C-G-x(3)-[LIVM](2)-H-[SA]-[LIVM]-[SA]
PS00141 [LIVMFGAC]-[LIVMTADN]-[LIVFSA]-D-[ST]-G-[STAV]-[STAPDENQ]-{GQ}
PS00142 [GSTALIVN]-{PCHR}-{KND}-H-E-[LIVMFYW]-{DEHRKP}-H-{EKPC}-[LIVMFYWGSPQ]
PS00143 G-x(8,9)-G-x-[STA]-H-[LIVMFY]-[LIVMC]-[DERN]-[HRKL]-[LMFAT]-x-[LFSTH]-x
PS00144 [LIVM]-x-{L}-T-G-G-T-[IV]-[AGS]
PS00145 [LIVM](2)-[CT]-H-[HNG]-L-x(3)-[LIVM]-x(2)-D-[LIVM]-x-F-[AS]
PS00146 [FY]-x-[LIVMFY]-{E}-S-[TV]-x-K-x(3)-{T}-[AGLM]-{D}-{KA}-[LC]
PS00149 G-[YV]-x-[ST]-x(2)-[IVAS]-G-K-x(0,1)-[FYWMK]-[HL]
PS00150 [LIV]-x-G-x-V-Q-[GH]-V-x-[FM]-R
PS00151 G-[FYW]-[AVC]-[KRQAM]-N-x(3)-G-x-V-x(5)-G
PS00152 P-[SAP]-[LIV]-[DNH]-{LKGN}-{F}-{S}-S-{DCPH}-S
PS00153 [IV]-T-x-E-x(2)-[DE]-x(3)-G-A-x-[SAKR]
PS00154 D-K-T-G-T-[LIVM]-[TI]
PS00155 P-x-[STA]-x-[LIV]-[IVT]-x-[GS]-G-Y-S-[QL]-G
PS00156 [LIVMFTAR]-[LIVMF]-x-D-x-K-x(2)-D-[IV]-[ADGP]-x-T-[CLIVMNTA]
PS00157 G-x-[DN]-F-x-K-x-D-E
PS00158 [LIVM]-x-[LIVMFYW]-E-G-x-[LSI]-L-K-[PA]-[SN]
PS00159 G-[LIVM]-x(3)-E-[LIV]-T-[LF]-R
PS00160 G-x(3)-[LIVMF]-K-[LF]-F-P-[SA]-x(3)-G
PS00161 K-[KR]-C-G-H-[LMQR]
PS00162 S-E-[HN]-x-[LIVM]-x(4)-[FYH]-x(2)-E-[LIVMGA]-H-[LIVMFA](2)
PS00163 G-S-x(2)-M-x-{RS}-K-x-N
PS00164 [LIVTMS]-[LIVP]-[LIV]-[KQ]-x-[ND]-Q-[INV]-[GA]-[ST]-[LIVM]-[STL]
PS00165 [DESH]-x(4,5)-[STVG]-{EVKD}-[AS]-[FYI]-K-[DLIFSA]-[RLVMF]-[GA]-[LIVMGA]
PS00166 [LIVM]-[STAG]-x-[LIVM]-[DENQRHSTA]-G-x(3)-[AG](3)-x(4)-[LIVMST]-x-[CSTA]
PS00167 [LIVM]-E-[LIVM]-[GQ]-x-[PALT]-[FYCHTWP]-[STPK]-[DEKY]-[PA]-[LIVMYGK]
PS00168 [LIVMYAHQ]-x-[HPYNVF]-x-G-[STA]-H-K-x-N-x(2)-[LIVM]-x-[QEH]
PS00169 G-x-D-x-[LIVM](2)-[IV]-K-P-[GSA]-x(2)-Y
PS00170 [FY]-x(2)-[STCNLVA]-x-[FV]-H-[RH]-[LIVMNS]-[LIVM]-x(2)-F-[LIVM]-x-Q
PS00171 [AVG]-[YLV]-E-P-[LIVMEPKST]-[WYEAS]-[SAL]-[IV]-[GN]-[TEKDVS]-[GKNAD]
PS00174 [GSA]-x-[LIVMCAYQS]-[LIVMFYWN]-x(4)-[FY]-[DNTH]-Q-x-[GA]-[IV]-[EQST]
PS00175 [LIVM]-x-R-H-G-[EQ]-x-{Y}-x-N
PS00176 [DEN]-x(6)-[GS]-[IT]-S-K-x(2)-Y-[LIVM]-x(3)-[LIVM]
PS00177 [LIVMA]-{R}-E-G-[DN]-S-A-{F}-[STAG]
PS00178 P-x(0,2)-[GSTAN]-[DENQGAPK]-x-[LIVMFP]-[HT]-[LIVMYAC]-G-[HNTG]
PS00180 [FYWL]-D-G-S-S-x(6,8)-[DENQSTAK]-[SA]-[DE]-x(2)-[LIVMFY]
PS00181 K-P-[LIVMFYA]-x(3,5)-[NPAT]-[GA]-[GSTAN]-[GA]-x-H-x(3)-S
PS00182 K-[LIVM]-x(5)-[LIVMA]-D-[RK]-[DN]-[LI]-Y
PS00183 [FYWLSP]-H-[PC]-[NHL]-[LIV]-x(3,4)-G-x-[LIVP]-C-[LIV]-x(1,2)-[LIVR]
PS00184 R-[LF]-G-D-P-E-x-[EQIM]
PS00185 [RK]-x-[STA]-x(2)-S-x-C-Y-[SL]
PS00186 [LIVM](2)-x-C-G-[STA]-x(2)-[STAG]-x(2)-T-x-[DNG]
PS00187 [LIVMF]-[GSA]-x(5)-P-x(4)-[LIVMFYW]-x-[LIVMF]-x-G-D-[GSA]-[GSAC]
PS00188 [GDN]-[DEQTR]-x-[LIVMFY]-x(2)-[LIVM]-x-[AIV]-M-K-[LVMAT]-x(3)-[LIVM]-x
PS00189 [GDN]-x(2)-[LIVF]-x(3)-{VH}-{M}-[LIVMFCA]-x(2)-[LIVMFA]-{LDFY}-{KPE}-x-K
PS00191 [FY]-[LIVMK]-{I}-{Q}-H-P-[GA]-G
PS00194 [LIVMF]-[LIVMSTA]-x-[LIVMFYC]-[FYWSTHE]-x(2)-[FYWGTN]-C-[GATPLVE]
PS00195 [LIVMD]-[FYSA]-x(4)-C-[PV]-[FYWH]-C-x(2)-[TAV]-x(2,3)-[LIV]
PS00196 [GA]-x(0,2)-[YSA]-x(0,1)-[VFY]-{SEDT}-C-x(1,2)-[PG]-x(0,1)-H-x(2,4)-[MQ]
PS00197 C-{C}-{C}-[GA]-{C}-C-[GAST]-{CPDEKRHFYW}-C
PS00198 C-x-{P}-C-{C}-x-C-{CP}-x-{C}-C-[PEG]
PS00201 [LIV]-[LIVFY]-[FY]-x-[ST]-{V}-x-[AGC]-x-T-{P}-x(2)-A-{L}-x-[LIV]
PS00202 [LIVM]-x-{G}-{R}-W-x-C-P-x-C-[AGD]
PS00203 C-x-C-[GSTAP]-x(2)-C-x-C-x(2)-C-x-C-x(2)-C-x-K
PS00204 D-x(2)-[LIVMF]-[STACQV]-[DH]-[FYMI]-[LIV]-[EN]-x(2)-[FYC]-L-x(6)-[LIVMQ]
PS00205 Y-x(0,1)-[VAS]-V-[IVAC]-[IVA]-[IVA]-[RKH]-[RKS]-[GDENSA]
PS00206 [YI]-x-G-A-[FLI]-[KRHNQS]-C-L-x(3,4)-G-[DENQ]-V-[GAT]-[FYW]
PS00207 [DENQK]-[YF]-x-[LY]-L-C-x-[DN]-x(5,8)-[LIV]-x(4,5)-C-x(2)-A-x(4)-[HQR]-x
PS00208 [SN]-P-x-[LV]-x(2)-H-A-x(3)-F
PS00209 Y-[FYW]-x-E-D-[LIVM]-x(2)-N-x(6)-H-x(3)-P
PS00210 T-x(2)-R-D-P-x-[FY]-[FYW]
PS00211 [LIVMFYC]-[SA]-[SAPGLVFYKQH]-G-[DENQMW]-[KRQASPCLIMFW]-[KRNQSTAVM]
PS00212 [FY]-x(6)-C-C-x(2)-{C}-x(4)-C-[LFY]-x(6)-[LIVMFYW]
PS00213 [DENG]-{A}-[DENQGSTARK]-x(0,2)-[DENQARK]-[LIVFY]-{CP}-G-{C}-W-[FYWLRH]
PS00214 [GSAIVK]-{FE}-[FYW]-x-[LIVMF]-x(2)-{K}-x-[NHG]-[FY]-[DE]-x-[LIVMFY]
PS00216 [LIVMSTAG]-[LIVMFSAG]-{SH}-{RDE}-[LIVMSA]-[DE]-{TD}-[LIVMFYWA]-G-R-[RK]
PS00217 [LIVMF]-x-G-[LIVMFA]-{V}-x-G-{KP}-x(7)-[LIFY]-x(2)-[EQ]-x(6)-[RK]
PS00218 [STAGC]-G-[PAG]-x(2,3)-[LIVMFYWA](2)-x-[LIVMFYW]-x-[LIVMFWSTAGC](2)
PS00219 F-G-G-[LIVM](2)-[KR]-D-[LIVM]-[RK]-R-R-Y
PS00220 [FI]-L-I-S-L-I-F-I-Y-E-T-F-x-K-L
PS00221 [HNQA]-{D}-N-P-[STA]-[LIVMF]-[ST]-[LIVMF]-[GSTAFY]
PS00222 [GP]-C-[GSET]-[CE]-[CA]-x(2)-C-[ALP]-x(6)-C
PS00223 [TG]-[STV]-x(8)-[LIVMF]-x(2)-R-x(3)-[DEQNH]-x(2)-{S}-x(4)-[IFY]-x(7)
PS00224 F-L-A-[QH]-[QE]-E-S
PS00226 [IV]-{K}-[TACI]-Y-[RKH]-{E}-[LM]-L-[DE]
PS00227 [SAG]-G-G-T-G-[SA]-G
PS00229 G-S-x(2)-N-x(2)-H-x-[PA]-[AG]-G(2)
PS00230 [STAGDN]-Y-x-Y-E-{AV}-{L}-[DE]-[KR]-[STAGCI]
PS00231 C-[DE]-[YF]-N-R-D
PS00232 [LIV]-x-[LIV]-x-D-x-N-D-[NH]-x-P
PS00233 G-x(7)-[DEN]-G-x(6)-[FY]-x-A-[DNG]-x(2,3)-G-[FY]-x-[APV]
PS00234 [LIVM]-x-[DE]-[LIVMFYT]-[LIVM]-[DE]-x-[LIVM](2)-[DKR](2)-G-x-[LIVMA]
PS00235 F-L-x(2)-T-x(3)-R-x(3)-A-x(2)-Q-x(3)-L-x(2)-F
PS00236 C-x-[LIVMFQ]-x-[LIVMF]-x(2)-[FY]-P-x-D-x(3)-C
PS00237 [GSTALIVMFYWC]-[GSTANCPDE]-{EDPKRH}-x-{PQ}-[LIVMNQGA]-{RK}-{RK}-[LIVMFT]
PS00238 [LIVMFWAC]-[PSGAC]-x-{G}-x-[SAC]-K-[STALIMR]-[GSACPNV]-[STACP]-x(2)
PS00239 [DN]-[LIV]-Y-x(3)-Y-Y-R
PS00240 G-x-H-x-N-[LIVM]-V-N-L-L-G-A-C-T
PS00242 [FYWS]-[RK]-x-G-F-F-x-R
PS00243 C-x-[GNQ]-x(1,3)-G-x-C-x-C-x(2)-C-x-C
PS00244 [NQH]-x(4)-P-x-H-x(2)-[SAG]-x(11)-[SAGC]-x-H-[SAG](2)
PS00245 [RGS]-[GSA]-[PV]-H-x-C-H-x(2)-Y
PS00246 C-[KR]-C-H-G-[LIVMT]-S-G-x-C
PS00247 G-x-[LIM]-x-[STAGP]-x(6,7)-[DENA]-C-x-[FLM]-x-[EQ]-x(6)-Y
PS00248 [GSRE]-C-[KRL]-G-[LIVT]-[DE]-x(3)-[YW]-x-S-x-C
PS00249 P-[PSR]-C-V-x(3)-R-C-[GSTA]-G-C-C
PS00250 [LIVM]-x(2)-P-x(2)-[FY]-x(4)-C-x-G-x-C
PS00251 [LV]-x-[LIVM]-{V}-x-{L}-G-[LIVMF]-Y-[LIVMFY](2)-x(2)-[QEKHL]-[LIVMGT]-x
PS00252 [FYH]-[FY]-x-[GNRCDS]-[LIVM]-x(2)-[FYL]-L-x(7)-[CY]-[AT]-W
PS00253 [FC]-x-S-[ASLV]-x(2)-P-x(2)-[FYLIV]-[LI]-[SCA]-T-x(7)-[LIVM]
PS00254 C-x(9)-C-x(6)-G-L-x(2)-[FY]-x(3)-L
PS00255 N-x-[LAP]-[SCT]-F-L-K-x-L-L
PS00256 Q-[LV]-[NT]-[FY]-[ST]-x(2)-W
PS00257 W-A-x-G-[SH]-[LF]-M
PS00258 C-[SAGDN]-[STN]-x(0,1)-[SA]-T-C-[VMA]-x(3)-[LYF]-x(3)-[LYF]
PS00259 Y-x(0,1)-[GD]-[WH]-M-[DR]-F
PS00260 [YH]-[STAIVGD]-[DEQ]-[AGF]-[LIVMSTE]-[FYLR]-x-[DENSTAK]-[DENSTA]
PS00261 C-[STAGM]-G-[HFYL]-C-x-[ST]
PS00262 C-C-{P}-{P}-x-C-[STDNEKPI]-x(3)-[LIVMFS]-x(3)-C
PS00263 C-F-G-x(3)-[DEA]-[RH]-I-x(3)-S-x(2)-G-C
PS00264 C-[LIFY]-[LIFYV]-x-N-[CS]-P-x-G
PS00265 [FY]-x(3)-[LIVM]-x(2)-Y-x(3)-[LIVMFY]-x-R-x-R-[YF]
PS00266 C-x-[STN]-x(2)-[LIVMFYS]-x-[LIVMSTA]-P-x(5)-[TALIV]-x(7)-[LIVMFY]-x(6)
PS00268 W-x(0,2)-[KDN]-{Q}-{L}-K-[KRE]-[LI]-E-[RKN]
PS00269 C-x-C-x(3,5)-C-x(7)-G-x-C-x(9)-C-C
PS00270 C-x-C-x(4)-D-x(2)-C-x(2)-[FY]-C
PS00271 C-C-x(5)-R-x(2)-[FY]-x(2)-C
PS00272 G-C-x(1,3)-C-P-x(8,10)-C-C-x(2)-[PDEN]
PS00273 C-C-x(2)-C-C-x-P-A-C-x-G-C
PS00274 [KT]-x(2)-N-W-x(2)-T-[DN]-T
PS00275 [LIVMA]-x-[LIVMSTA](2)-x-E-[SAGV]-[STAL]-R-[FY]-[RKNQST]-x-[LIVM]-[EQS]
PS00276 T-x(2)-W-x-P-[LIVMFY](3)-x(2)-E
PS00277 Y-G-G-[LIV]-T-{I}-{N}-x(2)-N
PS00278 K-x(2)-[LIVF]-x(4)-[LIVF]-D-x(3)-R-x(2)-L-x(5)-[LIV]-Y
PS00279 Y-x(6)-[FY]-G-T-H-[FY]
PS00280 F-x(2)-{I}-G-C-x(6)-[FY]-x(5)-C
PS00281 C-x(5,6)-[DENQKRHSTA]-C-[PASTDH]-[PASTDK]-[ASTDV]-C-[NDEKS]-[DEKRHSTA]-C
PS00282 C-x(4)-{C}-x(2)-C-x-{A}-x(4)-Y-x(3)-C-x(2,3)-C
PS00283 [LIVM]-x-D-{EK}-[EDNTY]-[DG]-[RKHDENQ]-x-[LIVM]-x-{E}-{Q}-x(2)-Y-x
PS00284 [LIVMFY]-{G}-[LIVMFYAC]-[DNQ]-[RKHQS]-[PST]-F-[LIVMFY]-[LIVMFYC]-x
PS00285 [FYW]-P-[EQH]-[LIV](2)-G-x(2)-[STAGV]-x(2)-A
PS00286 C-P-x(5)-C-x(2)-[DN]-x-D-C-x(3)-C-x-C
PS00287 [GSTEQKRV]-Q-[LIVT]-[VAF]-[SAGQ]-G-{DG}-[LIVMNK]-{TK}-x-[LIVMFY]-{S}
PS00288 C-x-C-x-P-x-H-P-Q-x(2)-[FIV]-C
PS00289 H-x-C-x-[ST]-W-x-[ST]
PS00290 [FY]-{L}-C-{PGAD}-[VA]-{LC}-H
PS00291 A-G-A-A-A-A-G-A-V-V-G-G-L-G-G-Y
PS00292 R-x(2)-[LIVMSA]-x(2)-[FYWS]-[LIVM]-x(8)-[LIVMFC]-x(4)-[LIVMFYA]-x(2)
PS00293 [RKA]-C-[DE]-[RH]-x(3)-[LIVMF]-x(3)-[LIVM]-x-[SGAN]-[LIVMF]-x-K
PS00295 [FY]-R-Y-G-x-[DE](2)-x-[DE]-[LIVM](2)-G-[LIVM]-x-F-x-[RK]-[DEQ]-[LIVM]
PS00296 A-[AS]-{L}-[DEQ]-E-{A}-{Q}-{R}-x-G-G-[GA]
PS00297 [IV]-D-L-G-T-[ST]-x-[SC]
PS00298 Y-x-[NQHD]-[KHR]-[DE]-[IVA]-F-[LM]-R-[ED]
PS00299 K-x(2)-[LIVM]-x-[DESAK]-x(3)-[LIVM]-[PAQ]-x(3)-Q-x-[LIVM]-[LIVMC]
PS00300 P-[LIVM]-x-[FYL]-[LIVMAT]-[GS]-{Q}-[GS]-[EQ]-x-{K}-x(2)-[LIVMF]
PS00301 D-[KRSTGANQFYW]-x(3)-E-[KRAQ]-x-[RKQD]-[GC]-[IVMK]-[ST]-[IV]-x(2)
PS00302 [PT]-G-K-H-G-x-A-K
PS00303 [LIVMFYW](2)-x(2)-[LKQ]-D-x(3)-[DN]-x(3)-[DNSG]-[FY]-x-[ES]-[FYVC]-x(2)
PS00304 K-x-E-[LIV]-A-x-[DE]-[LIVMF]-G-[LIVMF]
PS00305 N-G-x-[DE](2)-x-[LIVMF]-C-[ST]-x(11,12)-[PAG]-D
PS00306 C-L-[LV]-A-x-A-[LVF]-A
PS00307 [LIV]-[STAG]-V-[DEQV]-[FLI]-D-[ST]
PS00308 [LIV]-{LA}-[EDQ]-[FYWKR]-V-{VF}-[LIVF]-G-[LF]-[ST]
PS00310 [STA]-C-[LIVM]-[LIVMFYW]-A-x-[LIVMFYW]-x(3)-[LIVMFYW]-x(3)-Y
PS00311 C-x(2)-D-x(3,4)-[LIVM](2)-P-[LIVM]-x-[LIVM]-G-x(2)-[LIVM]-x-G-[LIVM](2)
PS00312 I-I-x-[GAC]-V-M-A-G-[LIVM](2)
PS00313 [IVM]-x-G-Q-D-x-V-K-x(5)-[KN]-G-x(3)-[STLV]
PS00314 A-G-Y-G-S-T-x-T
PS00315 S(4)-[SD]-[DE]-x-[DE]-[GVE]-x(1,7)-[GE]-x(0,2)-[KR](4)
PS00316 G-x-[GF]-x-C-x-T-[GA]-D-C-x(1,2)-[GQ]-x(2,3)-C
PS00318 [LIVM]-G-x-[LIVM]-G-G-[AG]-T
PS00319 G-[VT]-[EK]-[FY]-V-C-C-P
PS00320 G-Y-E-N-P-T-Y-[KR]
PS00321 A-L-[KR]-[IF]-[FY]-[STA]-[STAD]-[LIVMQ]-R
PS00322 K-A-P-R-K-[QH]-[LI]
PS00323 [STDNQ]-G-[KRNQMHSI]-x(6)-[LIVM]-x(4)-[LIVMC]-[GSD]-x(2)-[LFI]-[GAS]
PS00324 [LIVM]-x-K-[FY]-G-G-[ST]-[SC]-[LIVM]
PS00326 L-K-[EAD]-A-E-x-R-A-[ET]
PS00327 [FYIV]-{ND}-[FYVG]-[LIVM]-D-[LIVMF]-x-[STA]-K-x-{K}-[FY]
PS00328 H-R-H-R-G-H-x(2)-[DE](7)
PS00329 [LIVMF]-[LIVMFY]-[DN]-[LIVMFS]-G-[GSH]-[GS]-[AST]-x(3)-[ST]-[LIVM]
PS00330 D-x-[LI]-x(4)-G-x-D-x-[LI]-x-G-G-x(3)-D
PS00331 [FM]-x-[DV]-D-x(2)-[GS]-T-[GSA]-x-[IV]-x-[LIVMAT]-[GAST]-[GASTC]
PS00332 G-[GNHD]-[SGA]-[GR]-x-R-x-[SGAWRV]-C-x(2)-[IV]
PS00333 E-G-[LIVMA]-[LIVM]-[LIVMA]-[KR]-x(5,8)-[YW]-[QNEKTI]-x(2,6)-[KRH]-x(3,5)
PS00335 V-S-E-x-Q-x(2)-H-x(2)-G
PS00336 [FY]-E-[LIVM]-G-S-[LIVMG]-[SA]-K
PS00337 [PA]-x-S-[ST]-F-K-[LIV]-[PALV]-x-[STA]-[LI]
PS00338 C-[LIVMFY]-{PT}-x-D-[LIVMFYSTA]-x-{S}-{RK}-{A}-x-[LIVMFY]-x(2)-[LIVMFYT]
PS00341 I-P-C-C-P-V
PS00344 C-x-[DNEHQSTI]-C-x(4,6)-[ST]-x(2)-[WM]-[HR]-[RKENAMSLPGQT]-x(3,4)-[GNEP]
PS00345 L-[FYW]-[QEDH]-F-[LI]-[LVQK]-{N}-[LI]-L
PS00346 [RKHN]-x(2)-M-x-Y-[DENQ]-x-[LIVM]-[STAG]-R-[STAG]-[LI]-R-x-Y
PS00347 C-[KR]-x-C-x(3)-I-x-[KAL]-x(3)-[RG]-x(16,18)-W-[FYH]-H-x(2)-C
PS00348 M-C-N-S-S-C-[MV]-G-G-M-N-R-R
PS00349 R-K-R-K-Y-F-K-K-H-E-K-R
PS00350 [RGS]-x-[RKS]-x(5)-[IL]-x-[DNGSK]-x(3)-[KR]-x(2)-T-[FY]-x-[RK](3)-x(2)
PS00351 Y-x-[PK]-x(2)-[IF]-x(2)-[LIVM](2)-x-[KRH]-x(3)-P-[RKQ]-x(3)-L-[LIVM]-F-x
PS00352 [FYKH]-G-[FL]-[IL]-x(6,7)-[DER]-[LIVM]-[FQ]-x-H-x-[STKR]-x-[LIVMFYC]
PS00353 [FI]-S-[KR]-K-C-x-[EK]-R-W-K-T-[MV]
PS00354 [AT]-x(1,2)-[RK](2)-[GP]-R-G-R-P-[RK]-x
PS00355 [RQ]-R-S-A-[RS]-L-S-A-[RKM]-[PL]
PS00356 [LIVM]-x-[DE]-[LIVM]-A-x(2)-[STAGV]-x-V-[GSTP]-x(2)-[STAG]-[LIVMA]-x(2)
PS00357 [KR]-E-[LIVM]-[EQ]-T-x(2)-[KR]-x-[LIVM](2)-x-[PAG]-[DE]-L-x-[KR]-H-A
PS00358 [LIVM]-x(2)-[LIVM]-[STAVC]-[GE]-[QV]-x(2)-[LIVMA]-x-[STC]-x-[STAG]
PS00359 [RKN]-x-[LIVM]-x-G-[ST]-x(2)-[SNQ]-[LIVM]-G-x-{M}-[LIVM]-x(0,1)-[DENG]
PS00360 [GS]-G-G-x(2)-[GSA]-[QK]-x(2)-[SA]-x(3)-[GSA]-x-[GSTAV]-[KR]-[GSALVD]
PS00361 [AV]-x(3)-[GDNSR]-[LIVMSTAG]-x(3)-G-P-[LIVM]-x-[LIVM]-P-T
PS00362 [LIVM]-x(2)-H-[LIVMFY]-x(3)-{S}-x-D-x(2)-[STAGN]-x(3)-[LF]-x(2)-{A}-x(6)
PS00363 [DEN]-[WV]-x(3)-G-[RKNM]-x(6)-[FYW]-[SV]-x(4)-[LIVM]-N-x(2)-N-V-x(2)-L
PS00364 W-x(4)-[YF]-D-x(3)-[DN]-[LIVMFYT]-[LIVMFY](3)-x(2)-G-x(2)-[STAG]-[PVT]
PS00365 [STVN]-G-C-x(3)-C-x(6)-[DE]-[LIVMF]-[GAT]-[LIVMF]
PS00366 [LV]-x-[LV]-[LIV]-K-[STV]-[ST]-x-[SN]-x-F-x(2)-[FY]-x(4)-[FY]-x(2)-L
PS00367 P-D-x(2)-H-[DE]-[LIVF]-[LIVMFY]-G-H-[LIVMC]-[PA]
PS00368 [IVMSEQ]-E-x(1,2)-[LIVTA]-[HY]-[GSA]-x-[STAVM]-Y-x(2)-[LIVMQ]-x(3)
PS00369 G-[LIVM]-H-[STAV]-R-[PAS]-[GSTA]-[STAMVN]
PS00370 G-[GA]-x-[STN]-x-H-[STA]-[STAV]-[LIVM](2)-[STAV]-[RG]
PS00371 G-x(2)-[LIVMFA]-[LIVMF](2)-H-[LIVMF]-G-[LIVMF]-x-T-[LIVA]
PS00372 [DENQ]-x(6)-[LIVMF]-[GA]-x(2)-[LIVM]-A-[LIVM]-P-H-[GAC]
PS00373 G-x-[STMC]-[IVTL]-x-[FYWVQELKR]-[VMAT]-x-[DEVMKAI]-x-[LIVMY]-D-x-G-x(2)
PS00374 [LIVMF]-P-C-H-R-[LIVMF](2)
PS00375 [FW]-x(2)-[QL]-x(2)-[LIVMYA]-[LIMV]-x(4,6)-[LVGAC]-[LVFYAHM]-[LIVMF]
PS00376 [GN]-[AS]-G-D-Q-G-x(3)-G-[FYHG]
PS00377 G-[GA]-G-[ASC]-[FY]-S-x-K-[DE]
PS00378 [LIVM]-G-F-[TN]-F-S-[FY]-P-x(5)-[LIVM]-[DNST]-x(3)-[LIVM]-x(2)-W-T-K-x
PS00379 D-G-x(2)-A-R-x(7,8)-G-x(3)-D-x(3)-D
PS00380 [FY]-x(3)-H-[LIV]-P-G-A-x(2)-[LIVF]
PS00381 T-x(2)-[LIVMF]-G-x-A-[SAC]-S-[MSA]-[PAG]-[STA]
PS00382 R-x(3)-[EAP]-x(3)-[LIVMFYT]-[LM]-[LIVM]-H-Q-P
PS00383 [LIVMF]-H-C-x(2)-G-x(2)-R-[STC]-[STAGP]
PS00384 H-Y-x-[GT]-D-[LIVMAF]-[DNSH]-x-P-x-H-[PA]-x-N
PS00385 P-x(2)-L-x(3)-K-W-E-x-C
PS00387 D-[SGDN]-D-[PE]-[LIVMF]-D-[LIVMGAC]
PS00388 [FYNAGS]-x(4)-[STNLV]-x-[FYW]-S-[PDS]-x(0,1)-G-[RKHDS]-x(2)-Q-[LIVA]
PS00389 [LIVM]-x-[LIVMFYT]-x(3)-[LIVMT]-[DENQK]-x-{G}-[LIVM]-x-[GSA]-G
PS00390 [FYWMV]-x(2)-[FYWM]-x-[FYW]-[DN]-x(6)-[LIVMF]-[GA]-R-T-x(3)-[WRL]
PS00391 [RK]-x(2)-C-[RKQWI]-x(5)-L-x(2)-C-[SA]-G
PS00392 S-[LIVMFYW]-x-{KG}-x(3)-K-[LIVMFYWGH]-[LIVMFYWG]-x-{R}-x-[LIVMFYW]-{V}
PS00393 [IVLC]-M-[LIVM]-G-Y-S-D-S-x-K-[DF]-[STAG]-G
PS00394 T-G-x-P-[LIVM](2)-D-A-x-M-[RA]-x-[LIVM]
PS00395 [SACVLG]-[AIPTV]-x(0,1)-K-[ADGS]-[DEN]-[GA]-Y-G-[HACILN]-[GD]
PS00396 [EQ]-x-L-Y-[DEQSTLM]-x(3,12)-[LIVST]-[ST]-Y-x-R-[ST]-[DEQSN]
PS00397 Y-[LIVAC]-R-[VA]-S-[ST]-x(2)-Q
PS00398 G-[DE]-x(2)-[LIVM]-{E}-x-{V}-[LIVM]-[DT]-R-[LIVM]-[GSA]
PS00399 G-x(2)-A-x(4,7)-[RQT]-[LIVMF]-G-H-[AS]-[GH]
PS00400 [PA]-[GA]-[LIVMC]-x(2)-R-[IV]-[ST]-x(3)-L-x(5)-[EQAV]-x(4)-[LIVM]-[EQK]
PS00401 K-x-[NQEK]-[GT]-G-[DQ]-x-[LIVM]-x(3)-Q-S
PS00405 G-Q-D-Q-T-K-Q-Q-I
PS00406 [FY]-[LIV]-[GV]-[DE]-E-[ARV]-[QLAH]-x(1,2)-[RKQ](2)-[GD]
PS00407 C-[DNH]-[TL]-x-[QT]-P-G-C-x(2)-[VAIL]-C-[FY]-D
PS00408 C-x(3,4)-P-C-x(2,3)-[LIVMTA]-[DENT]-C-[FYN]-[LIVMQ]-[SA]-[KRH]-P
PS00409 [KRHEQSTAG]-G-[FYLIVM]-[ST]-[LT]-[LIVP]-E-[LIVMFWSTAG](14)
PS00410 L-P-[RKT]-[GD]-[STNKEA]-[GND]-[LIVMG]-[VICA]-T-R
PS00411 [GSAT]-[KRHPSTQVME]-[LIVMFY]-x-[LIVMF]-[IVC]-[DN]-[LS]-[AH]-G-[SAN]-E
PS00413 S-F-R-G-H-I-x-R-K-K-[LIVM]
PS00415 L-R-R-R-L-S-D-S
PS00416 G-H-A-H-[SA]-G-M-G-K-[IV]-K
PS00417 [NT]-[LIVMF]-[DENSTG]-[KLNRGS]-[VAI]-x-[DEQA]-R-x(2)-[KRN]-[LIVM]
PS00418 [RK]-[FYW]-A-[GAP]-F-D-x-F-x(2)-[LV]-x(3)-[GASTY]-[GASTV]
PS00419 C-D-G-P-[GE]-R-G-G-T-C
PS00420 [GNRVM]-x(5)-[GLKA]-x(2)-[EQ]-x(6)-[WPS]-[GLKH]-x(2)-C-x(3)-[FYW]-x(8)
PS00421 [GC]-x(3)-[LIVMFS]-x(2)-[GSA]-[LIVMFTC]-[LIVMFA]-G-[CLYI]-x-[GA]-[STAPL]
PS00422 [DE]-[SN]-L-[SAN]-{EGI}-{ELT}-[DE]-x-E-L
PS00423 C-[LIVM](2)-E-[LIVM](2)-S-[DN]-[STA]-L-x-K-x-[SN]-x(3)-[LIVM]-[STA]-x-E
PS00424 T-E-[LF]-x(2)-L-x-C-L-x(2)-E-L
PS00426 C-x(4)-[SAGDV]-x(4)-[SPAL]-[LF]-x(2)-C-[RH]-x-[LIVMFYA](2)-x(3,4)-C
PS00427 C-x(2)-[GS]-x-C-C-x(1,2)-[NQRSEKD]-C-x-[FMYLVI]-x(6)-C-[RKNQ]
PS00428 [NV]-x(5)-[GTR]-[LIVMA]-x-P-[PTLIVME]-x-G-[LIVM]-x(3)-[LIVMFW](2)-S
PS00429 A-R-P-x(3)-K-x-S-x-T-N-A-Y-N-V-T-T-x(2)-[DN]-G-x(3)-Y-G
PS00431 G-[EQ]-T-V-V-P-G-G-T
PS00432 W-[IVC]-[STAK]-[RK]-x-[DE]-Y-[DNE]-[DE]
PS00433 [RK]-x(4)-[GAS]-H-x-[QL]-[QR]-[GS]-[GF]-x(5)-[DE]-[RL]
PS00434 L-x(3)-[FY]-K-H-x-N-x-[STAN]-S-F-[LIVM]-R-Q-L-[NH]-x-Y-x-[FYW]-[RKH]-K
PS00435 [DET]-[LIVMTA]-{NSYL}-{RPFC}-[LIVM]-[LIVMSTAG]-[SAG]-[LIVMSTAG]-H-[STA]
PS00436 [SGATV]-{D}-x(2)-[LIVMA]-R-[LIVMA]-x-[FW]-H-{V}-[SAC]
PS00437 R-[LIVMFSTAN]-F-[GASTNP]-Y-x-D-[AST]-[QEH]
PS00438 [IF]-x-[RH]-x(4)-[EQ]-R-x(2)-H-x(2)-[GAS]-[GASTFY]-[GAST]
PS00439 [LI]-[PK]-x-[LVPQ]-P-[IVTAL]-P-x-[LIVMA]-x-[DENQAS]-[ST]-[LIVMA]-x(2)
PS00440 R-[FYW]-x-[DA]-[KA]-x(0,1)-[LIVMFY]-x-[LIVMFY](2)-x(3)-[DNS]-[GSA]-x(6)
PS00441 R-[LIVMFYS]-x-[LIVM]-x-[QHG]-x-G-C-[FYNA]-[GAPV]-G-[GAC]-[STAVK]-x
PS00444 [LIVMFY]-G-x(2)-[FYL]-Q-[LIVM]-x-D-D-[LIVMFY]-x-[DNG]
PS00445 [GSA]-x-[LIVMFYW]-{D}-G-[LIVM]-x(7,8)-[HDENQ]-[LIVMF]-{PEQ}-{DTAI}-[AS]
PS00446 N-[SGAT]-[LIVMF]-R-R-x(9)-[SAR]-x(3)-[VA]-x(4)-N-x-[STA]-x(3)-[DN]-E-x
PS00447 R-x(2)-[GSAV]-K-x(3)-[LIVMFY]-[AGQ]-x(2)-Y-x(2)-[GS]-x(3)-[LIVMA]
PS00448 D-[LIVMFY]-[DNV]-x-[DNS]-x(2)-[LIVM]-[DN]-[SALM]-x-D-x(3)-[LIVMF]-x
PS00449 [STAGN]-{E}-[STAG]-[LIVMF]-R-L-{LP}-[SAGV]-N-[LIVMT]
PS00450 [LIVM]-x(2)-[GSACIVM]-x-[LIV]-[GTIV]-[STP]-C-x(0,1)-T-N-[GSTANI]-x(4)
PS00451 G-x(2)-[LIVMF]-x(4)-E-x(2,3)-[CSTAENV]-x(8,9)-[GNDS]-[GS](2)-[CS]-x(2)
PS00452 [GD]-[VI]-[LIVM]-x(0,1)-[GS]-x(5)-[FY]-x-[LIVM]-[FYWL]-[GS]-[DNTHKWE]
PS00455 [LIVMFY]-{E}-{VES}-[STG]-[STAG]-G-[ST]-[STEI]-[SG]-x-[PASLIVM]-[KR]
PS00456 [GS]-x(2)-[LIY]-x(3)-[LIVMFYWSTAG](7)-x(3)-[LIY]-[STAV]-x(2)-G-G-[LMF]
PS00457 [GAST]-[LIVM]-x(3)-[KR]-x(4)-G-A-x(2)-[GAS]-[LIVMGS]-[LIVMW]-[LIVMGAT]-G
PS00458 G-P-x-C-x-Y-x-A-A-x-V-x-R-x(3)-H-W
PS00459 K-x-C-H-x-K-x(2)-H-C-x(2)-K-x(3)-C-x(8)-K-x(2)-C-x(2)-[RK]-x-K-C-C-K-K
PS00460 [GNDRC]-[RKHNQFYCS]-x-[LIVMFCS]-[LIVMF](2)-x-N-[VT]-x-[STCA]-x-[CU]
PS00461 [LIVM]-x-[DG]-x(2)-[GAEHS]-[NQSD]-[KS]-G-[TE]-G-x-W
PS00462 T-[STA]-H-x-[ST]-[LIVMA]-x(4)-G-[SN]-x-V-[STA]-x-T-x-T-[LIVM]-[NE]
PS00463 [GASTPV]-C-x(2)-C-[RKHSTACW]-x(2)-[RKHQ]-x(2)-C-x(5,12)-C-x(2)-C-x(6,8)
PS00464 [RKQN]-x(2)-{G}-x-[RH]-[GAS]-x-G-[KRQS]-x(8)-{L}-[HDN]-[LIVM]-{A}
PS00465 S-Q-[STK]-[TA]-I-[SC]-R-[FH]-[ET]-x-[LSQ]-x(0,1)-[LIR]-[ST]
PS00466 C-x(2)-C-x(9)-[LIVMQSART]-[QH]-[STQLMI]-[RA]-[SACR]-x-[DE]-[DET]
PS00467 P-x(2)-R-G-[STAIV](2)-x-N-[APK]-x-[DE]
PS00468 [SN]-[VT]-D-T-[GAME]-A-[LIVM]-[AV]-x-[LM]-A-[LIVMF]-[ST]-C
PS00469 N-x(2)-H-[GA]-S-D-[GSA]-[LIVMPKNE]
PS00470 [NSK]-[LIMYTV]-[FYDNH]-[GEA]-[DNGSTY]-[IMVYL]-x-[STGDN]-[DN]-x(1,2)
PS00471 C-x-C-[LIVMS]-x(4,6)-[LIVMFY]-x(2)-[RKSEQNA]-x-[LIVM]-x(2)-[LIVMA]-x(5)
PS00472 C-C-[LIFYTRQ]-x(5,8)-[LIR]-x(4)-[LIVMFA]-x(2)-[FYWECI]-x(5,8)-C-x(3,4)
PS00473 Q-[HY]-[FYW]-S-x(4)-P-G
PS00474 [FL]-x(6)-[DN]-x(2)-[AGS]-x-[ST]-x-G-[KRH]-G-x(2)-G-x(3)-R
PS00475 [KR]-[LIVM](2)-[GASL]-x-[GT]-x-[LIVMA]-x(2,5)-[LIVMF]-x-[LIVMF]-x(3,4)
PS00476 G-E-x-[FYN]-H-N-[FY]-H-H-x-F-P-x-D-Y
PS00477 [PG]-x-[GS]-C-[GA]-E-[EQ]-x-[LIVM]
PS00478 C-x(2)-C-x(15,21)-[FYWHPCR]-H-x(2)-[CH]-x(2)-C-x(2)-C-x(3)-[LIVMF]
PS00479 H-x-[LIVMFYW]-x(8,11)-C-x(2)-C-x(3)-[LIVMFC]-x(5,10)-C-x(2)-C-x(4)-[HD]
PS00480 G-[FYAV]-[GA]-H-x-[IV]-x(1,2)-[RKTQ]-x(2)-[DV]-[PS]-R
PS00481 [RK]-E-C-T-G-L-x-W-E-W-W-[RK]
PS00482 D-[LIVMFYWSAP]-H-[LIVA]-H-[LIVF]-[RN]-x-[PGANF]
PS00483 [GAVS]-[ST]-D-x-A-P-H-x(4)-K
PS00484 [FYWHPVAS]-x(3)-C-x(3,4)-[SG]-x-[FYW]-x(3)-Q-x(5,12)-[FYW]-C-[VA]
PS00485 [SA]-[LIVM]-[NGS]-[STA]-D-D-P
PS00486 [STA]-[LIVMF]-x-[LIVM]-x-D-E-[LIVMFY]-[GCA]-[RKHAS]-[GS]-[GST]-x(4)-G
PS00487 [LIVMT]-[RK]-[LIVM]-G-[LIVM]-G-x-G-[SRK]-[LIVMAT]-C-x-T
PS00488 [GS]-[STG]-[LIVM]-[STG]-[SAC]-S-G-[DH]-L-x-[PN]-L-[SA]-x(2,3)-[SAGVTL]
PS00489 [LIVMF]-x-R-x(3)-K-x(2)-[LIVMF]-M-[PT]-x(2)-Y
PS00490 [STA]-x-[STAC](2)-x(2)-[STA]-D-[LIVMY](2)-L-P-x-[STAC](2)-x(2)-E
PS00491 [HA]-[GSYR]-[LIVMT]-[SG]-H-x-[LIV]-G-[LIVMNKS]-x-[IVEL]-[HNC]-[DEV]
PS00492 C-K-P-C-L-K-x-T-C
PS00493 C-L-[RK]-M-[RK]-x-[EQ]-C-[ED]-K-C
PS00494 [GA]-[LIVM]-P-[LIVM]-x-[LIVMFY]-x-W-x(6)-[RK]-x(6)-Y-x(3)-[AR]
PS00495 C-x(3)-[LIVMFY]-x(5)-[LIVMFY]-x(3)-[DENQ]-[LIVMFY]-x(10)-C-x(3)-C-T
PS00496 Y-[KR]-G-[AS]-[AE]-Y
PS00497 H-x(4,5)-F-[LIVMFTP]-x-[FW]-H-R-x(2)-[LVMT]-x(3)-E
PS00498 D-P-x-F-[LIVMFYW]-x(2)-H-x(3)-D
PS00500 L-[KR]-K-T-[DENT]-T-x(2)-K-N-[PT]-L
PS00501 [GS]-{PR}-S-M-{RS}-[PS]-[AT]-[LF]
PS00502 [GSDENKRH]-x(2)-[VMFC]-x(2)-[GS]-H-G-[LIVMAG]-x(1,2)-[LIVM]-G-S
PS00503 [IV]-x-G-[STAD]-[LIVT]-D-[FYI]-[IV]-[FSN]-G
PS00504 R-[ST]-H-[ST]-x(2)-A-x-G-G
PS00505 [FY]-P-S-[AGMS]-C-G-K-T-[NS]
PS00506 H-x-C-G-G-N-V-G-D
PS00507 R-G-[LIVMF]-E-x(15)-[QESMP]-[RK]-x-C-[GR]-[LIVM]-C
PS00508 [FY]-D-[PI]-[CU]-[LIMAV]-[ASG]-C-x(2,3)-H
PS00509 [GSNA]-x-[LIVMF]-[FYCI]-[LIVMFY]-R-[LIVMFY](2)-[GACNS]-[PAV]-[AV]-[LIV]
PS00510 [KR]-[DENQ]-[HN]-x(2)-G-L-N-x-G-x-W-D-Y-[LIVM]-F
PS00511 [PQA]-x-[LIVM]-S-[LIVM]-x(2)-[PST]-[LIVMF]-x-[LIVM]-L-R-x(2)-[LIVMW]
PS00512 G-[LIVMFY]-x(2)-[LIVMFY]-x-[LIVM]-D-[DF]-x(1,2)-W-x(3,7)-[RV]-[DNSF]
PS00513 G-I-[GR]-P-x-Y-x(2)-K-x(2)-R
PS00514 W-W-[LIVMFYW]-x(2)-C-x(2)-[GSA]-x(2)-N-G
PS00515 [GSA]-Q-x-K-S-[FY]-x-Q-x-K-[SA]
PS00516 G-[IV]-[GK]-x-W-[ST]-[AVI]-x-[LIVMFY](2)-x-[LIVM]-x(8)-[MF]-x(2)-[ED]-D
PS00517 [DEQ]-[KRQT]-[LMF]-E-[FYW]-[LV]-G-D-[SARHG]
PS00518 C-x-H-x-[LIVMFY]-C-x(2)-C-[LIVMYA]
PS00519 [GSTAP]-x(2)-[DNEQA]-[LIVM]-[GSA]-x(2)-[LIVMFYT]-[GAN]-[LIVMST]-[ST]
PS00520 [KQS]-x(4)-C-[QYCS]-x(4)-[LIVM](2)-x-[FLR]-[FYT]-[LMVR]-x-[DERTI]-[IV]
PS00521 [PALF]-x(2,3)-[LIV]-x(3)-[LIVM]-[STAC]-[STV]-x-[GANK]-G-x-T-x(2)-[AG]
PS00522 G-[SG]-[LFY]-x-R-[GE]-x(3)-[SGCL]-x-D-[LIVM]-D-[LIVMFY](3)-x(2)-[SAP]
PS00523 [SAPG]-[LIVMST]-[CS]-[STACG]-P-[STA]-R-x(2)-[LIVMFW](2)-[TAR]-G
PS00524 C-x-C-x(3)-C-x(5,6)-C-C-x-[DN]-[FY]-x(3)-C
PS00525 [PS]-[DENS]-x-Y-K-[GA]-K-G-[LIVM]
PS00526 Q-[KR]-R-[LIVM]-x-[SA]-x(4)-[CV]-G-x(3)-[IV]-[WK]-[LIVF]-[DNSV]-[PE]
PS00527 [RP]-x(0,1)-C-x(11,12)-[LIVMF]-{L}-[LIVMF]-[SC]-[RG]-x-{D}-{PK}-[RN]
PS00528 H-x-K-R-[LIVMF]-[SANK]-x-P-x(2)-[WY]-x-[LIVM]-x-[KRP]
PS00529 [FYAT]-G-x(2)-[KREILYV]-[STAI]-x-[GCAVI]-[FYKRE]-[GTALV]-x-[LIVYA]-Y
PS00530 [FYWL]-x-[LIVM]-H-G-L-[WY]-P
PS00531 [LIVMF]-x(2)-[HDGTY]-[EQ]-[FYW]-x-[KRT]-H-[GA]-x-C
PS00532 L-I-G-D-D-E-H-x-W-x-[DEPKVNA]-x-[GVS]-[IV]-x-N
PS00533 E-[KR]-x-[LIVMFAT]-x(3)-[LIVMFAC]-x-[GSALV]-[GSANHD]-C-x-[IVTACS]-[PLA]
PS00534 [LIVMF]-[LIVMFC]-x-[ST]-x-H-[GS]-[LIVM]-P-x(4,5)-[DENQKRLHAFSTI]-x-[GN]
PS00535 [LIVMH]-H-[RT]-[GA]-x-E-K-[LIVMTN]-x-E-x-[KRQ]
PS00536 K-[AI]-[CL]-S-G-K-[FI]-x-[PQ]
PS00537 [LIV]-x-[ST]-[LIVF]-R-[FYW]-x(2)-[IVL]-H-[STGAV]-[LIV]-[STGA]-[IV]-P
PS00538 R-T-E-[EQ]-Q-x(2)-[SA]-[LIVM]-x-[EQ]-T-A-A-S-M-E-Q-L-T-A-T-V
PS00540 E-x-[KR]-E-x(2)-E-[KR]-[LF]-[LIVMA]-x(2)-Q-N-x-R-x-G-R
PS00541 S-K-R-K-Y-R-K
PS00542 E-R-E-x(2)-[DE]-[LIVMFY](2)-x(6)-[HK]-x(3)-[KRP]-x-[LIVM]-[LIVMYS]
PS00543 [LIVM]-x(2)-G-[LM]-x(3)-[STGAV]-x-[LIVMT]-x-[LIVMTK]-[GE]-x-[KR]-x
PS00544 R-I-A-R-N-[TQ]-x(2)-[LIVMFY](2)-x-[EQH]-E-x(4)-[KRN]-x(2)-D-P-x-[GSA]
PS00545 [NS]-x-T-N-H-x-Y-[FW]-N-[LI]
PS00546 P-R-C-[GN]-x-P-[DR]-[LIVSAPKQ]
PS00547 [GT]-Q-[CA]-W-V-x-[SA]-[GAS]-[IVT]-x(2)-T-x-[LMSC]-R-[CSAG]-[LV]-G
PS00548 [GSTA]-[KR]-x(6)-G-x-[LIVMT]-x(2)-[NQSCH]-x(1,3)-[LIVFCA]-x(3)-[LIV]
PS00550 H-F-x(2)-[EQ]-[ENQ]-x(2)-[LMF]-x(4,7)-[FY]-x(5,6)-H-x(3)-[HR]
PS00001 N-{P}-[ST]-{P}
PS00004 [RK](2)-x-[ST]
PS00005 [ST]-x-[RK]
PS00006 [ST]-x(2)-[DE]
PS00007 [RK]-x(2,3)-[DE]-x(2,3)-Y
PS00008 G-{EDRKHPFYW}-x(2)-[STAGCN]-{P}
PS00009 x-G-[RK]-[RK]
PS00010 C-x-[DN]-x(4)-[FY]-x-C-x-C
PS00011 E-x(2)-[ERK]-E-x-C-x(6)-[EDR]-x(10,11)-[FYA]-[YW]
PS00012 [DEQGSTALMKRH]-[LIVMFYSTAC]-[GNQ]-[LIVMFYAG]-[DNEKHS]-S-[LIVMST]-{PCFY}
PS00016 R-G-D
PS00017 [AG]-x(4)-G-K-[ST]
PS00018 D-{W}-[DNS]-{ILVFYW}-[DENSTG]-[DNQGHRK]-{GP}-[LIVMC]-[DENQSTAGC]-x(2)
PS00019 [EQ]-{LNYH}-x-[ATV]-[FY]-{LDAM}-{T}-W-{PG}-N
PS00020 [LIVM]-x-[SGNL]-[LIVMN]-[DAGHENRS]-[SAGPNVT]-x-[DNEAG]-[LIVM]-x-[DEAGQ]
PS00021 [FY]-C-[RH]-[NS]-x(7,8)-[WY]-C
PS00022 C-x-C-x(2)-{V}-x(2)-G-{C}-x-C
PS00023 C-x(2)-P-F-x-[FYWIV]-x(7)-C-x(8,10)-W-C-x(4)-[DNSR]-[FYW]-x(3,5)-[FYW]-x
PS00024 [LIFAT]-{IL}-x(2)-W-x(2,3)-[PE]-x-{VF}-[LIVMFY]-[DENQS]-[STA]-[AV]
PS00025 [KRH]-x(2)-C-x-[FYPSTV]-x(3,4)-[ST]-x(3)-C-x(4)-C-C-[FYWH]
PS00026 C-x(4,5)-C-C-S-x(2)-G-x-C-G-x(3,4)-[FYW]-C
PS00027 [LIVMFYG]-[ASLVR]-x(2)-[LIVMSTACN]-x-[LIVM]-{Y}-x(2)-{L}-[LIV]
PS00028 C-x(2,4)-C-x(3)-[LIVMFYWC]-x(8)-H-x(3,5)-H
PS00029 L-x(6)-L-x(6)-L-x(6)-L
PS00031 C-x(2)-C-x(1,2)-[DENAVSPHKQT]-x(5,6)-[HNY]-[FY]-x(4)-C-x(2)-C-x(2)-F(2)
PS00032 [LIVMFE]-[FY]-P-W-M-[KRQTA]
PS00033 L-M-A-[EQ]-G-L-Y-N
PS00034 R-P-C-x(11)-C-V-S
PS00035 [RKQ]-R-[LIM]-x-[LF]-G-[LIVMFY]-x-Q-x-[DNQ]-V-G
PS00036 [KR]-x(1,3)-[RKSAQ]-N-{VL}-x-[SAQ](2)-{L}-[RKTAENQ]-x-R-{S}-[RK]
PS00039 [LIVMF](2)-D-E-A-D-[RKEN]-x-[LIVMFYGSTN]
PS00041 [KRQ]-[LIVMA]-x(2)-[GSTALIV]-{FYWPGDN}-x(2)-[LIVMSA]-x(4,9)-[LIVMF]-x
PS00042 [LIVM]-[STAG]-[RHNWM]-x(2)-[LIM]-[GA]-x-[LIVMFYAS]-[LIVSC]-[GA]-x
PS00045 [GSK]-F-x(2)-[LIVMF]-x(4)-[RKEQA]-x(2)-[RST]-x(1,2)-[GA]-x-[KN]-P-x-[TN]
PS00046 [AC]-G-L-x-F-P-V
PS00047 G-A-K-R-H
PS00048 [AV]-R-[NFY]-R-x(2,3)-[ST]-{S}-S-{NS}-S
PS00049 [GA]-[LIV](3)-x(9,10)-[DNS]-G-x(4)-[FY]-x(2)-[NT]-x(2)-V-[LIV]
PS00050 [RK](2)-[AM]-[IVFYT]-[IV]-[RKT]-L-[STANEQK]-x(7)-[LIVMFT]
PS00051 [KRM]-[PTKS]-x(3)-[LIVMFG]-x(2)-[NHS]-x(3)-R-[DNHY]-W-R-[RS]
PS00052 [DENSK]-x-[LIVMDET]-x(3)-[LIVMFTA](2)-x(6)-G-K-[KR]-x(5)-[LIVMF]
PS00053 [GE]-x(2)-[LIV](2)-[STY]-[ST]-{A}-x-G-[LIVM](2)-x(4)-[AG]-[KRHAYIL]
PS00054 [LIVMFR]-x-[GSTACQI]-[LIVMF]-x(1,2)-[GSTALVM]-x(0,1)-[GSN]-[LIVMFY]-x
PS00055 [RK]-x-P-N-S-[AR]-x-R
PS00056 G-D-x-[LIV]-x-[LIVA]-x-[QEK]-x-[RK]-P-[LIV]-S
PS00057 [IVRLP]-[DYN]-[YLF]-x(2,3)-[LIVMTPFS]-x(2)-[LIVM]-x(2)-[FYTS]-[LIVMT]
PS00058 G-F-R-G-E-[AG]-L
PS00059 G-H-E-x-{EL}-G-{AP}-x(4)-[GA]-x(2)-[IVSAC]
PS00060 [GSW]-x-[LIVTSACD]-[GH]-x(2)-[GSAE]-[GSHYQ]-x-[LIVTP]-[GAST]-[GAS]-x(3)
PS00061 [LIVSPADNK]-x(9)-{P}-x(2)-Y-[PSTAGNCV]-[STAGNQCIVM]-[STAGC]-K-{PC}
PS00062 [LIVMFY]-x(8)-{L}-[KREQ]-{K}-[LIVM]-G-[LIVM]-[SC]-N-[FY]
PS00063 [LIVM]-[PAIV]-[KR]-[ST]-{EPQG}-{RFI}-x(2)-R-{SVAF}-x-[GSTAEQK]-[NSL]-x
PS00064 [LIVMA]-G-[EQ]-H-G-[DN]-[ST]
PS00065 [LIVMA]-[AG]-[IVT]-[LIVMFY]-[AG]-x-G-[NHKRQGSAC]-[LIV]-G-x(13,14)
PS00066 [RKH]-x-{Y}-{I}-x-{I}-{L}-D-x-M-G-x-N-x-[LIVMA]
PS00067 [DNES]-x(2)-[GA]-F-[LIVMFYA]-x-[NT]-R-x(3)-[PA]-[LIVMFY]-[LIVMFYST]
PS00068 [LIVM]-T-[TRKMN]-L-D-x(2)-R-[STA]-x(3)-[LIVMFY]
PS00069 D-H-[YF]-L-G-K-[EQK]
PS00070 [FYLVA]-x-{GVEP}-{DILV}-G-[QE]-{LPYG}-C-[LIVMGSTANC]-[AGCN]-{HE}
PS00071 [ASV]-S-C-[NT]-T-{S}-x-[LIM]
PS00072 [GAC]-[LIVM]-[ST]-E-x(2)-[GSAN]-G-[ST]-D-x(2)-[GSA]
PS00073 [QDE]-x-{P}-G-[GS]-x-G-[LIVMFY]-x(2)-[DEN]-x(4)-[KR]-x(3)-[DEN]
PS00074 [LIV]-x(2)-G-G-[SAG]-K-x-[GV]-x(3)-[DNST]-[PL]
PS00075 [LVAGC]-[LIF]-G-x(4)-[LIVMF]-P-W-x(4,5)-[DE]-x(3)-[FYIV]-x(3)-[STIQ]
PS00076 G-G-x-C-[LIVA]-x(2)-G-C-[LIVM]-P
PS00077 [YWG]-[LIVFYWTA](2)-[VGS]-H-[LNP]-x-V-x(44,47)-H-H
PS00078 V-x-H-x(33,40)-C-x(3)-C-x(3)-H-x(2)-M
PS00079 G-x-[FYW]-x-[LIVMFYW]-x-[CST]-x-{PR}-{K}-x(2)-{S}-x-{LFH}-G-[LM]-x(3)
PS00080 H-C-H-x(3)-H-x(3)-[AG]-[LM]
PS00081 [LIVMACST]-H-P-[LIVM]-x-[KRQV]-[LIVMF](2)-x-[AP]-H
PS00082 [GNTIV]-x-H-x(5,7)-[LIVMF]-Y-x(2)-[DENTA]-P-x-[GP]-x(2,3)-E
PS00083 [LIVMF]-x-G-x-[LIVM]-x(4)-[GS]-x(2)-[LIVMA]-x(4)-[LIVM]-[DE]-[LIVMFYC]
PS00084 H-H-M-x(2)-F-x-C
PS00085 H-x-F-x(4)-H-T-H-x(2)-G
PS00086 [FW]-[SGNH]-x-[GD]-{F}-[RKHPT]-{P}-C-[LIVMFAP]-[GAD]
PS00087 [GA]-[IMFAT]-H-[LIVF]-H-{S}-x-[GP]-[SDG]-x-[STAGDE]
PS00088 D-x-[WF]-E-H-[STA]-[FY](2)
PS00089 W-x(2)-[LIVF]-x(6,7)-G-[LIVM]-[FYRA]-[NH]-x(3)-[STAQLIVM]-[ASC]-x(2)
PS00090 [STANQ]-[ET]-C-x(5)-G-D-[DN]-[LIVMT]-x-[STAGR]-[LIVMFYST]
PS00091 R-x(2)-[LIVMT]-x(2,3)-[FWY]-[QNYDI]-x(8,13)-[LVESI]-x-P-C-[HAVMLC]-x(3)
PS00092 [LIVMAC]-[LIVFYWA]-{DYP}-[DN]-P-P-[FYW]
PS00093 [LIVMF]-T-S-P-P-[FY]
PS00094 [DENKS]-x-[FLIV]-x(2)-[GSTC]-x-P-C-x-{V}-[FYWLIM]-S
PS00095 [RKQGTF]-x(2)-G-N-[SA]-[LIVF]-x-[VIP]-x-[LVMT]-x(3)-[LIVM]-x(3)-[LIVM]
PS00096 [DEQHY]-[LIVMFYA]-x-[GSTMVA]-[GSTAV]-[ST]-[STVM]-[HQ]-K-[STG]-[LFMI]-x
PS00097 F-x-[EK]-x-S-[GT]-R-T
PS00098 [LIVM]-[NST]-{T}-x-C-[SAGLI]-[ST]-[SAG]-[LIVMFYNS]-x-[STAG]-[LIVM]-x(6)
PS00099 [AG]-[LIVMA]-[STAGCLIVM]-[STAG]-[LIVMA]-C-{Q}-[AG]-x-[AG]-x-[AG]-x-[SAG]
PS00100 Q-[LIV]-H-H-[SA]-x(2)-D-G-[FY]-H
PS00101 [LIV]-[GAED]-x(2)-[STAV]-x-[LIV]-x(3)-[LIVAC]-x-[LIV]-[GAED]-x(2)
PS00102 E-A-[SC]-G-x-[GS]-x-M-K-x(2)-[LM]-N
PS00103 [LIVMFYWCTA]-[LIVM]-[LIVMA]-[LIVMFC]-[DE]-D-[LIVMS]-[LIVM]-[STAVD]
PS00104 [LIVF]-{LV}-x-[GANQK]-[NLG]-[SA]-[GA]-[TAI]-[STAGV]-{N}-R-x-[LIVMFYAT]-x
PS00105 [GS]-[LIVMFYTAC]-[GSTA]-K-x(2)-[GSALVN]-[LIVMFA]-x-[GNAR]-{V}-R-[LIVMA]
PS00106 G-R-x-N-[LIV]-I-G-[DE]-H-x-D-Y
PS00107 [LIV]-G-{P}-G-{P}-[FYWMGSTNH]-[SGA]-{PW}-[LIVCAT]-{PD}-x-[GSTACLIVMFY]
PS00108 [LIVMFYC]-x-[HY]-x-D-[LIVMFY]-K-x(2)-N-[LIVMFYCT](3)
PS00109 [LIVMFYC]-{A}-[HY]-x-D-[LIVMFY]-[RSTAC]-{D}-{PF}-N-[LIVMFYC](3)
PS00110 [LIVAC]-x-[LIVM](2)-[SAPCV]-K-[LIV]-E-[NKRST]-x-[DEQHS]-[GSTA]-[LIVM]
PS00111 [KRHGTCVN]-[VT]-[LIVMF]-[LIVMC]-R-x-D-x-N-[SACV]-P
PS00112 C-P-x(0,1)-[ST]-N-[ILV]-G-T
PS00113 [LIVMFYWCA]-[LIVMFYW](2)-D-G-[FYI]-P-R-x(3)-[NQ]
PS00114 D-[LIM]-H-[SANDT]-x-[QS]-[IMSTAVF]-[QMLPH]-[GA]-[FY]-F-x(2)-P
PS00115 Y-[ST]-P-[ST]-S-P-[STANK]
PS00116 [YA]-[GLIVMSTAC]-D-T-D-[SG]-[LIVMFTC]-{LA}-[LIVMSTAC]
PS00117 F-E-N-[RK]-G-x(3)-G-x(4)-H-P-H-x-Q
PS00118 C-C-{P}-x-H-{LGY}-x-C
PS00119 [LIVMA]-C-{LIVMFYWPCST}-C-D-{GS}-{G}-{N}-x-{QS}-C
PS00120 [LIV]-{KG}-[LIVFY]-[LIVMST]-G-[HYWV]-S-{YAG}-G-[GSTAC]
PS00121 Y-x(2)-Y-Y-x-C-x-C
PS00122 F-[GR]-G-x(4)-[LIVM]-x-[LIV]-x-G-x-S-[STAG]-G
PS00123 [IV]-x-D-S-[GAS]-[GASC]-[GAST]-[GA]-T
PS00124 [AG]-[RK]-[LI]-x(1,2)-[LIV]-[FY]-E-x(2)-P-[LIVM]-[GSA]
PS00125 [LIVMN]-[KR]-G-N-H-E
PS00126 H-D-[LIVMFY]-x-H-x-[AG]-x(2)-[NQ]-x-[LIVMFY]
PS00127 C-K-x(2)-N-T-F
PS00128 C-x(3)-C-x(2)-[LMF]-x(3)-[DEN]-[LI]-x(5)-C
PS00129 [GFY]-[LIVMF]-W-x-D-M-[NSA]-E
PS00130 [KR]-[LIVA]-[LIVC]-[LIVM]-x-G-[QI]-D-P-Y
PS00131 [LIVM]-x-[GSTA]-E-S-Y-[AG]-[GS]
PS00132 [PK]-x-[LIVMFY]-x-[LIVMFY]-x(2)-{E}-x-H-[STAG]-x-E-x-[LIVM]-[STAG]-{L}
PS00133 H-[STAG]-{ADNV}-{VGFI}-{YAR}-[LIVME]-{SDEP}-x-[LIVMFYW]-P-[FYW]
PS00134 [LIVM]-[ST]-A-[STAG]-H-C
PS00135 [DNSTAGC]-[GSTAPIMVQH]-x(2)-G-[DE]-S-G-[GS]-[SAPHV]-[LIVMFYWH]
PS00136 [STAIV]-{ERDL}-[LIVMF]-[LIVM]-D-[DSTA]-G-[LIVMFC]-x(2,3)-[DNH]
PS00137 H-G-[STM]-x-[VIC]-[STAGC]-[GS]-x-[LIVMA]-[STAGCLV]-[SAGM]
PS00138 G-T-S-x-[SA]-x-P-x-{L}-[STAVC]-[AG]
PS00139 Q-{V}-x-{DE}-[GE]-{F}-C-[YW]-{DN}-x-[STAGC]-[STAGCV]
PS00140 Q-x(3)-N-[SA]-C-G-x(3)-[LIVM](2)-H-[SA]-[LIVM]-[SA]
PS00141 [LIVMFGAC]-[LIVMTADN]-[LIVFSA]-D-[ST]-G-[STAV]-[STAPDENQ]-{GQ}
PS00142 [GSTALIVN]-{PCHR}-{KND}-H-E-[LIVMFYW]-{DEHRKP}-H-{EKPC}-[LIVMFYWGSPQ]
PS00143 G-x(8,9)-G-x-[STA]-H-[LIVMFY]-[LIVMC]-[DERN]-[HRKL]-[LMFAT]-x-[LFSTH]-x
PS00144 [LIVM]-x-{L}-T-G-G-T-[IV]-[AGS]
PS00145 [LIVM](2)-[CT]-H-[HNG]-L-x(3)-[LIVM]-x(2)-D-[LIVM]-x-F-[AS]
PS00146 [FY]-x-[LIVMFY]-{E}-S-[TV]-x-K-x(3)-{T}-[AGLM]-{D}-{KA}-[LC]
PS00149 G-[YV]-x-[ST]-x(2)-[IVAS]-G-K-x(0,1)-[FYWMK]-[HL]
PS00150 [LIV]-x-G-x-V-Q-[GH]-V-x-[FM]-R
PS00151 G-[FYW]-[AVC]-[KRQAM]-N-x(3)-G-x-V-x(5)-G
PS00152 P-[SAP]-[LIV]-[DNH]-{LKGN}-{F}-{S}-S-{DCPH}-S
PS00153 [IV]-T-x-E-x(2)-[DE]-x(3)-G-A-x-[SAKR]
PS00154 D-K-T-G-T-[LIVM]-[TI]
PS00155 P-x-[STA]-x-[LIV]-[IVT]-x-[GS]-G-Y-S-[QL]-G
PS00156 [LIVMFTAR]-[LIVMF]-x-D-x-K-x(2)-D-[IV]-[ADGP]-x-T-[CLIVMNTA]
PS00157 G-x-[DN]-F-x-K-x-D-E
PS00158 [LIVM]-x-[LIVMFYW]-E-G-x-[LSI]-L-K-[PA]-[SN]
PS00159 G-[LIVM]-x(3)-E-[LIV]-T-[LF]-R
PS00160 G-x(3)-[LIVMF]-K-[LF]-F-P-[SA]-x(3)-G
PS00161 K-[KR]-C-G-H-[LMQR]
PS00162 S-E-[HN]-x-[LIVM]-x(4)-[FYH]-x(2)-E-[LIVMGA]-H-[LIVMFA](2)
PS00163 G-S-x(2)-M-x-{RS}-K-x-N
PS00164 [LIVTMS]-[LIVP]-[LIV]-[KQ]-x-[ND]-Q-[INV]-[GA]-[ST]-[LIVM]-[STL]
PS00165 [DESH]-x(4,5)-[STVG]-{EVKD}-[AS]-[FYI]-K-[DLIFSA]-[RLVMF]-[GA]-[LIVMGA]
PS00166 [LIVM]-[STAG]-x-[LIVM]-[DENQRHSTA]-G-x(3)-[AG](3)-x(4)-[LIVMST]-x-[CSTA]
PS00167 [LIVM]-E-[LIVM]-[GQ]-x-[PALT]-[FYCHTWP]-[STPK]-[DEKY]-[PA]-[LIVMYGK]
PS00168 [LIVMYAHQ]-x-[HPYNVF]-x-G-[STA]-H-K-x-N-x(2)-[LIVM]-x-[QEH]
PS00169 G-x-D-x-[LIVM](2)-[IV]-K-P-[GSA]-x(2)-Y
PS00170 [FY]-x(2)-[STCNLVA]-x-[FV]-H-[RH]-[LIVMNS]-[LIVM]-x(2)-F-[LIVM]-x-Q
PS00171 [AVG]-[YLV]-E-P-[LIVMEPKST]-[WYEAS]-[SAL]-[IV]-[GN]-[TEKDVS]-[GKNAD]
PS00174 [GSA]-x-[LIVMCAYQS]-[LIVMFYWN]-x(4)-[FY]-[DNTH]-Q-x-[GA]-[IV]-[EQST]
PS00175 [LIVM]-x-R-H-G-[EQ]-x-{Y}-x-N
PS00176 [DEN]-x(6)-[GS]-[IT]-S-K-x(2)-Y-[LIVM]-x(3)-[LIVM]
PS00177 [LIVMA]-{R}-E-G-[DN]-S-A-{F}-[STAG]
PS00178 P-x(0,2)-[GSTAN]-[DENQGAPK]-x-[LIVMFP]-[HT]-[LIVMYAC]-G-[HNTG]
PS00180 [FYWL]-D-G-S-S-x(6,8)-[DENQSTAK]-[SA]-[DE]-x(2)-[LIVMFY]
PS00181 K-P-[LIVMFYA]-x(3,5)-[NPAT]-[GA]-[GSTAN]-[GA]-x-H-x(3)-S
PS00182 K-[LIVM]-x(5)-[LIVMA]-D-[RK]-[DN]-[LI]-Y
PS00183 [FYWLSP]-H-[PC]-[NHL]-[LIV]-x(3,4)-G-x-[LIVP]-C-[LIV]-x(1,2)-[LIVR]
PS00184 R-[LF]-G-D-P-E-x-[EQIM]
PS00185 [RK]-x-[STA]-x(2)-S-x-C-Y-[SL]
PS00186 [LIVM](2)-x-C-G-[STA]-x(2)-[STAG]-x(2)-T-x-[DNG]
PS00187 [LIVMF]-[GSA]-x(5)-P-x(4)-[LIVMFYW]-x-[LIVMF]-x-G-D-[GSA]-[GSAC]
PS00188 [GDN]-[DEQTR]-x-[LIVMFY]-x(2)-[LIVM]-x-[AIV]-M-K-[LVMAT]-x(3)-[LIVM]-x
PS00189 [GDN]-x(2)-[LIVF]-x(3)-{VH}-{M}-[LIVMFCA]-x(2)-[LIVMFA]-{LDFY}-{KPE}-x-K
PS00191 [FY]-[LIVMK]-{I}-{Q}-H-P-[GA]-G
PS00194 [LIVMF]-[LIVMSTA]-x-[LIVMFYC]-[FYWSTHE]-x(2)-[FYWGTN]-C-[GATPLVE]
PS00195 [LIVMD]-[FYSA]-x(4)-C-[PV]-[FYWH]-C-x(2)-[TAV]-x(2,3)-[LIV]
PS00196 [GA]-x(0,2)-[YSA]-x(0,1)-[VFY]-{SEDT}-C-x(1,2)-[PG]-x(0,1)-H-x(2,4)-[MQ]
PS00197 C-{C}-{C}-[GA]-{C}-C-[GAST]-{CPDEKRHFYW}-C
PS00198 C-x-{P}-C-{C}-x-C-{CP}-x-{C}-C-[PEG]
PS00201 [LIV]-[LIVFY]-[FY]-x-[ST]-{V}-x-[AGC]-x-T-{P}-x(2)-A-{L}-x-[LIV]
PS00202 [LIVM]-x-{G}-{R}-W-x-C-P-x-C-[AGD]
PS00203 C-x-C-[GSTAP]-x(2)-C-x-C-x(2)-C-x-C-x(2)-C-x-K
PS00204 D-x(2)-[LIVMF]-[STACQV]-[DH]-[FYMI]-[LIV]-[EN]-x(2)-[FYC]-L-x(6)-[LIVMQ]
PS00205 Y-x(0,1)-[VAS]-V-[IVAC]-[IVA]-[IVA]-[RKH]-[RKS]-[GDENSA]
PS00206 [YI]-x-G-A-[FLI]-[KRHNQS]-C-L-x(3,4)-G-[DENQ]-V-[GAT]-[FYW]
PS00207 [DENQK]-[YF]-x-[LY]-L-C-x-[DN]-x(5,8)-[LIV]-x(4,5)-C-x(2)-A-x(4)-[HQR]-x
PS00208 [SN]-P-x-[LV]-x(2)-H-A-x(3)-F
PS00209 Y-[FYW]-x-E-D-[LIVM]-x(2)-N-x(6)-H-x(3)-P
PS00210 T-x(2)-R-D-P-x-[FY]-[FYW]
PS00211 [LIVMFYC]-[SA]-[SAPGLVFYKQH]-G-[DENQMW]-[KRQASPCLIMFW]-[KRNQSTAVM]
PS00212 [FY]-x(6)-C-C-x(2)-{C}-x(4)-C-[LFY]-x(6)-[LIVMFYW]
PS00213 [DENG]-{A}-[DENQGSTARK]-x(0,2)-[DENQARK]-[LIVFY]-{CP}-G-{C}-W-[FYWLRH]
PS00214 [GSAIVK]-{FE}-[FYW]-x-[LIVMF]-x(2)-{K}-x-[NHG]-[FY]-[DE]-x-[LIVMFY]
PS00216 [LIVMSTAG]-[LIVMFSAG]-{SH}-{RDE}-[LIVMSA]-[DE]-{TD}-[LIVMFYWA]-G-R-[RK]
PS00217 [LIVMF]-x-G-[LIVMFA]-{V}-x-G-{KP}-x(7)-[LIFY]-x(2)-[EQ]-x(6)-[RK]
PS00218 [STAGC]-G-[PAG]-x(2,3)-[LIVMFYWA](2)-x-[LIVMFYW]-x-[LIVMFWSTAGC](2)
PS00219 F-G-G-[LIVM](2)-[KR]-D-[LIVM]-[RK]-R-R-Y
PS00220 [FI]-L-I-S-L-I-F-I-Y-E-T-F-x-K-L
PS00221 [HNQA]-{D}-N-P-[STA]-[LIVMF]-[ST]-[LIVMF]-[GSTAFY]
PS00222 [GP]-C-[GSET]-[CE]-[CA]-x(2)-C-[ALP]-x(6)-C
PS00223 [TG]-[STV]-x(8)-[LIVMF]-x(2)-R-x(3)-[DEQNH]-x(2)-{S}-x(4)-[IFY]-x(7)
PS00224 F-L-A-[QH]-[QE]-E-S
PS00226 [IV]-{K}-[TACI]-Y-[RKH]-{E}-[LM]-L-[DE]
PS00227 [SAG]-G-G-T-G-[SA]-G
PS00229 G-S-x(2)-N-x(2)-H-x-[PA]-[AG]-G(2)
PS00230 [STAGDN]-Y-x-Y-E-{AV}-{L}-[DE]-[KR]-[STAGCI]
PS00231 C-[DE]-[YF]-N-R-D
PS00232 [LIV]-x-[LIV]-x-D-x-N-D-[NH]-x-P
PS00233 G-x(7)-[DEN]-G-x(6)-[FY]-x-A-[DNG]-x(2,3)-G-[FY]-x-[APV]
PS00234 [LIVM]-x-[DE]-[LIVMFYT]-[LIVM]-[DE]-x-[LIVM](2)-[DKR](2)-G-x-[LIVMA]
PS00235 F-L-x(2)-T-x(3)-R-x(3)-A-x(2)-Q-x(3)-L-x(2)-F
PS00236 C-x-[LIVMFQ]-x-[LIVMF]-x(2)-[FY]-P-x-D-x(3)-C
PS00237 [GSTALIVMFYWC]-[GSTANCPDE]-{EDPKRH}-x-{PQ}-[LIVMNQGA]-{RK}-{RK}-[LIVMFT]
PS00238 [LIVMFWAC]-[PSGAC]-x-{G}-x-[SAC]-K-[STALIMR]-[GSACPNV]-[STACP]-x(2)
PS00239 [DN]-[LIV]-Y-x(3)-Y-Y-R
PS00240 G-x-H-x-N-[LIVM]-V-N-L-L-G-A-C-T
PS00242 [FYWS]-[RK]-x-G-F-F-x-R
PS00243 C-x-[GNQ]-x(1,3)-G-x-C-x-C-x(2)-C-x-C
PS00244 [NQH]-x(4)-P-x-H-x(2)-[SAG]-x(11)-[SAGC]-x-H-[SAG](2)
PS00245 [RGS]-[GSA]-[PV]-H-x-C-H-x(2)-Y
PS00246 C-[KR]-C-H-G-[LIVMT]-S-G-x-C
PS00247 G-x-[LIM]-x-[STAGP]-x(6,7)-[DENA]-C-x-[FLM]-x-[EQ]-x(6)-Y
PS00248 [GSRE]-C-[KRL]-G-[LIVT]-[DE]-x(3)-[YW]-x-S-x-C
PS00249 P-[PSR]-C-V-x(3)-R-C-[GSTA]-G-C-C
PS00250 [LIVM]-x(2)-P-x(2)-[FY]-x(4)-C-x-G-x-C
PS00251 [LV]-x-[LIVM]-{V}-x-{L}-G-[LIVMF]-Y-[LIVMFY](2)-x(2)-[QEKHL]-[LIVMGT]-x
PS00252 [FYH]-[FY]-x-[GNRCDS]-[LIVM]-x(2)-[FYL]-L-x(7)-[CY]-[AT]-W
PS00253 [FC]-x-S-[ASLV]-x(2)-P-x(2)-[FYLIV]-[LI]-[SCA]-T-x(7)-[LIVM]
PS00254 C-x(9)-C-x(6)-G-L-x(2)-[FY]-x(3)-L
PS00255 N-x-[LAP]-[SCT]-F-L-K-x-L-L
PS00256 Q-[LV]-[NT]-[FY]-[ST]-x(2)-W
PS00257 W-A-x-G-[SH]-[LF]-M
PS00258 C-[SAGDN]-[STN]-x(0,1)-[SA]-T-C-[VMA]-x(3)-[LYF]-x(3)-[LYF]
PS00259 Y-x(0,1)-[GD]-[WH]-M-[DR]-F
PS00260 [YH]-[STAIVGD]-[DEQ]-[AGF]-[LIVMSTE]-[FYLR]-x-[DENSTAK]-[DENSTA]
PS00261 C-[STAGM]-G-[HFYL]-C-x-[ST]
PS00262 C-C-{P}-{P}-x-C-[STDNEKPI]-x(3)-[LIVMFS]-x(3)-C
PS00263 C-F-G-x(3)-[DEA]-[RH]-I-x(3)-S-x(2)-G-C
PS00264 C-[LIFY]-[LIFYV]-x-N-[CS]-P-x-G
PS00265 [FY]-x(3)-[LIVM]-x(2)-Y-x(3)-[LIVMFY]-x-R-x-R-[YF]
PS00266 C-x-[STN]-x(2)-[LIVMFYS]-x-[LIVMSTA]-P-x(5)-[TALIV]-x(7)-[LIVMFY]-x(6)
PS00268 W-x(0,2)-[KDN]-{Q}-{L}-K-[KRE]-[LI]-E-[RKN]
PS00269 C-x-C-x(3,5)-C-x(7)-G-x-C-x(9)-C-C
PS00270 C-x-C-x(4)-D-x(2)-C-x(2)-[FY]-C
PS00271 C-C-x(5)-R-x(2)-[FY]-x(2)-C
PS00272 G-C-x(1,3)-C-P-x(8,10)-C-C-x(2)-[PDEN]
PS00273 C-C-x(2)-C-C-x-P-A-C-x-G-C
PS00274 [KT]-x(2)-N-W-x(2)-T-[DN]-T
PS00275 [LIVMA]-x-[LIVMSTA](2)-x-E-[SAGV]-[STAL]-R-[FY]-[RKNQST]-x-[LIVM]-[EQS]
PS00276 T-x(2)-W-x-P-[LIVMFY](3)-x(2)-E
PS00277 Y-G-G-[LIV]-T-{I}-{N}-x(2)-N
PS00278 K-x(2)-[LIVF]-x(4)-[LIVF]-D-x(3)-R-x(2)-L-x(5)-[LIV]-Y
PS00279 Y-x(6)-[FY]-G-T-H-[FY]
PS00280 F-x(2)-{I}-G-C-x(6)-[FY]-x(5)-C
PS00281 C-x(5,6)-[DENQKRHSTA]-C-[PASTDH]-[PASTDK]-[ASTDV]-C-[NDEKS]-[DEKRHSTA]-C
PS00282 C-x(4)-{C}-x(2)-C-x-{A}-x(4)-Y-x(3)-C-x(2,3)-C
PS00283 [LIVM]-x-D-{EK}-[EDNTY]-[DG]-[RKHDENQ]-x-[LIVM]-x-{E}-{Q}-x(2)-Y-x
PS00284 [LIVMFY]-{G}-[LIVMFYAC]-[DNQ]-[RKHQS]-[PST]-F-[LIVMFY]-[LIVMFYC]-x
PS00285 [FYW]-P-[EQH]-[LIV](2)-G-x(2)-[STAGV]-x(2)-A
PS00286 C-P-x(5)-C-x(2)-[DN]-x-D-C-x(3)-C-x-C
PS00287 [GSTEQKRV]-Q-[LIVT]-[VAF]-[SAGQ]-G-{DG}-[LIVMNK]-{TK}-x-[LIVMFY]-{S}
PS00288 C-x-C-x-P-x-H-P-Q-x(2)-[FIV]-C
PS00289 H-x-C-x-[ST]-W-x-[ST]
PS00290 [FY]-{L}-C-{PGAD}-[VA]-{LC}-H
PS00291 A-G-A-A-A-A-G-A-V-V-G-G-L-G-G-Y
PS00292 R-x(2)-[LIVMSA]-x(2)-[FYWS]-[LIVM]-x(8)-[LIVMFC]-x(4)-[LIVMFYA]-x(2)
PS00293 [RKA]-C-[DE]-[RH]-x(3)-[LIVMF]-x(3)-[LIVM]-x-[SGAN]-[LIVMF]-x-K
PS00295 [FY]-R-Y-G-x-[DE](2)-x-[DE]-[LIVM](2)-G-[LIVM]-x-F-x-[RK]-[DEQ]-[LIVM]
PS00296 A-[AS]-{L}-[DEQ]-E-{A}-{Q}-{R}-x-G-G-[GA]
PS00297 [IV]-D-L-G-T-[ST]-x-[SC]
PS00298 Y-x-[NQHD]-[KHR]-[DE]-[IVA]-F-[LM]-R-[ED]
PS00299 K-x(2)-[LIVM]-x-[DESAK]-x(3)-[LIVM]-[PAQ]-x(3)-Q-x-[LIVM]-[LIVMC]
PS00300 P-[LIVM]-x-[FYL]-[LIVMAT]-[GS]-{Q}-[GS]-[EQ]-x-{K}-x(2)-[LIVMF]
PS00301 D-[KRSTGANQFYW]-x(3)-E-[KRAQ]-x-[RKQD]-[GC]-[IVMK]-[ST]-[IV]-x(2)
PS00302 [PT]-G-K-H-G-x-A-K
PS00303 [LIVMFYW](2)-x(2)-[LKQ]-D-x(3)-[DN]-x(3)-[DNSG]-[FY]-x-[ES]-[FYVC]-x(2)
PS00304 K-x-E-[LIV]-A-x-[DE]-[LIVMF]-G-[LIVMF]
PS00305 N-G-x-[DE](2)-x-[LIVMF]-C-[ST]-x(11,12)-[PAG]-D
PS00306 C-L-[LV]-A-x-A-[LVF]-A
PS00307 [LIV]-[STAG]-V-[DEQV]-[FLI]-D-[ST]
PS00308 [LIV]-{LA}-[EDQ]-[FYWKR]-V-{VF}-[LIVF]-G-[LF]-[ST]
PS00310 [STA]-C-[LIVM]-[LIVMFYW]-A-x-[LIVMFYW]-x(3)-[LIVMFYW]-x(3)-Y
PS00311 C-x(2)-D-x(3,4)-[LIVM](2)-P-[LIVM]-x-[LIVM]-G-x(2)-[LIVM]-x-G-[LIVM](2)
PS00312 I-I-x-[GAC]-V-M-A-G-[LIVM](2)
PS00313 [IVM]-x-G-Q-D-x-V-K-x(5)-[KN]-G-x(3)-[STLV]
PS00314 A-G-Y-G-S-T-x-T
PS00315 S(4)-[SD]-[DE]-x-[DE]-[GVE]-x(1,7)-[GE]-x(0,2)-[KR](4)
PS00316 G-x-[GF]-x-C-x-T-[GA]-D-C-x(1,2)-[GQ]-x(2,3)-C
PS00318 [LIVM]-G-x-[LIVM]-G-G-[AG]-T
PS00319 G-[VT]-[EK]-[FY]-V-C-C-P
PS00320 G-Y-E-N-P-T-Y-[KR]
PS00321 A-L-[KR]-[IF]-[FY]-[STA]-[STAD]-[LIVMQ]-R
PS00322 K-A-P-R-K-[QH]-[LI]
PS00323 [STDNQ]-G-[KRNQMHSI]-x(6)-[LIVM]-x(4)-[LIVMC]-[GSD]-x(2)-[LFI]-[GAS]
PS00324 [LIVM]-x-K-[FY]-G-G-[ST]-[SC]-[LIVM]
PS00326 L-K-[EAD]-A-E-x-R-A-[ET]
PS00327 [FYIV]-{ND}-[FYVG]-[LIVM]-D-[LIVMF]-x-[STA]-K-x-{K}-[FY]
PS00328 H-R-H-R-G-H-x(2)-[DE](7)
PS00329 [LIVMF]-[LIVMFY]-[DN]-[LIVMFS]-G-[GSH]-[GS]-[AST]-x(3)-[ST]-[LIVM]
PS00330 D-x-[LI]-x(4)-G-x-D-x-[LI]-x-G-G-x(3)-D
PS00331 [FM]-x-[DV]-D-x(2)-[GS]-T-[GSA]-x-[IV]-x-[LIVMAT]-[GAST]-[GASTC]
PS00332 G-[GNHD]-[SGA]-[GR]-x-R-x-[SGAWRV]-C-x(2)-[IV]
PS00333 E-G-[LIVMA]-[LIVM]-[LIVMA]-[KR]-x(5,8)-[YW]-[QNEKTI]-x(2,6)-[KRH]-x(3,5)
PS00335 V-S-E-x-Q-x(2)-H-x(2)-G
PS00336 [FY]-E-[LIVM]-G-S-[LIVMG]-[SA]-K
PS00337 [PA]-x-S-[ST]-F-K-[LIV]-[PALV]-x-[STA]-[LI]
PS00338 C-[LIVMFY]-{PT}-x-D-[LIVMFYSTA]-x-{S}-{RK}-{A}-x-[LIVMFY]-x(2)-[LIVMFYT]
PS00341 I-P-C-C-P-V
PS00344 C-x-[DNEHQSTI]-C-x(4,6)-[ST]-x(2)-[WM]-[HR]-[RKENAMSLPGQT]-x(3,4)-[GNEP]
PS00345 L-[FYW]-[QEDH]-F-[LI]-[LVQK]-{N}-[LI]-L
PS00346 [RKHN]-x(2)-M-x-Y-[DENQ]-x-[LIVM]-[STAG]-R-[STAG]-[LI]-R-x-Y
PS00347 C-[KR]-x-C-x(3)-I-x-[KAL]-x(3)-[RG]-x(16,18)-W-[FYH]-H-x(2)-C
PS00348 M-C-N-S-S-C-[MV]-G-G-M-N-R-R
PS00349 R-K-R-K-Y-F-K-K-H-E-K-R
PS00350 [RGS]-x-[RKS]-x(5)-[IL]-x-[DNGSK]-x(3)-[KR]-x(2)-T-[FY]-x-[RK](3)-x(2)
PS00351 Y-x-[PK]-x(2)-[IF]-x(2)-[LIVM](2)-x-[KRH]-x(3)-P-[RKQ]-x(3)-L-[LIVM]-F-x
PS00352 [FYKH]-G-[FL]-[IL]-x(6,7)-[DER]-[LIVM]-[FQ]-x-H-x-[STKR]-x-[LIVMFYC]
PS00353 [FI]-S-[KR]-K-C-x-[EK]-R-W-K-T-[MV]
PS00354 [AT]-x(1,2)-[RK](2)-[GP]-R-G-R-P-[RK]-x
PS00355 [RQ]-R-S-A-[RS]-L-S-A-[RKM]-[PL]
PS00356 [LIVM]-x-[DE]-[LIVM]-A-x(2)-[STAGV]-x-V-[GSTP]-x(2)-[STAG]-[LIVMA]-x(2)
PS00357 [KR]-E-[LIVM]-[EQ]-T-x(2)-[KR]-x-[LIVM](2)-x-[PAG]-[DE]-L-x-[KR]-H-A
PS00358 [LIVM]-x(2)-[LIVM]-[STAVC]-[GE]-[QV]-x(2)-[LIVMA]-x-[STC]-x-[STAG]
PS00359 [RKN]-x-[LIVM]-x-G-[ST]-x(2)-[SNQ]-[LIVM]-G-x-{M}-[LIVM]-x(0,1)-[DENG]
PS00360 [GS]-G-G-x(2)-[GSA]-[QK]-x(2)-[SA]-x(3)-[GSA]-x-[GSTAV]-[KR]-[GSALVD]
PS00361 [AV]-x(3)-[GDNSR]-[LIVMSTAG]-x(3)-G-P-[LIVM]-x-[LIVM]-P-T
PS00362 [LIVM]-x(2)-H-[LIVMFY]-x(3)-{S}-x-D-x(2)-[STAGN]-x(3)-[LF]-x(2)-{A}-x(6)
PS00363 [DEN]-[WV]-x(3)-G-[RKNM]-x(6)-[FYW]-[SV]-x(4)-[LIVM]-N-x(2)-N-V-x(2)-L
PS00364 W-x(4)-[YF]-D-x(3)-[DN]-[LIVMFYT]-[LIVMFY](3)-x(2)-G-x(2)-[STAG]-[PVT]
PS00365 [STVN]-G-C-x(3)-C-x(6)-[DE]-[LIVMF]-[GAT]-[LIVMF]
PS00366 [LV]-x-[LV]-[LIV]-K-[STV]-[ST]-x-[SN]-x-F-x(2)-[FY]-x(4)-[FY]-x(2)-L
PS00367 P-D-x(2)-H-[DE]-[LIVF]-[LIVMFY]-G-H-[LIVMC]-[PA]
PS00368 [IVMSEQ]-E-x(1,2)-[LIVTA]-[HY]-[GSA]-x-[STAVM]-Y-x(2)-[LIVMQ]-x(3)
PS00369 G-[LIVM]-H-[STAV]-R-[PAS]-[GSTA]-[STAMVN]
PS00370 G-[GA]-x-[STN]-x-H-[STA]-[STAV]-[LIVM](2)-[STAV]-[RG]
PS00371 G-x(2)-[LIVMFA]-[LIVMF](2)-H-[LIVMF]-G-[LIVMF]-x-T-[LIVA]
PS00372 [DENQ]-x(6)-[LIVMF]-[GA]-x(2)-[LIVM]-A-[LIVM]-P-H-[GAC]
PS00373 G-x-[STMC]-[IVTL]-x-[FYWVQELKR]-[VMAT]-x-[DEVMKAI]-x-[LIVMY]-D-x-G-x(2)
PS00374 [LIVMF]-P-C-H-R-[LIVMF](2)
PS00375 [FW]-x(2)-[QL]-x(2)-[LIVMYA]-[LIMV]-x(4,6)-[LVGAC]-[LVFYAHM]-[LIVMF]
PS00376 [GN]-[AS]-G-D-Q-G-x(3)-G-[FYHG]
PS00377 G-[GA]-G-[ASC]-[FY]-S-x-K-[DE]
PS00378 [LIVM]-G-F-[TN]-F-S-[FY]-P-x(5)-[LIVM]-[DNST]-x(3)-[LIVM]-x(2)-W-T-K-x
PS00379 D-G-x(2)-A-R-x(7,8)-G-x(3)-D-x(3)-D
PS00380 [FY]-x(3)-H-[LIV]-P-G-A-x(2)-[LIVF]
PS00381 T-x(2)-[LIVMF]-G-x-A-[SAC]-S-[MSA]-[PAG]-[STA]
PS00382 R-x(3)-[EAP]-x(3)-[LIVMFYT]-[LM]-[LIVM]-H-Q-P
PS00383 [LIVMF]-H-C-x(2)-G-x(2)-R-[STC]-[STAGP]
PS00384 H-Y-x-[GT]-D-[LIVMAF]-[DNSH]-x-P-x-H-[PA]-x-N
PS00385 P-x(2)-L-x(3)-K-W-E-x-C
PS00387 D-[SGDN]-D-[PE]-[LIVMF]-D-[LIVMGAC]
PS00388 [FYNAGS]-x(4)-[STNLV]-x-[FYW]-S-[PDS]-x(0,1)-G-[RKHDS]-x(2)-Q-[LIVA]
PS00389 [LIVM]-x-[LIVMFYT]-x(3)-[LIVMT]-[DENQK]-x-{G}-[LIVM]-x-[GSA]-G
PS00390 [FYWMV]-x(2)-[FYWM]-x-[FYW]-[DN]-x(6)-[LIVMF]-[GA]-R-T-x(3)-[WRL]
PS00391 [RK]-x(2)-C-[RKQWI]-x(5)-L-x(2)-C-[SA]-G
PS00392 S-[LIVMFYW]-x-{KG}-x(3)-K-[LIVMFYWGH]-[LIVMFYWG]-x-{R}-x-[LIVMFYW]-{V}
PS00393 [IVLC]-M-[LIVM]-G-Y-S-D-S-x-K-[DF]-[STAG]-G
PS00394 T-G-x-P-[LIVM](2)-D-A-x-M-[RA]-x-[LIVM]
PS00395 [SACVLG]-[AIPTV]-x(0,1)-K-[ADGS]-[DEN]-[GA]-Y-G-[HACILN]-[GD]
PS00396 [EQ]-x-L-Y-[DEQSTLM]-x(3,12)-[LIVST]-[ST]-Y-x-R-[ST]-[DEQSN]
PS00397 Y-[LIVAC]-R-[VA]-S-[ST]-x(2)-Q
PS00398 G-[DE]-x(2)-[LIVM]-{E}-x-{V}-[LIVM]-[DT]-R-[LIVM]-[GSA]
PS00399 G-x(2)-A-x(4,7)-[RQT]-[LIVMF]-G-H-[AS]-[GH]
PS00400 [PA]-[GA]-[LIVMC]-x(2)-R-[IV]-[ST]-x(3)-L-x(5)-[EQAV]-x(4)-[LIVM]-[EQK]
PS00401 K-x-[NQEK]-[GT]-G-[DQ]-x-[LIVM]-x(3)-Q-S
PS00405 G-Q-D-Q-T-K-Q-Q-I
PS00406 [FY]-[LIV]-[GV]-[DE]-E-[ARV]-[QLAH]-x(1,2)-[RKQ](2)-[GD]
PS00407 C-[DNH]-[TL]-x-[QT]-P-G-C-x(2)-[VAIL]-C-[FY]-D
PS00408 C-x(3,4)-P-C-x(2,3)-[LIVMTA]-[DENT]-C-[FYN]-[LIVMQ]-[SA]-[KRH]-P
PS00409 [KRHEQSTAG]-G-[FYLIVM]-[ST]-[LT]-[LIVP]-E-[LIVMFWSTAG](14)
PS00410 L-P-[RKT]-[GD]-[STNKEA]-[GND]-[LIVMG]-[VICA]-T-R
PS00411 [GSAT]-[KRHPSTQVME]-[LIVMFY]-x-[LIVMF]-[IVC]-[DN]-[LS]-[AH]-G-[SAN]-E
PS00413 S-F-R-G-H-I-x-R-K-K-[LIVM]
PS00415 L-R-R-R-L-S-D-S
PS00416 G-H-A-H-[SA]-G-M-G-K-[IV]-K
PS00417 [NT]-[LIVMF]-[DENSTG]-[KLNRGS]-[VAI]-x-[DEQA]-R-x(2)-[KRN]-[LIVM]
PS00418 [RK]-[FYW]-A-[GAP]-F-D-x-F-x(2)-[LV]-x(3)-[GASTY]-[GASTV]
PS00419 C-D-G-P-[GE]-R-G-G-T-C
PS00420 [GNRVM]-x(5)-[GLKA]-x(2)-[EQ]-x(6)-[WPS]-[GLKH]-x(2)-C-x(3)-[FYW]-x(8)
PS00421 [GC]-x(3)-[LIVMFS]-x(2)-[GSA]-[LIVMFTC]-[LIVMFA]-G-[CLYI]-x-[GA]-[STAPL]
PS00422 [DE]-[SN]-L-[SAN]-{EGI}-{ELT}-[DE]-x-E-L
PS00423 C-[LIVM](2)-E-[LIVM](2)-S-[DN]-[STA]-L-x-K-x-[SN]-x(3)-[LIVM]-[STA]-x-E
PS00424 T-E-[LF]-x(2)-L-x-C-L-x(2)-E-L
PS00426 C-x(4)-[SAGDV]-x(4)-[SPAL]-[LF]-x(2)-C-[RH]-x-[LIVMFYA](2)-x(3,4)-C
PS00427 C-x(2)-[GS]-x-C-C-x(1,2)-[NQRSEKD]-C-x-[FMYLVI]-x(6)-C-[RKNQ]
PS00428 [NV]-x(5)-[GTR]-[LIVMA]-x-P-[PTLIVME]-x-G-[LIVM]-x(3)-[LIVMFW](2)-S
PS00429 A-R-P-x(3)-K-x-S-x-T-N-A-Y-N-V-T-T-x(2)-[DN]-G-x(3)-Y-G
PS00431 G-[EQ]-T-V-V-P-G-G-T
PS00432 W-[IVC]-[STAK]-[RK]-x-[DE]-Y-[DNE]-[DE]
PS00433 [RK]-x(4)-[GAS]-H-x-[QL]-[QR]-[GS]-[GF]-x(5)-[DE]-[RL]
PS00434 L-x(3)-[FY]-K-H-x-N-x-[STAN]-S-F-[LIVM]-R-Q-L-[NH]-x-Y-x-[FYW]-[RKH]-K
PS00435 [DET]-[LIVMTA]-{NSYL}-{RPFC}-[LIVM]-[LIVMSTAG]-[SAG]-[LIVMSTAG]-H-[STA]
PS00436 [SGATV]-{D}-x(2)-[LIVMA]-R-[LIVMA]-x-[FW]-H-{V}-[SAC]
PS00437 R-[LIVMFSTAN]-F-[GASTNP]-Y-x-D-[AST]-[QEH]
PS00438 [IF]-x-[RH]-x(4)-[EQ]-R-x(2)-H-x(2)-[GAS]-[GASTFY]-[GAST]
PS00439 [LI]-[PK]-x-[LVPQ]-P-[IVTAL]-P-x-[LIVMA]-x-[DENQAS]-[ST]-[LIVMA]-x(2)
PS00440 R-[FYW]-x-[DA]-[KA]-x(0,1)-[LIVMFY]-x-[LIVMFY](2)-x(3)-[DNS]-[GSA]-x(6)
PS00441 R-[LIVMFYS]-x-[LIVM]-x-[QHG]-x-G-C-[FYNA]-[GAPV]-G-[GAC]-[STAVK]-x
PS00444 [LIVMFY]-G-x(2)-[FYL]-Q-[LIVM]-x-D-D-[LIVMFY]-x-[DNG]
PS00445 [GSA]-x-[LIVMFYW]-{D}-G-[LIVM]-x(7,8)-[HDENQ]-[LIVMF]-{PEQ}-{DTAI}-[AS]
PS00446 N-[SGAT]-[LIVMF]-R-R-x(9)-[SAR]-x(3)-[VA]-x(4)-N-x-[STA]-x(3)-[DN]-E-x
PS00447 R-x(2)-[GSAV]-K-x(3)-[LIVMFY]-[AGQ]-x(2)-Y-x(2)-[GS]-x(3)-[LIVMA]
PS00448 D-[LIVMFY]-[DNV]-x-[DNS]-x(2)-[LIVM]-[DN]-[SALM]-x-D-x(3)-[LIVMF]-x
PS00449 [STAGN]-{E}-[STAG]-[LIVMF]-R-L-{LP}-[SAGV]-N-[LIVMT]
PS00450 [LIVM]-x(2)-[GSACIVM]-x-[LIV]-[GTIV]-[STP]-C-x(0,1)-T-N-[GSTANI]-x(4)
PS00451 G-x(2)-[LIVMF]-x(4)-E-x(2,3)-[CSTAENV]-x(8,9)-[GNDS]-[GS](2)-[CS]-x(2)
PS00452 [GD]-[VI]-[LIVM]-x(0,1)-[GS]-x(5)-[FY]-x-[LIVM]-[FYWL]-[GS]-[DNTHKWE]
PS00455 [LIVMFY]-{E}-{VES}-[STG]-[STAG]-G-[ST]-[STEI]-[SG]-x-[PASLIVM]-[KR]
PS00456 [GS]-x(2)-[LIY]-x(3)-[LIVMFYWSTAG](7)-x(3)-[LIY]-[STAV]-x(2)-G-G-[LMF]
PS00457 [GAST]-[LIVM]-x(3)-[KR]-x(4)-G-A-x(2)-[GAS]-[LIVMGS]-[LIVMW]-[LIVMGAT]-G
PS00458 G-P-x-C-x-Y-x-A-A-x-V-x-R-x(3)-H-W
PS00459 K-x-C-H-x-K-x(2)-H-C-x(2)-K-x(3)-C-x(8)-K-x(2)-C-x(2)-[RK]-x-K-C-C-K-K
PS00460 [GNDRC]-[RKHNQFYCS]-x-[LIVMFCS]-[LIVMF](2)-x-N-[VT]-x-[STCA]-x-[CU]
PS00461 [LIVM]-x-[DG]-x(2)-[GAEHS]-[NQSD]-[KS]-G-[TE]-G-x-W
PS00462 T-[STA]-H-x-[ST]-[LIVMA]-x(4)-G-[SN]-x-V-[STA]-x-T-x-T-[LIVM]-[NE]
PS00463 [GASTPV]-C-x(2)-C-[RKHSTACW]-x(2)-[RKHQ]-x(2)-C-x(5,12)-C-x(2)-C-x(6,8)
PS00464 [RKQN]-x(2)-{G}-x-[RH]-[GAS]-x-G-[KRQS]-x(8)-{L}-[HDN]-[LIVM]-{A}
PS00465 S-Q-[STK]-[TA]-I-[SC]-R-[FH]-[ET]-x-[LSQ]-x(0,1)-[LIR]-[ST]
PS00466 C-x(2)-C-x(9)-[LIVMQSART]-[QH]-[STQLMI]-[RA]-[SACR]-x-[DE]-[DET]
PS00467 P-x(2)-R-G-[STAIV](2)-x-N-[APK]-x-[DE]
PS00468 [SN]-[VT]-D-T-[GAME]-A-[LIVM]-[AV]-x-[LM]-A-[LIVMF]-[ST]-C
PS00469 N-x(2)-H-[GA]-S-D-[GSA]-[LIVMPKNE]
PS00470 [NSK]-[LIMYTV]-[FYDNH]-[GEA]-[DNGSTY]-[IMVYL]-x-[STGDN]-[DN]-x(1,2)
PS00471 C-x-C-[LIVMS]-x(4,6)-[LIVMFY]-x(2)-[RKSEQNA]-x-[LIVM]-x(2)-[LIVMA]-x(5)
PS00472 C-C-[LIFYTRQ]-x(5,8)-[LIR]-x(4)-[LIVMFA]-x(2)-[FYWECI]-x(5,8)-C-x(3,4)
PS00473 Q-[HY]-[FYW]-S-x(4)-P-G
PS00474 [FL]-x(6)-[DN]-x(2)-[AGS]-x-[ST]-x-G-[KRH]-G-x(2)-G-x(3)-R
PS00475 [KR]-[LIVM](2)-[GASL]-x-[GT]-x-[LIVMA]-x(2,5)-[LIVMF]-x-[LIVMF]-x(3,4)
PS00476 G-E-x-[FYN]-H-N-[FY]-H-H-x-F-P-x-D-Y
PS00477 [PG]-x-[GS]-C-[GA]-E-[EQ]-x-[LIVM]
PS00478 C-x(2)-C-x(15,21)-[FYWHPCR]-H-x(2)-[CH]-x(2)-C-x(2)-C-x(3)-[LIVMF]
PS00479 H-x-[LIVMFYW]-x(8,11)-C-x(2)-C-x(3)-[LIVMFC]-x(5,10)-C-x(2)-C-x(4)-[HD]
PS00480 G-[FYAV]-[GA]-H-x-[IV]-x(1,2)-[RKTQ]-x(2)-[DV]-[PS]-R
PS00481 [RK]-E-C-T-G-L-x-W-E-W-W-[RK]
PS00482 D-[LIVMFYWSAP]-H-[LIVA]-H-[LIVF]-[RN]-x-[PGANF]
PS00483 [GAVS]-[ST]-D-x-A-P-H-x(4)-K
PS00484 [FYWHPVAS]-x(3)-C-x(3,4)-[SG]-x-[FYW]-x(3)-Q-x(5,12)-[FYW]-C-[VA]
PS00485 [SA]-[LIVM]-[NGS]-[STA]-D-D-P
PS00486 [STA]-[LIVMF]-x-[LIVM]-x-D-E-[LIVMFY]-[GCA]-[RKHAS]-[GS]-[GST]-x(4)-G
PS00487 [LIVMT]-[RK]-[LIVM]-G-[LIVM]-G-x-G-[SRK]-[LIVMAT]-C-x-T
PS00488 [GS]-[STG]-[LIVM]-[STG]-[SAC]-S-G-[DH]-L-x-[PN]-L-[SA]-x(2,3)-[SAGVTL]
PS00489 [LIVMF]-x-R-x(3)-K-x(2)-[LIVMF]-M-[PT]-x(2)-Y
PS00490 [STA]-x-[STAC](2)-x(2)-[STA]-D-[LIVMY](2)-L-P-x-[STAC](2)-x(2)-E
PS00491 [HA]-[GSYR]-[LIVMT]-[SG]-H-x-[LIV]-G-[LIVMNKS]-x-[IVEL]-[HNC]-[DEV]
PS00492 C-K-P-C-L-K-x-T-C
PS00493 C-L-[RK]-M-[RK]-x-[EQ]-C-[ED]-K-C
PS00494 [GA]-[LIVM]-P-[LIVM]-x-[LIVMFY]-x-W-x(6)-[RK]-x(6)-Y-x(3)-[AR]
PS00495 C-x(3)-[LIVMFY]-x(5)-[LIVMFY]-x(3)-[DENQ]-[LIVMFY]-x(10)-C-x(3)-C-T
PS00496 Y-[KR]-G-[AS]-[AE]-Y
PS00497 H-x(4,5)-F-[LIVMFTP]-x-[FW]-H-R-x(2)-[LVMT]-x(3)-E
PS00498 D-P-x-F-[LIVMFYW]-x(2)-H-x(3)-D
PS00500 L-[KR]-K-T-[DENT]-T-x(2)-K-N-[PT]-L
PS00501 [GS]-{PR}-S-M-{RS}-[PS]-[AT]-[LF]
PS00502 [GSDENKRH]-x(2)-[VMFC]-x(2)-[GS]-H-G-[LIVMAG]-x(1,2)-[LIVM]-G-S
PS00503 [IV]-x-G-[STAD]-[LIVT]-D-[FYI]-[IV]-[FSN]-G
PS00504 R-[ST]-H-[ST]-x(2)-A-x-G-G
PS00505 [FY]-P-S-[AGMS]-C-G-K-T-[NS]
PS00506 H-x-C-G-G-N-V-G-D
PS00507 R-G-[LIVMF]-E-x(15)-[QESMP]-[RK]-x-C-[GR]-[LIVM]-C
PS00508 [FY]-D-[PI]-[CU]-[LIMAV]-[ASG]-C-x(2,3)-H
PS00509 [GSNA]-x-[LIVMF]-[FYCI]-[LIVMFY]-R-[LIVMFY](2)-[GACNS]-[PAV]-[AV]-[LIV]
PS00510 [KR]-[DENQ]-[HN]-x(2)-G-L-N-x-G-x-W-D-Y-[LIVM]-F
PS00511 [PQA]-x-[LIVM]-S-[LIVM]-x(2)-[PST]-[LIVMF]-x-[LIVM]-L-R-x(2)-[LIVMW]
PS00512 G-[LIVMFY]-x(2)-[LIVMFY]-x-[LIVM]-D-[DF]-x(1,2)-W-x(3,7)-[RV]-[DNSF]
PS00513 G-I-[GR]-P-x-Y-x(2)-K-x(2)-R
PS00514 W-W-[LIVMFYW]-x(2)-C-x(2)-[GSA]-x(2)-N-G
PS00515 [GSA]-Q-x-K-S-[FY]-x-Q-x-K-[SA]
PS00516 G-[IV]-[GK]-x-W-[ST]-[AVI]-x-[LIVMFY](2)-x-[LIVM]-x(8)-[MF]-x(2)-[ED]-D
PS00517 [DEQ]-[KRQT]-[LMF]-E-[FYW]-[LV]-G-D-[SARHG]
PS00518 C-x-H-x-[LIVMFY]-C-x(2)-C-[LIVMYA]
PS00519 [GSTAP]-x(2)-[DNEQA]-[LIVM]-[GSA]-x(2)-[LIVMFYT]-[GAN]-[LIVMST]-[ST]
PS00520 [KQS]-x(4)-C-[QYCS]-x(4)-[LIVM](2)-x-[FLR]-[FYT]-[LMVR]-x-[DERTI]-[IV]
PS00521 [PALF]-x(2,3)-[LIV]-x(3)-[LIVM]-[STAC]-[STV]-x-[GANK]-G-x-T-x(2)-[AG]
PS00522 G-[SG]-[LFY]-x-R-[GE]-x(3)-[SGCL]-x-D-[LIVM]-D-[LIVMFY](3)-x(2)-[SAP]
PS00523 [SAPG]-[LIVMST]-[CS]-[STACG]-P-[STA]-R-x(2)-[LIVMFW](2)-[TAR]-G
PS00524 C-x-C-x(3)-C-x(5,6)-C-C-x-[DN]-[FY]-x(3)-C
PS00525 [PS]-[DENS]-x-Y-K-[GA]-K-G-[LIVM]
PS00526 Q-[KR]-R-[LIVM]-x-[SA]-x(4)-[CV]-G-x(3)-[IV]-[WK]-[LIVF]-[DNSV]-[PE]
PS00527 [RP]-x(0,1)-C-x(11,12)-[LIVMF]-{L}-[LIVMF]-[SC]-[RG]-x-{D}-{PK}-[RN]
PS00528 H-x-K-R-[LIVMF]-[SANK]-x-P-x(2)-[WY]-x-[LIVM]-x-[KRP]
PS00529 [FYAT]-G-x(2)-[KREILYV]-[STAI]-x-[GCAVI]-[FYKRE]-[GTALV]-x-[LIVYA]-Y
PS00530 [FYWL]-x-[LIVM]-H-G-L-[WY]-P
PS00531 [LIVMF]-x(2)-[HDGTY]-[EQ]-[FYW]-x-[KRT]-H-[GA]-x-C
PS00532 L-I-G-D-D-E-H-x-W-x-[DEPKVNA]-x-[GVS]-[IV]-x-N
PS00533 E-[KR]-x-[LIVMFAT]-x(3)-[LIVMFAC]-x-[GSALV]-[GSANHD]-C-x-[IVTACS]-[PLA]
PS00534 [LIVMF]-[LIVMFC]-x-[ST]-x-H-[GS]-[LIVM]-P-x(4,5)-[DENQKRLHAFSTI]-x-[GN]
PS00535 [LIVMH]-H-[RT]-[GA]-x-E-K-[LIVMTN]-x-E-x-[KRQ]
PS00536 K-[AI]-[CL]-S-G-K-[FI]-x-[PQ]
PS00537 [LIV]-x-[ST]-[LIVF]-R-[FYW]-x(2)-[IVL]-H-[STGAV]-[LIV]-[STGA]-[IV]-P
PS00538 R-T-E-[EQ]-Q-x(2)-[SA]-[LIVM]-x-[EQ]-T-A-A-S-M-E-Q-L-T-A-T-V
PS00540 E-x-[KR]-E-x(2)-E-[KR]-[LF]-[LIVMA]-x(2)-Q-N-x-R-x-G-R
PS00541 S-K-R-K-Y-R-K
PS00542 E-R-E-x(2)-[DE]-[LIVMFY](2)-x(6)-[HK]-x(3)-[KRP]-x-[LIVM]-[LIVMYS]
PS00543 [LIVM]-x(2)-G-[LM]-x(3)-[STGAV]-x-[LIVMT]-x-[LIVMTK]-[GE]-x-[KR]-x
PS00544 R-I-A-R-N-[TQ]-x(2)-[LIVMFY](2)-x-[EQH]-E-x(4)-[KRN]-x(2)-D-P-x-[GSA]
PS00545 [NS]-x-T-N-H-x-Y-[FW]-N-[LI]
PS00546 P-R-C-[GN]-x-P-[DR]-[LIVSAPKQ]
PS00547 [GT]-Q-[CA]-W-V-x-[SA]-[GAS]-[IVT]-x(2)-T-x-[LMSC]-R-[CSAG]-[LV]-G
PS00548 [GSTA]-[KR]-x(6)-G-x-[LIVMT]-x(2)-[NQSCH]-x(1,3)-[LIVFCA]-x(3)-[LIV]
PS00550 H-F-x(2)-[EQ]-[ENQ]-x(2)-[LMF]-x(4,7)-[FY]-x(5,6)-H-x(3)-[HR]
PS00551 [STAN]-x-[CH]-x(2,3)-C-[STAG]-[GSTVMF]-x-C-x-[LIVMFYW]-x-[LIVMA]-x(3,4)
PS00552 [GSA]-x-[LIVMFA]-[ASM]-x(2)-[STACLIV]-[GSDENQR]-[LIVC]-[STANHK]-x(3)
PS00553 E-S-x-L-x-R-x(2)-[KR]-x-L-x(4)-[KR](2)-x(2)-[DE]-x-L
PS00554 G-R-N-E-L-I-x(2)-[YH]-I-x(3)-[TC]-x(3)-R-T-[RK](2)-Q-[LIVM]-S-S-H-[LIVM]
PS00555 [FYW]-x-[PSTA]-x(7)-G-x-[LIVM]-x-[LIVM]-x-[FYWI]-x(2)-D-x(5)-P
PS00556 [LIVMA](4)-C-[LIVMFA]-T-[LIVMA](2)-x(4)-[LIVM]-x-[RG]-x(2)-L-[CY]
PS00557 S-N-H-G-[AG]-R-Q
PS00558 [YH]-x(2)-D-[SPCAD]-x-[STA]-x(3)-[TAG]-[KR]-[LIVMF]-[DNSTA]-[DNS]-x(4)
PS00559 [GA]-{A}-x(2)-[KRNQHT]-x(11,14)-[LIVMFYWS]-x(3)-{V}-{GK}-x(3)-[LIVMF]-x
PS00560 [LIVF]-x(2)-[LIVSTA]-x-[IVPST]-x-[GSDNQL]-[SAGV]-[SG]-H-x-[IVAQ]-P-x(3)
PS00561 W-N-[STAGR]-[STDN]-[LIVM]-x(2)-[GST]-x-[GST]-x(2)-[LIVMFT]-[GA]
PS00562 C-G-G-x(4,7)-G-x(3)-C-x(4,5)-C-x(3,5)-[NHGS]-x-[FYWMI]-x(2)-Q-C
PS00563 P-[KRQ]-[KR](2)-[DE]-x-S-L-[EG]-E
PS00564 [ASL]-[FY]-S-G-G-[LV]-D-T-[ST]
PS00565 G-x-T-x-[KRM]-G-N-D-x(2)-R-F
PS00566 [GST]-[LIVMAPKR]-[IVEAT]-[FY]-[GSAC]-[IVL]-E-[FYV]-[SA]-x(0,1)-[REA]
PS00567 K-[LIVM]-x-R-D-x(3)-R-G-x-[ST]-x-E
PS00568 S-[KR]-S-x-K-[AG]-x-[SA]-E-K-K-[STA]-K
PS00569 V-V-H-F-F-K-N
PS00570 C-x-H-R-[GAR]-x(7,8)-[GEKVI]-[NERAQ]-x(4,5)-C-x-[FY]-H
PS00571 G-[GAV]-S-[GS](2)-G-x-[GSAE]-[GSAVYCT]-x-[LIVMT]-[GSA]-x(6)-[GSAT]-x
PS00572 [LIVMFSTC]-[LIVFYS]-[LIV]-[LIVMST]-E-N-G-[LIVMFAR]-[CSAGN]
PS00573 C-x(2)-C-D-[GAS]-x(2,4)-[FYA]-x(4)-[LIVMAT]-x(0,1)-[LIVM](2)-[GI]-[GDS]
PS00574 [ST]-[SA]-x(3)-[QR]-[LI]-x(5,6)-D-Y-x(2)-[LIVMFYW]-[LIVM]-[DE]
PS00575 G-[MV]-A-L-F-C-G-C-G-H
PS00576 [LIVMFY]-x(2)-G-x(2)-Y-x-F-x-K-x(2)-[SN]-[STAV]-[LIVMFYW]-V
PS00577 [DENY]-x(2)-[KRI]-[STA]-x(2)-V-G-x-[DN]-x-[FW]-T-[KR]
PS00578 [LIVM]-[STAMR]-G-G-x-[DG]-x(2)-G-x-[PV]-M
PS00579 [KNQS]-[PSTLNH]-{D}-{F}-[LIVMFA]-[KRGSADN]-x-[LIVYSTA]-[KR]-[KRHQS]
PS00580 F-x-R-x(4)-[KRL]-x(2)-[KRT]-[LIVMFT]-x(3,5)-W-R-[KR]-x(2)-G
PS00581 [KR]-[DS]-x-[SE]-[KR]-[LIVMF]-[KR]-x-[LIVM]-[LIVMY]-[LIVM]-x-L-[KA]
PS00582 [YW]-x-[STKV]-x-[KR]-[NSKQ]-x(3,4)-[PATQS]-x(1,2)-[LIVMF]-[EAQVSIT]-x(2)
PS00583 [AG]-G-x(0,1)-[GAP]-x-N-{AGLS}-[STA]-x(2)-{A}-x-{G}-{GNKA}-[GS]-x(9)-G
PS00584 [DNSK]-[PSTV]-x-[SAG](2)-[GD]-D-x(3)-[SAGV]-[AG]-[LIVMFYA]-[LIVMSTAP]
PS00585 G-[KRQEA]-x(3)-[FYVIM]-x-[ACVTI]-x(2)-[LIVMA]-[LIVMAT]-[AG]-[DN]-x(2,3)
PS00586 [KRG]-[KR]-x-[GSAC]-[KRQVA]-[LIVMK]-[WY]-[LIVM]-[KRN]-[LIVM]-[LFY]-[APK]
PS00587 [LIVMKS]-x-[LIVMFYWA](3)-[STAG]-E-[STACVI]-G-[WY]-P-[STN]-x-[SAGQ]
PS00588 [GTARYQ]-x-{R}-x(7)-[LIVMYSTA](2)-[GSTA]-[STADEN]-N-[LIVM]-[SAN]-N-x
PS00589 [GSTADE]-[KREQSTIV]-x-{EPRK}-{VPGL}-x-[KRDN]-S-[LIVMF](2)-{EVPL}-[LIVM]
PS00590 [PST]-x(4)-F-[NQ]-x-K-x(3)-C-x-[LF]-L-x(2)-Y-[HK]
PS00591 [GTA]-{QNAG}-{GSV}-[LIVN]-x-[IVMF]-[ST]-E-[LIY]-[DN]-[LIVMF]
PS00592 [STV]-x-[LIVMFY]-[STV]-x(2)-G-x-[NKR]-x(4)-[PLIVM]-H-x-R
PS00593 L-[IV]-A-H-[STACH]-Y-[STV]-[RT]-Y-[LIVM]-G
PS00594 I-G-[GA]-G-M-[LF]-[SA]-x-P-x(3)-[SA]-G-x(2)-F
PS00595 [LIVFYCHT]-[DGH]-[LIVMFYAC]-[LIVMFYA]-x(2)-[GSTAC]-[GSTA]-[HQR]-K
PS00597 [LIVM]-[PA]-x(2)-C-x(1,2)-[LIVM]-x(1,2)-[LIVMST]-x-[LIVMFY]-x(1,2)
PS00598 [FYL]-x-[LIVMC]-[KR]-W-x-[GDNR]-[FYWLME]-x(5,6)-[ST]-W-[ESV]-[PSTDEN]
PS00599 T-[LIVMFYW]-[STAG]-K-[SAG]-[LIVMFYWR]-[SAG]-{ENKR}-{TNDR}-[SAG]
PS00600 [LIVMFYWCS]-[LIVMFYWCAH]-x-D-[ED]-[IVA]-x(2,3)-[GAT]-[LIVMFAGCYN]-x(0,1)
PS00601 W-x-[DNH]-x(5)-[LIVF]-x-[IV]-P-W-x-H-x(9,10)-[DE]-x(2)-[LIVF]-F-[KRQ]-x
PS00602 [FYVMT]-x(1,3)-[LIVMH]-[APNT]-[LIVM]-x(1,2)-[LIVM]-H-x-D-H-[GACH]
PS00603 [GA]-x(1,2)-[DE]-x-Y-x-[STAPV]-x-C-[NKR]-x-[CH]-[LIVMFYWH]
PS00604 L-S-V-[DE]-C-x-N-K-T
PS00605 [GSTA]-R-[NQ]-P-x(5)-{A}-x-{F}-x(2)-[LIVMFYW](2)-x(3)-[LIVMFYW]-x-[DE]
PS00606 G-{A}-{KGR}-x(2)-[LIVMFTAP]-{R}-x-[AGC]-C-[STA](2)-[STAG]-x(2)-{LI}
PS00607 H-x-H-L-D-H-[LIVM]-x-[GS]-[LIVMA]-[LIVM](2)-x-S-[AP]
PS00608 [DENQLF]-[KRVW]-N-[HRY]-[STAPV]-[SAC]-[LIVMFS]-[LIVMFSA]-[LIVMFS]-W
PS00609 H-x(2)-[PV]-x(4)-[LIVMA]-N-D-P-N-[GA]
PS00610 W-[RK]-F-[GPA]-[YF]-x(4)-[NYHS]-G-G-[GCA]-x-[FY]
PS00611 [IVTPM]-[DEG]-x(2,3)-[AYEPQ]-G-[PT]-[ST]-[ED]-[LIVSTA]-[LIVMAECGFT]
PS00612 C-x-[DNS]-x(2)-C-x(2)-G-[KRH]-x-C-x(6,7)-P-x-C-x-C-x(3,5)-C-P
PS00613 F-P-x-R-[IM]-x-D-W-L-x-[NQ]
PS00614 [LIVMFY]-[LIVMC]-x-E-[LIVMFYC]-K-[KRSPQV]-[STAHKRYC]-S-P-[STRK]-x(3,7)
PS00615 C-[LIVMFYATG]-x(5,12)-[WL]-{T}-[DNSR]-{C}-{LI}-C-x(5,6)-[FYWLIVSTA]
PS00616 [LIVM]-x(2)-[LIVMA]-x(2)-[LIVM]-x-R-H-[GN]-x-R-x-[PAS]
PS00617 [LIFV]-x(6)-[LIF]-[LIVF]-x-[GSDE]-[GSTADNPE]-[PASG]-x(2)-R-R-x-[FYW]
PS00618 [LIV]-[LIFYMV]-x-[LIVM]-D-[DEA]-[LIVF]-x(2)-[EHCGK]-L-D-x(2)-[KRH]-x(3)
PS00619 S-[DE]-C-x-[DE]-W-x-W-x(2)-C-x-P-x-[SN]-x-D-C-G-[LIVMA]-G-x-R-E-G
PS00620 C-[KR]-[LIVM]-P-C-N-W-K-K-x-F-G-A-[DE]-C-K-Y-x-F-[EQ]-x-W-G-x-C
PS00621 W-K-x-K-C-x(2)-T-x-[DEN]-T-E-C-D-[LIVM]-T-D-E
PS00622 [GDC]-x(2)-[NSTAVY]-x(2)-[IV]-[GSTA]-x(2)-[LIVMFYWCT]-x-[LIVMFYWCR]-x(3)
PS00623 [GA]-[RKNC]-x-[LIVW]-G(2)-[GST](2)-x-[LIVM]-[NH]-x(3)-[FYWA]-x(2)-[PAG]
PS00624 [GS]-[PSTA]-x(2)-[ST]-[PS]-x-[LIVM](2)-x(2)-S-G-[LIVM]-G
PS00625 G-x-N-D-x(2)-[AV]-L-G-R-x-T
PS00626 [LIVMFA]-[STAGC](2)-G-x-{TAV}-H-[STAGLI]-[LIVMFA]-{KI}-[LIVM]
PS00627 [LIVM]-[PK]-x-[GSTA]-x(0,1)-G-[LM]-[GS]-S-S-[GSA]-[GSTAC]
PS00628 P-x(6)-[SANG]-x(2)-[LIVMAC]-x-R-x-[ALIV]-[LV]-[QH]-x-L-[EQ]
PS00629 [FWV]-x(0,1)-[LIVM]-D-P-[LIVM]-D-[SG]-[ST]-x(2)-[FYA]-x(0,1)-[HKRNSTY]
PS00630 [WYV]-D-x-[AC]-[GSA]-[GSAPV]-x-[LIVFACP]-[LIVM]-[LIVAC]-x(3)-[GH]
PS00631 [NS]-[TS]-D-A-E-G-R-[LVMI]
PS00632 [LIVM]-[DERA]-x-R-[LI]-x(3)-[LIVMC]-[VMFYHQL]-[KRTS]-x(3)-[STAGCVF]-x
PS00633 [STANVFHG]-x(2)-[FAS]-x(4)-[DNSPAKT]-x(0,7)-[DENQTFG]-Y-[HFYLRKT]-x(2)
PS00634 [IVTAS]-[LIVM]-x(2)-[LF]-x-[LI]-x-[KRHQEG]-x(2)-[STNQH]-x-[IVTR]-x(10)
PS00635 [LIVMFY]-[APN]-x-[DNS]-[KREQ]-E-[STR]-[LIVMAR]-x-[FYWTE]-x-[NCS]-[LIVM]
PS00636 [FY]-{GL}-x-[LIVMA]-{IP}-x(2)-[FYWHNT]-[DENQSA]-x-L-x-[DN]-x(3)-[KR]-{F}
PS00638 [ST]-x(3)-G-[DY]-G-[KR]-[IV]-[FW]-[LIVM]-x(2)-[LIVM]
PS00639 [LIVMGSTAN]-{IEVK}-H-[GSACE]-[LIVM]-{GPSI}-[LIVMAT](2)-G-{SLAG}-[GSADNH]
PS00640 [FYCH]-[WI]-[LIVT]-x-[KRQAG]-N-[ST]-W-x(3)-[FYW]-G-x(2)-G-[LFYW]
PS00641 P-x(2)-C-[YWSD]-x(7)-[GA]-x-C-R-x-C
PS00642 C-P-x-C-[DE]-x-[GS](2)-x-C-x-L-Q
PS00643 R-C-[LIVM]-x-C-x-R-C-[LIVMT]-x-[LMFY]
PS00644 G-[AM]-G-[AR]-Y-[LIVM]-C-G-[DE](2)-[STA](2)-[LIM](2)-[END]-S
PS00645 E-[ST]-C-G-x-C-x-P-C-R-x-G
PS00646 [KRQSEAT]-[GS]-x-R-H-x(2)-[GSNHKLCD]-x(2)-[LIVMCT]-[RNH]-G-Q
PS00647 [SA]-[GS]-R-[GA]-[LIV]-x(2)-[TAP]-[GAS]-G-T-x-D-x-[LIVMF]-[EDS]
PS00648 [LIVMFYSNAD]-x(2)-A-x(2)-R-[NH]-[KRQLYAT]-[LIVMFSA]-[KRA]-R-x-[LIVMTA]
PS00649 C-x(3)-[FYWLIV]-D-x(3,4)-C-[FW]-x(2)-[STAGV]-x(8,9)-C-[PF]
PS00650 [QL]-G-[LMFCAV]-[LIVMFTA]-[LIV]-x-[LIVFSTM]-[LIFHV]-[VFYHLG]-C-[LFYAVI]
PS00651 G-x(2)-[GNF]-x(4)-[VAI]-x(2)-G-[FY]-x(2)-[NH]-[FYWL]-L-x(5)-[GA]-x(3)
PS00652 C-x(4,6)-[FYH]-x(5,10)-C-x(0,2)-C-x(2,3)-C-x(7,11)-C-x(4,6)-[DNEQSKP]
PS00653 F-x-[FYWM]-[GSTA]-x-[GSTA]-x-[GSTA](2)-[FYNH]-[NQ]-x-E-x-[GSTA]
PS00654 [ST]-[DM]-H-[LIC]-x(2)-[FA]-[LIY]-[EQK]-R-x(2)-[QNKA]
PS00655 V-x-Y-x(2)-P-x-R-D-C-[GSAF]-x(2)-[GSA](2)-x-G
PS00656 [LIVMYA]-[LIVA]-[LIVT]-[LIV]-E-P-D-[SAL]-[LI]-[PSAG]
PS00657 [KR]-P-[PTQ]-[FYLVQH]-S-[FY]-x(2)-[LIVM]-x(3,4)-[AC]-[LIM]
PS00658 W-[QKR]-[NSD]-[SA]-[LIV]-R-H
PS00659 [LIV]-[LIVMFYWGA](2)-[DNEQG]-[LIVMGST]-{SENR}-N-E-[PV]-[RHDNSTLIVFY]
PS00660 W-[LIV]-x(3)-[KRQ]-x-[LIVM]-x(2)-[QH]-x(0,2)-[LIVMF]-x(6,8)-[LIVMF]
PS00661 [HYW]-x(9)-[DENQSTV]-[SA]-x(3)-[FYC]-[LIVM]-x(2,3)-[ACVWD]-x(2)-[LM]
PS00662 [LIVM]-R-x(2)-P-D-x-[LIVM](3)-G-E-[LIVM]-R-D
PS00663 [KR]-x-[LIVMF]-x(3)-[LIVMA]-x(2)-[LIVM]-x(6)-R-Q-Q-E-L
PS00664 [LIVM]-x-[QA]-A-x(2)-W-[IL]-x-[DN]-P
PS00665 [GSA]-[LIVM]-[LIVMFY]-x(2)-G-[ST]-[TG]-G-E-[GASNF]-x(6)-[EQ]
PS00666 Y-[DNSAH]-[LIVMFAN]-P-x(2)-[STAV]-x(2,3)-[LIVMFT]-x(13,14)-[LIVMCF]-x
PS00667 G-[LIVMFYKRSAQT]-[LIVMAGPF]-[QAM]-x-[LIVMFYCA]-x-D-[AGIM]-[LIVMFTA]-[KS]
PS00668 P-F-D-[LIVMFYQN]-[STAGPVMI]-E-[GACS]-E-x(0,2)-[EQLN]-[LIVMS]-x(1,2)-G
PS00669 R-[LIVA](3)-A-[GS]-[LIVMFY]-x-[TK]-x(3)-[YFI]-[AG]
PS00670 [LIVMFYWA]-[LIVFYWC]-x(2)-[SAC]-[DNQHR]-[IVFA]-[LIVF]-x-[LIVF]-[HNI]-x
PS00671 [LMFATCYV]-[KPQNHAR]-x-[GSTDNK]-x-[LIVMFYWRC]-[LIVMFYW](2)-N-x-[STAGC]-R
PS00672 [ST]-G-[LIVMFYW](3)-[GN]-x(2)-T-[LIVM]-x-T-x(2)-H
PS00673 T-x(2)-[GC]-[NQ]-S-G-S-x-[LIVM]-[FY]
PS00674 [LIVMTR]-x-[LIVMT]-[LIVMF]-x-[GATMC]-[ST]-[NS]-x(4)-[LIVM]-D-x-[AS]
PS00675 [LIVMFY](3)-x-G-[DEQ]-[STE]-G-[STAV]-G-K-x(2)-[LIVMFY]
PS00676 [GS]-x-[LIVMFA]-x(2)-[AS]-[DNEQASH]-[GNEKT]-G-[STIM]-[LIVMFY](3)-[DE]
PS00677 [LIVM](2)-H-[NHA]-Y-G-x-[GSA](2)-x-G-x(5)-G-x-A
PS00678 [LIVMSTAC]-[LIVMFYWSTAGC]-[LIMSTAG]-[LIVMSTAGC]-x(2)-[DN]-x-{P}
PS00679 G-x-[SA]-G-E-[LIVM]-R-Y-P-S-Y
PS00680 [MFY]-x-G-H-G-[LIVMC]-[GSHN]-x(3)-H-x(4)-[LIVM]-x(1,2)-[HN]-[YWVHF]
PS00681 [LIVMFY]-x-P-[ILT]-x-[DEN]-[KR]-[LIVMFA](3)-[KREQS]-x(8,9)-[SG]-x
PS00682 [LIVMFYW]-x(7)-[STAPDNLR]-x(3)-[LIVMFYW]-x-[LIVMFYW]-x-[LIVMFYW]-x(2)-C
PS00683 [AV]-x(2)-[FY]-[DEAP]-G-[GSA]-[WF]-x-E-[FYW]
PS00684 [KRC]-[SAQ]-x-G-x-[VF]-G-[GA]-x-[LIVM]-x-[KR]-[KRC]-[LIVM](2)
PS00685 C-[VA]-[ST]-E-x-I-S-F-[LIVM]-T-[SGC]-E-A-[SCN]-[DE]-[KRQ]-C
PS00686 [FY]-V-N-[AS]-K-Q-[FY]-x(2)-I-[ILM]-[KR]-R-R-x(2)-R-A-K-[LA]-E
PS00687 [LIVMFGA]-E-[LIMSTAC]-[GS]-G-[KNLM]-[SADN]-[TAPFV]
PS00688 [FYW]-P-[GS]-N-[LIVM]-R-[EQ]-L-x-[NHAT]
PS00689 [PA]-V-A-x(2)-C-x-C-x(2)-C-x(4)-[STDAI]-[DEY]-C-x(6,8)-[PGSTAVMI]-x(2)-C
PS00690 [GSAH]-x-[LIVMF](3)-D-E-[ALIV]-H-[NECR]
PS00691 [DN]-R-x-R-[LIVM]-[LIVMN]-x-[STA]-[STAQ]-F-[LIVMFA]-x-K-x-L-x(2,3)-W
PS00692 D-x-L-G-D-V-V-C-G-G-F-[AGSP]-x-P
PS00694 G-[LIVMFY]-N-[LIVM]-K-Y-R-Y-E
PS00696 [LI]-Y-[LIVM]-[AT]-x-[GA]-[IV]-[SD]-G-x-[IV]-Q-[HP]-x(2)-G-x(6)-[IV]-x-A
PS00697 [EDQH]-{K}-K-{VEDI}-[DN]-G-{GLYN}-R-[GACIVM]
PS00698 [FYW]-x-D-x(4)-[FYW]-x(3)-E-x-[STA]-x(3)-N-[STA]
PS00699 [LIVMFYH]-[LIVMFST]-H-[AG]-[AGSP]-[LIVMNQA]-[AG]-C
PS00700 [QLS]-x(3)-[LIVM]-x(2)-[KRWYF]-x(2)-R-x-F-x-D-G-[LIVM]-[YF]-[LIVM]-x(2)
PS00701 R-M-G-x-[GR]-K-G-x(4)-[FWKR]
PS00702 C-P-[LP]-T-x-E-[ST]-x-C
PS00703 [STAV]-x-S-x-H-K-x(2)-[GSTAN](2)-x-[STA]-Q-[STA](2)
PS00704 C-[SA]-D-S-R-[LIVM]-x-[AP]
PS00705 [EQ]-[YF]-A-[LIVM]-x(2)-[LIVM]-x(4)-[LIVMF](3)-x-G-H-x(2)-C-G
PS00706 E-x-[ED]-x-K-[LIVM](2)-x-[KR]-[LIVM](2)-x-[QE]-M-C-x(2)-Q-Y
PS00707 G-[AVP]-[DT]-[LIVMTAS]-[CG]-G-[FY]-x(3)-[STP]-x(3)-L-[CL]-x-R-W-x(2)
PS00708 D-x(3)-A-x(3)-[LIVMFYW]-x(14)-G-x-S-x-G-G-[LIVMFYW](2)
PS00709 [STA]-x(5)-G-x-[QKRN]-x(2)-[LIVMQ]-[KRQT]-x(2)-[KR]-x-[GS]-x(2)-[KQ]-x
PS00710 [GSA]-[LIVMF]-x-[LIVM]-[ST]-[PGA]-S-H-[NIC]-P
PS00711 [HQ]-[EQ]-x(3)-H-x-[LMA]-[NEQHRCS]-[GSTA]-H-[LIVMSTAC](2)-x-E
PS00712 [IVDYPKS]-x-[ST]-K-x-[LIVMTF]-[RIKM]-N-x-[IV]-[SA]-G-[FY]-x-[TV]-[HKRA]
PS00713 P-x(0,1)-[GP]-[DES]-x-[LIVMF](2)-x-[LIVMA]-[LIVM]-[KREQS]-[LIVMG]-[LIVM]
PS00714 P-x-G-x-[STA]-x-[NT]-[LIVMCP]-D-[GA]-[STANQF]-x-[LIVM]-[FY]-x(2)-[LIVM]
PS00715 [DE]-[LIVMF](2)-[HEQS]-x-G-x-[LIVMFA]-G-L-[LIVMFYE]-x-[GSAM]-[LIVMAP]
PS00716 [STN]-x(2)-[DENQ]-[LIVMT]-[GAS]-x(4)-[LIVMF]-[PSTG]-x(3)-[LIVMA]-x-[NQR]
PS00717 P-[LIVM]-x-[LIVM]-x(2)-[LIVM]-A-x(2)-[LIVMFT]-x(2)-[HS]-x-S-T-[LIVM]-S-R
PS00718 R-R-T-[IV]-[ATN]-K-Y-R
PS00719 N-x-[LIVMFYWD]-R-[STACN](2)-H-Y-P-x(4)-[LIVMFYWS](2)-x(3)-[DN]-x(2)
PS00720 [VI]-P-[FYWVI]-x-[GPSV]-x(2)-[LIVMFYK]-x-[DNE]-[LIVM]-x(13,35)-[IVL]-N
PS00721 [GN]-[LIVMS]-K-G-[GST]-[AG]-[AST]-G-[GAS]-G-[YLHRKF]
PS00722 V-[ASV]-[TS]-[IVLA]-[RQ]-[AGS]-[LIM]-[KER]-x-[HN]-[GAS]-[GLKD]
PS00723 [LIVM](2)-x-D-D-x(2,4)-D-x(4)-R-R-[GH]
PS00724 P-W-Y-[ST](2)-R-L
PS00725 G-x(4)-H-x-H-P-x-[AGS]-x-E-[LIVM]
PS00726 [APF]-D-[LIVMF](2)-{T}-[LIVM]-Q-E-{G}-K
PS00727 D-[ST]-[FY]-[RP]-[KHQ]-x(7,8)-[FYWD]-[ST]-[FYW](2)
PS00728 N-x-G-x-R-[LIVM]-D-[LIVMFYH]-x-[LV]-x-S
PS00729 H-[GSAD]-x-Y-[LIF]-[LIMN]-N-[LIVMFCAP]-[AGC]
PS00730 [GSARY]-[LIVMF]-[CT]-[LIVMFY]-D-T-C-H
PS00731 [LIVMFW]-H-x-N-[DEG]-[SA]-x(4)-[GNAQ]-x(3)-D-x-H
PS00732 [LIVMT]-x-[LIVM]-[KR]-L-[STAK]-R-{E}-G-[AKR]
PS00733 [YH]-C-[VI]-[SA]-C-A-I-H
PS00737 N-x(2)-G-G-x-[LIVM]-[SA]-x-G-H-P-x-[GAS]-x-[ST]-G
PS00738 [GSAP]-[CS]-N-x-[FYLM]-S-[ST]-[QALKHD]-[DENG]-x-[AV]-[AVTS]-[ADERQ]
PS00739 [GA]-[KSR]-x(3)-[LIV]-x-G-[FY]-G-x-[VC]-G-[KRL]-[GA]-x(1,2)-[ASC]
PS00740 [GE]-x-[LIVMFY](2)-x(3)-[STA]-x(10,11)-[LV]-x(4)-[LIVMF]-x(6,7)-C-[LIVM]
PS00741 [LM]-x(2)-[LIVMFYWGS]-[LI]-x(2)-[PEQ]-[LIVMRF]-x(2)-[LIVM]-x-[KRS]-x(2)
PS00742 [DEQSKN]-x-[LIVMF]-[SA]-[LIVMF]-G-[ST]-N-D-[LIVM]-x-Q-[LIVMFYGT]
PS00743 [LI]-x-[STN]-[HN]-x-H-[GSTAD]-D-x(2)-G-[GP]-x(7,8)-[GS]
PS00744 P-x(3)-[LIVM](2)-x-G-x-C-[LIVMF](2)-K
PS00745 [ARH]-[STA]-x-G-x-G-G-Q-[HNGCSY]-[VI]-N-x(3)-[ST]-[AKG]-[IV]
PS00746 E-x-G-G-P-x(2)-[GA]-x-G-C-[AG]-G
PS00747 [HY]-[LIVMAF]-x(2)-[LIVM]-[GSTACIV]-[GSTAC]-[GSA]-[LIVMFA]-[DEQHY]-S-x
PS00748 [VA]-H-[FY](2)-[ER]-[DEC]-[GV]-N-[VL]
PS00749 K-x-[LM]-R-R-x-L-P-[IV]-[NT]-R
PS00750 [RKEL]-[ST]-x-[LMFY]-G-P-x-[GSA]-x-x-K-[LIVMF](2)
PS00751 [LIVM]-[TS]-[NK]-[DN]-[GA]-[AVNHK]-[TAVC]-[LIVM](2)-x(2)-[LIVMA]-x
PS00752 C-x-[DE]-C-x(3)-[LIVMF]-x(1,2)-D-x(2)-L-x(3)-F-x(4)-C-x(2)-C
PS00753 [LIVM](2)-T-[KR]-T-E-x-K-x-[DE]-Y-[LIVMF](2)-x-D-x-[DE]
PS00754 [YF]-[LIVMFY]-x(2)-[SC]-[LIVMFY]-[STQV]-x(2)-[LVI]-P-W-x(2)-C-x(3,4)
PS00755 [GSTL]-[LIVMFK]-[LIVMFCA]-x-[LIVMF]-[GSAN]-[LIVM]-x-P-[LIVMFYN]-[LIVMFY]
PS00756 [LIVMFYW](2)-x-[DE]-x-[LIVM]-[STDNQ]-x(2,3)-[GK]-[LIVMF]-[GST]-[NST]-G
PS00757 N-P-K-[ST]-S-G-x-A-R
PS00758 [LIV]-[GALMY]-[LIVMF]-{Q}-[GSA]-H-x-D-[TV]-[STAV]
PS00759 [GSTAI]-[SANQCVIT]-D-x-K-[GSACN]-x(1,2)-[LIVMA]-x(2)-[LIVMFY]-x(12,17)
PS00760 K-R-[LIVMSTA](2)-[GA]-x-[PG]-G-[DEQ]-x-[LIVM]-x-[LIVMFY]
PS00761 [LIVMFYW](2)-{NLPA}-{T}-G-D-[NH]-{PIEW}-x(2)-[SND]-x(2)-[SG]
PS00762 [QYR]-[GH]-[DNEAR]-x-[LIV]-[KR]-x(2)-K-x(2)-[KRNG]-[AS]-x(4)-[LIV]
PS00763 [LIV]-[AGD]-F-P-[CS]-[NG]-Q-F
PS00764 C-x(3)-[KRSN]-P-[KRAGL]-C-x(2)-C-x(5)-C
PS00765 [DENSA]-x-[LIVM]-[GP]-G-R-[FY]-[ST]-[LIVMFSTAP]-x-[GSTA]-[PSTACM]
PS00766 [EQLT]-x-[EQKDS]-[LIVM](2)-x(2)-[LIVM]-x(2)-[LIVMY]-N-x-[DNS]-x(5)
PS00767 P-[GK]-G-[VI]-G-P-[MFI]-T-[IVA]
PS00768 [KH]-[IV]-L-[DN]-x(3)-G-x-P-[AG]-x(2)-[LIVM]-x-[IV]
PS00769 [YWF]-[TH]-[IVT]-[AP]-x(2)-[LIVM]-[STA]-[PQ]-[FYWG]-[GS]-[FY]-[QST]
PS00770 E-x-[STAGCI]-x(2)-N-[LIVMFAC]-[FY]-x(6,12)-[LIVMFA]-x-T-x(6,8)-[LIVM]-x
PS00771 C-G-[KR]-C-L-x-V-x-N
PS00772 V-[DN]-Y-[EQD]-F-V-[DN]-C
PS00773 C-x(4,5)-F-Y-[ST]-x(3)-[FY]-[LIVMF]-x-A-x(3)-[YF]-x(2)-F-[GSA]
PS00774 [LIVM]-[GSA]-F-x-[STAG](2)-[LIVMFY]-W-[FY]-W-[LIVM]
PS00775 [LIVM](2)-[KR]-x-[EQKRD]-x(4)-G-[LIVMFTC]-[LIVT]-[LIVMF]-[ST]-D-x(2)
PS00776 [PSA]-[LQ]-x-E-[YF]-Y-[LIVM](2)-[DE]-x-[FYWHN]
PS00777 [LIVMF]-x(2)-E-[AG]-[YWG]-[QRFGS]-[SG]-[STAN]-G-x-[SAF]
PS00778 [LIVMF]-x-[LIVMFAG]-{T}-x-[STAGI]-H-D-[STANQ]-{V}-[LIVM]-x(2)-[LIVMFY]
PS00779 C-x-G-C-C-[FY]-S-[RQS]-A-[FY]-P-T-P
PS00780 N-H-T-x-C-x-C-x-T-C-x(2)-H-K
PS00781 [VTI]-x-T-A-H-P-T-[EQ]-x(2)-R-[KRHAQ]
PS00782 G-[KR]-x(3)-[STAGN]-{S}-[LIVMYA]-[GSTA](2)-[CSAV]-[LIVM]-[LIVMFY]
PS00783 [LIVM]-[KRVLYFS]-[GKR]-M-[LIV]-[PST]-x(4,5)-[GSKR]-[NQEKRAH]-x(5)-[LIVM]
PS00784 [KFQ]-[RGMP]-[TN]-[FYWL]-[EQSG]-x(5)-[KRHS]-x(4,5)-G-F-x(2)-R
PS00785 [LIVM]-x-[LIVM](2)-[HEA]-[TI]-x-D-x-H-[GSA]-x-[LIVMF]
PS00786 [FYPH]-x(4)-[LIVM]-G-N-H-E-F-[DN]
PS00787 G-[DES]-S-H-[GC]-x(2)-[LIVM]-[GTIVLAMS]-x-[LIVTM]-[LIVM]-[DEST]-[GH]-x
PS00788 [GE]-x(2)-S-[AG]-R-x-[ST]-x(3)-[VT]-x(2)-[GA]-[STAVY]-[LIVMF]
PS00789 R-[SHF]-D-[PSV]-[CSAVT]-x(4)-[SGAIVM]-x-[IVGSTAPM]-[LIVM]-x-E-[STAHNCG]
PS00790 F-x-[DN]-x-[GAW]-[GAS]-C-[LIVM]-[SA]-[LIVM](2)-[SA]-[LV]-[KRHQ]-[LIVA]
PS00791 C-x(2)-[DE]-G-[DEQKRG]-W-x(2,3)-[PAQ]-[LIVMT]-[GT]-x-C-x-C-x(2)-G-[HFY]
PS00792 [LIVM]-x-[AG]-[LIVMF](2)-N-x-T-x-[DN]-S-[FLMI]-x-D-x-[SG]
PS00793 [GE]-[SAV]-x-[LIVM](2)-D-[LIVMF]-G-[GPA]-x(2)-[STA]-x-P
PS00794 [KRHD]-x-[GA]-[PSAE]-R-x(2)-D-[LIV]-D-[LIVM](2)
PS00796 [RA]-N-L-[LIV]-S-[VG]-[GA]-Y-[KN]-N-[IVA]
PS00797 Y-K-[DE]-[SG]-T-L-I-[IML]-Q-L-[LF]-[RHC]-D-N-[LF]-T-[LS]-W-[TANS]-[SAD]
PS00798 G-[FY]-R-[HSAL]-[LIVMF]-D-[STAGCL]-[AS]-x(5)-[EQ]-x(2)-[LIVMCA]-[GS]
PS00799 C-x-D-x(2)-H-C-C-P-x(4)-C
PS00800 [GSTNP]-x(6)-[FYVHR]-[IVN]-[KEP]-x-G-[STIVKRQ]-Y-[DNQKRMV]-[EP]-x(3)
PS00801 R-x(3)-[LIVMTA]-[DENQSTHKF]-x(5,6)-[GSN]-G-H-[PLIVMF]-[GSTA]-x(2)
PS00802 [GP]-[DEQGSANPHVT]-[DN]-G-[PAEQ]-[ST]-[HQ]-x-[PAGM]-[LIVMYACNQS]
PS00803 [KRHN]-x-[DEQN]-[DEQNK]-x(3)-C-G-G-[AG]-[FY]-[LIVM]-[KN]-[LIVMFY](2)
PS00804 [LIVM](2)-F-G-P-D-x-C-[AG]
PS00805 [IVM]-x-[DV]-x-[DENST]-x(2)-K-P-[DEH]-D-W-[DEN]
PS00806 [LIVM]-E-x-E-[LIVM]-G-x(2)-[GM]-[GSTA]-x-E
PS00808 [AG]-G-G-x-G-[STKA]-x-L-x(2)-L-[TA]-x(3)-[AST]-x-P-[AS]-[LV]
PS00809 W-[FY]-x-G-[ST]-[AS]-[DNSH]-[AS]-[LIVMFYW]
PS00810 [APV]-[GS]-M-G-[LIVMN]-Y-[IVC]-[LIVMFY]-x(2)-[DENPHKRQS]
PS00811 [AG]-[ST]-x(2)-[AG]-x(2)-[LIVM]-[SAD]-[TIF]-P-[LIVMF](4)-F-S-P-[LIVM](3)
PS00812 A-[ST]-D-[AG]-D-x(2)-[IM]-A-x-[SA]-[LIVM]-[LIVMG]-x-A-x(3)-[FW]
PS00813 [DE]-[IFYL]-x(2)-F-[KRL]-x(2)-[LIVM]-x-P-x-W-E-[DVA]-x(5)-G-G-[KR]-W
PS00814 C-x(2)-[STAQ]-x-[STAMV]-C-[STA]-T-C-[HR]
PS00815 L-R-[DE]-G-x-Q-x(4)-{L}-x(5)-K
PS00816 [LIVMFW]-x(2)-H-x-H-[DN]-D-x-G-x-[GAS]-x-[GASLI]
PS00817 P-x(4)-C-D-x-R-[LIVM](2)-x-[KR]-x(14)-C
PS00818 H-[FW]-x-[LIVM]-x-G-x(5)-[LV]-H-x(3)-[DE]
PS00819 [LIVMFY]-[DH]-x-[LIVM]-[GA]-E-R-x(3)-[LIF]-[GDN]-x(2)-[PA]
PS00820 [STN]-[GP]-x(1,2)-[DE]-x-W-E-E-x(2)-[GS]
PS00821 H-N-x(2)-N-E-x(2)-W-[NQKRS]-x(4)-W-E
PS00822 P-F-D-R-H-D-W
PS00823 [KR]-[LIM]-K-[DE]-K-[LIM]-P-G
PS00824 [DEG](2)-[DEK]-[DE]-[LIVMF]-D-L-F-G
PS00825 [IV]-Q-S-x-D-[LIVM]-x-A-[FWM]-[DNQS]-K-[LIVM]
PS00826 G-Q-E-N-G-H-V-[KR]
PS00827 E-T-P-K(5)-x(0,1)-F-S-F-K-K-x-F-K-L-S-G-x-S-F-K-[KR]-[NS]-[KR]-K-E
PS00828 [CHDS]-x(2)-[CND]-x(2)-[LIVM]-x-R-x(3)-[LIVMNR]-x-[LIVM]-x-[CN]-x(3,4)
PS00829 [EKH]-[LHVI]-x(9,10)-[IVNLR]-x(3)-[LIV]-x(6)-G-D-x(2)-E-N-[GSA]-x-Y
PS00830 S-x(2)-S-[PK]-[LIVMF]-[AG]-x-[SAGNE]-[LIVM]-[LIVY]-x(4)-[DNG]-[DE]
PS00831 G-x-[LIVM](2)-x-R-Q-R-G-x(5)-G
PS00832 G-S-x-[AG]-[KRN]-x-T-x-L-[KRN]-x(3)-[DE]-x-[DET]-[LM]-[VI]-x-F
PS00833 R-P-[VI]-I-L-D-P-x-[DE]-P-T
PS00834 W-T-D-x-S-x-H-P-x-T
PS00835 A-G-Y-Q-E-[ST]-R-[FYW]-S-[FYW]-[TN]-A-x-G-G-[ST]-Y
PS00836 [GA]-[LIVM]-[PKV]-x(0,1)-E-x(3)-[NG]-E-x(1,3)-R-[VT]-[AG]-x-[ST]-P-x
PS00837 [LIVM]-[LIVMF]-G-[GAV]-G-x-[AV]-[GA]-x(2)-[SA]-x(3)-[GA]-x-[SGR]-[LIVM]
PS00838 [LI]-x-E-[LIVM](2)-x(4,5)-[LIVM]-[TL]-x(5,7)-C-x(4)-[IVA]-x-[DNS]
PS00839 [LIVM]-[GS]-[STAL]-G-P-G-x(3)-[LIVMFY]-[LIVM]-T-[LIVM]-[KRHQG]-[AG]
PS00840 [VW]-x(2)-[LI]-x(2)-[GA]-[DT]-x(3)-[FYW]-[GS]-x(8)-[LIVFA]-x(5,6)
PS00841 [VILT]-[KREIT]-[PV]-x-[FYIL]-[VI]-[FW]-D-G-x(2)-[PILHSTF]-x-[LVCQMFAKS]
PS00842 [GSN]-[LIVM]-[PERD]-[FYSCV]-[LIVM]-x-A-P-x-E-A-[DE]-[PAS]-[QSE]-[CLM]
PS00843 H-[GN]-x(2)-[GC]-E-[DNT]-G-x-[LIVMAFT]-[QSAPH]-[GSA]
PS00844 [LIVAMSFT]-x(3)-[GAHDVSI]-x-[GSAIVCT]-R-[LIVMCAFST]-[DE]-[LIVMFAYGT]
PS00845 [GD]-x(0,10)-[FYWA]-x(0,1)-G-[LIVM]-x(0,2)-[LIVMFYD]-x(0,7)-G-[KN]-[NHW]
PS00846 C-x(2)-D-[LIVM]-x(6)-[ST]-x(4)-S-[HYR]-[HQ]
PS00847 G-[IVT]-[LVAC](2)-[IVT]-D-[DE]-[FL]-[DNST]
PS00848 [LIVM](2)-[FYW]-x(10)-C-x(2)-C-G-x(2)-[FY]-K-L
PS00850 [STIV]-x-R-[IVT]-[CSA]-G-Y-{GI}-[GACV]
PS00853 [YV]-x-D-x(3)-M-S-[GA]-K-K-D-x-[LIVMF]-[LIVMAG]-x-[LIVM]-G-G
PS00854 [LIVMACFT]-[GSA]-[LIVMF]-x-[FYLVGAC]-x(2)-[GSACFYI]-[LIVMSTACF]
PS00855 [LIVM]-x-[GASF]-[GA]-[GAST]-[LIVMTF]-[GAS]-N-[LVMFGIA]-[LIVFYGT]-D-[RIK]
PS00856 [TS]-[ST]-R-x(2)-[KR]-x(2)-[DE]-x(2)-[GA]-x(2)-Y-x-[FY]-[LIVMKHRT]
PS00857 [FY]-x-[LIVM]-x(2)-[LIVM]-x(5)-[DN]-x(5)-T-R-F-[LIVMW]-x-[LIVM]
PS00858 [LIVM]-[ST]-[KR]-[LIVMF]-E-[ST]-R-P
PS00859 [DENGQST]-[LIVMPF]-[LIVM]-x(1,2)-[KRNQELD]-[DENKGS]-[LIVM]-x(3)-[STG]-x
PS00860 [SA]-x-[RK]-x-Q-[LIVMT]-Q-E-[RNAK]-[LIM]-[TSNV]
PS00861 G-W-T-L-N-S-A-G-Y-L-L-G-P
PS00862 P-x(7)-{L}-x(2)-[DE]-[LIVM]-x(3)-[LIVM]-x(9,12)-[LIVM]-x(3)-[GSA]
PS00863 [EQ]-[DE]-G-L-[DN]-F-P-x-Y-D-G-x-D-R-V
PS00864 [DE]-L-E-D-W-[LIVM]-E-D-V-L-x-G-x-[LIVM]-N-T-E-D-D-D
PS00865 P-[LIVMG]-C-T-[LIVM]-[KRHA]-x-[FTNM]-P
PS00866 [FYV]-[PS]-[LIVMC]-[LIVMA]-[LIVM]-[KR]-[PSA]-[STA]-x(3)-[SG]-G-x-[AG]
PS00867 [LIVMF]-[LIMN]-E-[LIVMCA]-N-[PATLIVM]-[KR]-[LIVMSTAC]
PS00868 [DQ]-[LIVMFY]-x(3)-[STAGCN]-[STAGCIL]-T-K-[FYWQI]-[LIVMF]-x-G-[HQD]
PS00869 [LIVM]-E-G-[GA]-x(2)-[LIVMF]-x(6)-L-x(3)-Y-x(2)-G-[LIVM]-R
PS00870 [DA]-[AI]-[SGA]-[NQS]-[LIVMF](2)-K-[PT]-x-[LM]-x(2)-G
PS00871 [RGT]-[LIVMFY]-[DN]-x-[ST]-E-[LIVMFY]-x-[ED]-[KRQEAS]-x-[STA]-x-[STAD]
PS00872 [DG]-x(3)-G-x(3)-[DN]-x(6,8)-[GA]-[KRHQ]-[FSAR]-[KRL]-[PT]-[FYW]
PS00873 G-G-x-[GA](2)-[LIVM]-F-W-M-W-[LIVM]-x-[STAV]-[LIVMFA](2)-G
PS00874 [KRQ]-[LIVMAW]-x(2)-[SAIV]-[LIVM]-x-[TY]-P-x(2)-[LIVM]-x(3)-[STAGV]-x(6)
PS00875 [GRH]-[DEQKG]-[STVM]-[LIVMA](3)-[GA]-G-[LIVMFY]-x(11)-[LIVM]-P
PS00876 G-G-S-[AN]-[GA]-Q-S-S-x(2)-Q
PS00877 [FY]-L-[DQ]-[DE]-[LIVM]-x(2)-Y-M-x(3)-H-[KR]
PS00878 [FY]-[PA]-x-K-[SACV]-[NHCLFW]-x(4)-[LIVMF]-[LIVMTA]-x(2)-[LIVMA]-x(3)
PS00879 [GSA]-x(2,6)-[LIVMSCP]-x-{N}-[LIVMF]-[DNS]-[LIVMCA]-G-G-G-[LIVMFY]
PS00880 [PTLV]-[GSTA]-x-[DENQA]-x-[LMFK]-x(2)-[LIVMFY]-[YV]-[GSA]-x-[FYH]-K-Q
PS00882 R-[LIVMFYW]-x-H-W-[LIVM]-x(2)-[LIVMF]-[STAC]-[LIVM]-x(2)-L-x-[LIVM]-T-G
PS00883 [RH]-[STA]-[LIVMFYW]-H-[RH]-[LIVM]-x(2)-W-x-[LIVMF]-x(2)-F-x(3)-H
PS00884 [KQ]-x-[TA]-x(2)-[GA]-S-S-E-E-K
PS00885 [KR]-x-[KH]-E-[CSTVI]-[DNE]-R-[LIVMY]-x-[GSTAVLD]-[LIVMCTF]-x(3)
PS00886 C-D-K-x(2)-P-[GA]-x(3)-[GA]
PS00887 [SGALC]-[LIMF]-[LIVMF]-T-D-[GA]-R-[LIVMFY]-S-[GA]-[GAV]-[ST]
PS00888 [LIVM]-[VIC]-x-{H}-G-[DENQTA]-x-[GAC]-{L}-x-[LIVMFY](4)-x(2)-G
PS00889 [LIVMF]-G-E-x-[GAS]-[LIVM]-x(5,11)-R-[STAQ]-A-x-[LIVMA]-x-[STACV]
PS00892 [NQAR]-x(4)-[GSAVY]-x-[QFLPA]-x-[LIVMY]-x-[HWYRQ]-[LIVMFYST]-H-[LIVMFT]
PS00893 G-x(5)-E-x(4)-[TAGCV]-[LIVMACF]-x-R-[EL]-[LIVMFGSTA]-x-[EA]-E-x-[GNDTHR]
PS00894 R-{G}-x(2)-[LIVM]-x(3)-[LIVM]-x(16,17)-[STA]-x(2)-T-[LIVMA]-[RH]-[KRNAQ]
PS00895 [LIVMFY](2)-G-L-G-x-[MQ]-G-x(2)-[MA]-[SAV]-x-[SNHR]
PS00896 G-[LIVM](2)-x-D-[RK]-L-G-L-[RK](2)-x-[LIVM](2)-W
PS00897 P-x-[LIVMF](2)-N-R-[LIVM]-G-x-K-N-[STA]-[LIVM](3)
PS00898 [DE]-[SQLM]-[KAH]-[NT]-[QEK]-[SQ]-C-[SRKH]-x-[EQKM]-[STM]-L
PS00899 F-x-[PL]-P-[STA]-[FYT]-C-[DEQ]-[GAMI]-[LVMA]-x-[TLF]-[DE]-[DEK]
PS00900 P-[LIVM]-x(2)-D-[GA]-[ST]-[AC]-[SN]-[GA]-[LIVMFY]-Q
PS00901 K-x-E-x(3,4)-[PAF]-[STAGC]-x-S-[IVAPM]-K-x-R-x-[STAG]-x(2)-[LIVM]
PS00902 [GSTNAD]-x(2)-[GAS]-x-G-[GC]-[IM]-x-[STAG]-K-[LIVMCT]-x-[SAI]-[TCAGFS]
PS00903 [CH]-[AGV]-E-x(2)-[LIVMFGAT]-[LIVM]-x(17,33)-P-C-x(2,8)-C-x(3)-[LIVM]
PS00905 D-[LIVMA]-P-G-[LIVM](2)-[DEYPKQV]-[GN]-A-x(2)-G-x-G
PS00906 [SP]-[IVCLAM]-W-[LIVMFYC]-[LM]-R-[QR]-[AVS]-G-R
PS00907 [LIMF]-[GAVS]-F-[STAGCV]-[STAGC]-x-[PA]-[FWYV]-T-[LIVM]-x(2)-Y-x(2,3)
PS00908 [AT]-x-[SAGCN]-[SAGC]-[LIVM]-[DEQ]-x-A-[LA]-x-[DE]-[LIA]-x-[GA]-[KRQ]
PS00909 [LIVF]-x(2)-D-x-[NH]-x(7)-[ACL]-x(6)-[LIVMF]-x(7)-[LIVM]-E-[DENQ]-P
PS00910 G-x(2)-[LIVM](2)-x(2)-[LIVM]-x(4)-[LIVM]-x(5)-[LIVM](2)-x-R-[FYW](2)-G
PS00911 [GSA]-x(4)-[GK]-[GSTA]-[LIVFSTA]-[GST]-x(3)-[NQRK]-x-G-[NHY]-x(2)-P
PS00912 [LIVM](2)-[GSA]-x-G-G-[IV]-x-[STGDN]-x(3)-[ACV]-x(2)-{A}-{R}-x-{L}-G-A
PS00913 [STALIV]-[LIVF]-x-[DE]-x(6,7)-P-x(4)-[ALIV]-x-[GST]-x(2)-D-[TAIVM]
PS00914 [RQLKA]-x(3)-[LIVMAW]-x(2)-[LIVM]-[ESHLKAGQV]-x(2)-[LIVMT]-x-[DEVMNRAST]
PS00915 [LIVMFAC]-K-x(1,3)-[DEA]-[DE]-[LIVMCP]-R-Q-[DE]-x(4)-Q
PS00916 [GSET]-x-[AVE]-x(3)-[LIVM]-x(2)-[FYHW]-[LIVM](2)-x-[LIVMFN]-x-D-R-[HNG]
PS00917 [GA]-x-[LIVM]-x(2)-H-G-T-D-T-[LIVM]
PS00918 G-D-F-N-A-x-C-[SAK]
PS00919 [LIVM](2)-[AP]-[LQ]-H-[STA]-[STAE]-P-x(5)-E-[LIVM]-[DN]-x-L-x-[DE]-V
PS00920 G-x(2)-[LIVMFY](2)-x-[IF]-x-E-x(2)-[LIVM]-x-G-Y-P
PS00921 G-[GAQ]-x(2)-C-[WA]-E-[NH]-x(2)-[PST]-[LIVMFYS]-x-[KR]
PS00922 [LIVM]-x(3)-E-S-x(3)-[AP]-x(3)-S-x(5)-G-[LIVM]-[LIVMFYW]-x-[LIVMFYW]
PS00923 [IVA]-[LIVM]-x-C-x(0,1)-N-[ST]-[MSA]-[STH]-[LIVFYSTANK]
PS00924 [LIVM](2)-x-[AG]-C-T-[DEH]-[LIVMFY]-[PNGRS]-x-[LIVM]
PS00925 [EQT]-G-x-V-Y-C-D-[TNP]-C-R
PS00926 W-x-W-H-x-C-H-x-H-[YN]-H-S-[MI]-[DE]
PS00927 P-G-G-R-F-x-E-x-Y-x-W-D-x-Y
PS00928 Q-W-D-x-P-x-[GAV]-W-[PAS]-P
PS00929 S-Q-[IV]-[STGNH]-D-G-Q-[LIV]-Q-[AIV]-[STA]
PS00930 D-[GS]-V-P-F-[ST]-C-C-N-P-x-S-P-R-P-C
PS00931 C-x(3)-D-x-[IV]-C-x-G-[GST]-x(2)-[LIVM]-x(2,3)-H
PS00932 A-x(3)-[GDTN]-[IF]-x-[DNQTKEH]-x-[DEAQ]-x-[LIVM]-x-[LIVMC]-x-[NS]-x(2)
PS00933 [MFYGS]-x-[PST]-x(2)-K-[LIVMFYW]-{G}-W-[LIVMF]-{E}-[DENQTKR]-[ENQH]
PS00934 [HQ]-[IVT]-x-[LIVFY]-x-[IV]-x(4)-{E}-[STA]-x(2)-F-[YM]-x(2,3)-[LMF]-G
PS00935 G-[NTKQ]-x(0,5)-[GA]-[LVFY]-[GH]-H-[IVF]-[CGA]-x-[STAGLE]-x(2)-[DNC]
PS00936 K-[STNV]-{F}-x-[GSAM]-[SAILV]-x-[KRA]-R-[IVFY]-x(14,16)-[GSANQKR]-H
PS00937 K-x(3)-[KRCV]-x-[LIVM]-W-[IVN]-[STNALVQCMI]-[RH]-[LIVM]-[NS]-x(3)
PS00938 [KR]-[LIVM](2)-[DN]-[FY]-[GSTN]-[KR]-[LIVMFYS]-x-[FY]-[DEQTAHI]-x(2)
PS00939 [NP]-x(3)-[KRM]-x(2)-A-[LIVTK]-x-[SA]-[AC]-[LIV]-x-[ALCM]-[STL]-[SGAKTI]
PS00940 [KRGAQS]-x-C-x(3)-[SVA]-x(2)-[FYWH]-x(1,2)-[GF]-x-C-x(5)-C-x(3)-C
PS00941 [EDA]-[DG]-C-L-[YTF]-[LIVT]-[DNS]-[LIV]-[LIVFYW]-x-[PQR]
PS00942 [QEK]-[RF]-G-x(3)-[GSA]-[LIVF]-[WL]-[NS]-x-[SA]-[HM]-N-[LIV]-[GA]-G
PS00943 N-x(3)-[DEH]-x(2)-[LIMFYT]-D-x(2)-[VM]-x-R-[ST]-x(2)-R-x(4)-[GYNKR]
PS00944 Y-S-x-[KR]-Y-x-[DE](2)-x-[FY]-E-Y-R-H-V-x-[LV]-[PT]-[KRP]
PS00945 H-x-P-E-x-H-[IV]-L-L-F-[KR]
PS00946 Y-x-[ED]-x-V-x-[RQ]-A-[LIVMA]-[DQG]-x-[LIVMFY]-N-[EQ]
PS00947 F-x-[LIVM]-K-E-T-x-C-x(10)-C-x-F-[KR]-[KE]
PS00948 [KRAI]-L-x-R-E-L-E-K-K-F-[SAPQG]-x-[KRN]-[HED]
PS00949 [LMFYA]-R-x(3)-F-x(2)-[KRQ]-x(2)-W-x-[LIVM]-x(6,9)-E-x-D-x-[FY]-D
PS00950 R-Y-x-[DT]-W-x-[LIVMF]-[ST]-[TV]-P-[LIVM]-[LIVMNQ]-[LIVM]
PS00951 G-[LIV]-S-x-[KR]-x-[QH]-x-L-[FY]-x-[LIV](2)-[FYW]-x(2)-R-Y
PS00952 L-E-[SA]-V-A-I-[LM]-P-Q-[LI]
PS00953 D-[LIVM]-x(3)-[NQ]-[PGE]-x(9,15)-[GR]-x(4)-[LIVMFY](2)-K-x-[ST]-E-[GS]
PS00954 [LIVMY]-[DE]-x-H-H-x(2)-E-x(2)-[GCA]-[LIVM]-[STAVCL]-[LIVMF]
PS00955 [GW]-x-[DNIE]-x-H-H-x(2)-E-[STAGC]-x-[VMFYHS]-K
PS00956 [GN]-[DNQPSA]-x-C-[GSTANK]-[GSTADNQ]-[STNQI]-[PTIV]-x-C-C-[DENQKPST]
PS00957 [GSA]-[ATIVS]-[LIVMYCAFST]-K-[DN]-[LIVMA]-[LIVMFYT]-[GA]-x-[GACKMSIFT]-x
PS00958 [LIVMA]-x-[LIVM]-K-[LIVM]-[PAS]-x-[STC]-x-[DENQPAS]-[GC]-[LIVM]-x-[AGV]
PS00959 P-F-x-[RA]-L-[VA]-[KRQ]-[DEG]-[IV]
PS00960 Y-x(2)-[HP]-W-[FYH]-[APS]-[DE]-x-P-x-K-G-x-[GA]-[FY]-R-C-[IV]-[RH]-[IV]
PS00961 E-[ST]-[EA]-R-E-A-[RK]-x-[LI]
PS00962 [LIVMFA]-x-{GPRV}-[LIVMFYC](2)-{LPC}-[STAC]-[GSTANQEKR]-[STALV]-[HY]
PS00963 P-x(2)-[LIVMF](2)-[LIVMS]-x-[GDN]-x(3)-[DENL]-x(3)-[LIVM]-x-E-x(4)
PS00964 [FY]-R-[IM]-[KR]-K(2)-D-E-G-S-Y
PS00965 Y-x-D-x-N-H-K-P-E
PS00966 H-A-Y-[LIVM]-x-G-x(2)-[LIVM]-E-x-M-A-x-S-D-N-x-[LIVM]-R-A-G-x-T-P-K
PS00967 F-[LIVMF]-F-R-P-R-N
PS00968 [LIVFAG]-x-[GASV]-[LIVFA]-x-[IV]-H-x(3)-[LIVM]-[GSTAE]-[STANH]-x(1,3)
PS00969 [EQ]-x(4)-[HGQ]-x(5)-[GSTA]-x(3)-[FYV]-x(3)-[AG]-x(2)-[AV]-H-x(7)-P
PS00970 H-x(3)-H-S-[NS]-S-x-P-Q-[SG]
PS00971 K-x-R-K-x(2)-E-G-K-x(2)-K-[KR]-K
PS00972 G-[LIVMFY]-x(1,3)-[AGCY]-[NASMQG]-x-C-[FYWC]-[LIVMFCA]-[NSTAD]-[SACV]-x
PS00973 [YMF]-x-[LK]-x-[SAGNC]-[LIVMFT]-x(2)-H-x-G-x(4,6)-G-H-[YF]
PS00974 [LIVMY]-x-[FS]-x(2)-[STAGCV]-x-V-D-R-[IV]-x-[PS]
PS00975 [DEK]-[IV]-N-[FS]-L-C-x-H-K
PS00976 K-F-G-x-G-D-G
PS00977 [IV]-G-G-G-x(2)-G-[STACV]-G-x-[AT]-x-[DQ]-x(3)-[RAS]-G
PS00978 G-G-K-x(2)-[GSTE]-Y-R-x(2)-A
PS00979 [LV]-x-N-[LIVM](2)-x-L-F-x-I-[PA]-Q-[LIVM]-[STA]-x-[STA](3)-[STAN]
PS00980 C-C-[FYW]-x-C-x(2)-C-x(4)-[FYW]-x(2,5)-[DNE]-x(2)-[STAHENRI]-C-x(2)-C
PS00981 [FLY]-N-[ED]-[STA]-K-x-[IV]-[STAG]-[FM]-[ST]-[MVL]
PS00982 [NG]-x-[FYWV]-[LIVMF]-x-G-[AGC]-[GS]-[TA]-[HQT]-P-G-[STAV]-G-[LIVM]
PS00983 [EQR]-C-[LIVMFYAH]-x-C-x(5,8)-C-x(3,8)-[EDNQSTV]-C-{C}-x(5)-C
PS00984 C-F-W-K-Y-C
PS00985 C-G-x(2)-[LIY]-x(4)-G-x-I-x(9)-C-x-W-T
PS00986 C-x-K-E-x-[LIVM]-E-[LIVM]-x-[DE]-x(3)-[GSE]-x(5)-K-x-C
PS00987 C-N-N-x(2)-G-H-G-H-N-Y
PS00988 D-H-K-N-L-D-x-D
PS00989 [LIVMC]-[LIVM]-Y-[KR]-x(4)-L-Y-F
PS00990 [IVT]-[GSP]-W-R-x(2,3)-[GAD]-x(2)-[HY]-x(2)-N-x-[LIVMAFY](3)-D-[LIVM]
PS00991 [LIV]-x-[FL]-[IQ]-P-P-x-G-x-[LIVMFY]-x-[LV]-x(2)-Y
PS00992 A-R-G-N-Y-[ED]-A-x-[QKR]-R-G-x-G-G-x-W-A
PS00993 [DE]-[LM]-G-[STALPD]-x(2)-[GK]-[KR]-x(6)-[LIVM]-x-[LIVM]-x-[DEN]-x-[GI]
PS00994 R-[LIVM]-[GSAT]-E-V-[GSAR]-A-R-F-[STAIV]-L-D-[GSA]-[LM]-P-G-K-Q-M-[GSA]
PS00995 Q-[DEK]-x-x-[LIVMGTA]-[GA]-D-G-T
PS00996 [LV]-Y-[IVC]-P-R-K-C-S-[SAT]
PS00997 L-C-C-x-[KR]-C-x(4)-[DE]-x-N-x(4)-C-x-C-R-V-P
PS00998 C-x-H-C-G-C-[KRH]-G-C-[SA]
PS00999 C-x-P-x(2,3)-G-x(0,1)-H-[PA]-x(4)-A-C-[ATDE]-x-L
PS01000 R-P-[LIVMT]-x(3)-[LIVM]-x(6)-[LIVMWPK]-x(4)-S-x(2)-H-R-x-[ST]
PS01001 H-x(3)-[GA]-[LIVMT]-R-[HF]-[LIVMF]-x-[FYWM]-D-x-[GVA]
PS01002 [IFAED]-[GA]-[GASF]-N-[PAK]-S-[GTA]-E-[GDEVCF]-[PAGEQV]-[DEQGAV]
PS01003 [FLIV]-x(4)-[FLVH]-[FY]-[MIVCT]-G-E-x(4,7)-[DENP]-[GAST]-x-[LIVM]-[GAVI]
PS01004 C-x-[ST]-x-[DE]-x(3)-[ST]-[FY]-x-L-[FY]-I-x(4)-G-A
PS01005 [LIVMA]-[LIVMY]-x-G-[GSTA]-[DES]-L-[FI]-[TN]-[GS]
PS01006 [GA]-x(2)-[CA]-N-[LIVMFYW](2)-V-C-[LV]-A
PS01007 D-x(3)-G-[LIVMF]-x(6)-[STAV]-[LIVMFYW]-[PT]-x-[STAV]-x(2)-[QR]-x-C-x(2)
PS01008 [IL]-[GA]-x(2)-[LIVMF]-[SGADENK]-x(0,1)-[KR]-x-H-[STPA]-[STAV]-[LIVM]
PS01009 [GDER]-[HR]-[FYWH]-[TVS]-[QA]-[LIVM]-[LIVMA]-W-x(2)-[STN]
PS01010 [LIVMFYH]-[LIVMFY]-x-C-[NQRHS]-Y-x-[PARH]-x-[GL]-N-[LIVMFYWDN]
PS01011 [LIVMFY]-x-[LIVM]-[STAG]-G-T-[NK]-G-K-x-[STG]-x(4)-{A}-x-{EAD}-[LIVM](2)
PS01012 [LIVMFY](2)-[EK]-x-G-[LIVM]-[GA]-G-x(2)-D-x-[GST]-x-[LIVM](2)
PS01013 E-[KQ]-x-[SC]-H-[HR]-[PG]-[PL]-x(1,2)-[STACFI]-[ACGY]
PS01014 [LIVM]-F-G-[KRW]-x-T-P-[IV]-x-[LIVM]
PS01015 [LIVMF]-x-[KRGTIEQSN]-x-[GSAIYN]-[KRQDAVLSIH]-[VGAIT]-[RSNAK]-x(0,1)
PS01016 [KRC]-[GSAT]-x(4)-[FYWLMH]-[DQNGKRH]-x-P-x-[LIVMFY]-x(3)-H-x(2)-[GSA]-H
PS01017 G-x(2)-[LIVMF]-[IFYH]-[DN]-x-[FYWM]-x-G-x(2)-[LF]-[NY]-P-[RQ]
PS01018 [LIVM](2)-[LIVMFT]-[HWD]-R-x(2)-R-D-x(3)-C-x(2)-K-Y-[GK]-x(2)-[FW]
PS01021 K-x-[WQA]-[CA]-x(2)-[FYH](2)-x-[LIVM]-x-[HY]-R-x-E-x-R-G-[LIVMT]-G-G
PS01022 [GA]-[GAS]-[LIVMFYWA]-[LIVM]-[GAS]-D-x-[LIVMFYWT]-[LIVMFYW]-G-x(3)-[TAV]
PS01023 [FYT]-x(2)-[LMFY]-[FYV]-[LIVMFYWA]-x-[IVG]-N-[LIVMAG]-G-[GSA]-[LIMF]
PS01024 E-F-D-Y-L-K-S-L-E-I-E-E-K-I-N
PS01025 [NH]-[AG]-H-[TAD]-Y-H-I-N-S-I-S-[LIVMN]-[NS]-S-D
PS01026 [GTND]-[FPMI]-x-[LIVMH]-x-[DEAT]-x(2)-[GA]-x-[GTAM]-[STA]-x-G-H-x-[LIVM]
PS01027 W-x-F-E-x-W-N-E-P-[DN]
PS01028 D-[LIVM]-[DE]-[LIVMN]-x(18,20)-[LIVM](2)-x-[SC]-[NHY]-H-[DN]
PS01029 [LIVM]-[NQHS]-G-P-N-[LVI]-x(2)-[LT]-G-x-R-[QED]-x(3)-[FY]-G
PS01030 [FY]-C-x-[DEKSTG]-C-[GNK]-[DNSA]-[LIVMHG]-[LIVM]-x(8,14)-C-x(1,2)-C
PS01031PS01032 [LIVMFY]-[LIVMFYA]-[GSAC]-[LIVM]-[FYC]-D-G-H-[GAV]
PS01033PS01034 E-[LIV]-D-[LIVF]-x(0,1)-E-x(2)-[GQ]-[KRNF]-x-[PSTA]
PS01035 N-[LIVMFY]-x(5)-C-x-T-R-[LIVMF]-x-[LIVMF]-x-[LIVM]-x-[DQEN]
PS01036 [LIVMY]-x-[LIVMF]-x-G-G-x-[ST]-{LS}-[LIVM]-P-x-[LIVM]-x-[DEQKRSTA]
PS01037 [GAP]-[LIVMFA]-[STAVDN]-x-{H}-x(2)-[GSAV]-[LIVMFY](2)-Y-[ND]-x(3)
PS01039 G-[FYIL]-[DE]-[LIVMT]-[DE]-[LIVMF]-{PS}-{YG}-x-[LIVMA]-[VAGC]-{TPRG}
PS01040 [AG]-x(6,7)-[DNEG]-x(2)-[STAIVE]-[LIVMFYWA]-x-[LIVMFY]-x-[LIVM]-[KR]
PS01041 A-E-[KR]-R-E-H-E-[KR]-E-V
PS01042 A-x(3)-G-[LIVMFY]-[STAG]-x(2,3)-[DNS]-P-x(2)-D-[LIVM]-x-G-x-D-x(3)-K
PS01043 R-G-x(2)-E-N-x-N-G-[LIVM](2)-R-[QE]-[LIVMFY](2)-P-K
PS01044 Y-[CSAM]-x(2)-[VSG]-A-[GSA]-[LIVAT]-[IV]-G-x(2)-[LMSC]-x(2)-[LIV]
PS01045 [LIVM]-G-x(3)-Q-x(2,3)-[ND]-[IFL]-x-[RE]-D-[LIVMFY]-x(2)-[DE]-x(4,7)-R-x
PS01046 D-G-[PD]-S-A-[GS]-[LIVMCA]-[TA]-[LIVM]
PS01047 [LIVNS]-x-{L}-[LIVMFA]-x-C-x-[STAGCDNH]-C-x(3)-[LIVFG]-{LV}-x(2)-[LIV]
PS01048 G-x-[KRC]-[DENQRH]-L-[SA]-Y-x-I-[KRNSA]
PS01049 [SAV]-[IVW]-[LVA]-[LIV]-G-[PNS]-G-L-[GP]-x-[DENQT]
PS01050 [GA]-G-x-G-D-[TV]-[LT]-[STA]-G-x-[LIVM]
PS01052 [LIVM]-x-[LS]-Q-[MASY]-G-[STY]-[NT]-[KRQ]-x(2)-[STN]-Q-x-G-x(3,4)-G
PS01053 [ST]-[LIVMFY]-D-[LIVM]-D-x(3)-[PAQ]-x(3)-P-[GSA]-x(7)-G
PS01054 [DGH]-[IVSAC]-T-[ST]-N-P-[STA]-[LIVMF](2)
PS01055 K-[LIVMF]-D-G-[LIVMAS]-[SAG]-x(4)-Y-x(2)-[GRD]-x-[LF]-x(4)-[ST]-R-G-[DN]
PS01056 [IV]-G-[KR]-[ST]-G-x-[LIVM]-[STNK]-x-[VTLYF]-x(2)-[LVMF]-x-[PS]-[IV]
PS01057 [LIVMRPA]-[LIVFY]-[PLNRKG]-[LIVMF]-E-x-[IV]-[LVCATI]-R-x(3)-[TAEYSI]-G
PS01058 [LI]-[IVCAP]-D-x-K-[LIFY]-E-[FI]-G
PS01060 [PA]-[AS]-[FY]-x-[LIVT]-[STH]-[EQ]-[LI]-x(2)-[GA]-F-[KREQ]-[IM]-[GV]
PS01061 P-[LIVMF]-K-[LIVMF](5)-x-[LIVMA]-[DNGS]-G-W
PS01062 S-V-A-G-L-G-G-C-P-Y
PS01063 [STAIV]-[PQDEL]-[DE]-[LIV]-[LIVTA]-Q-x-[STAV]-[LIVMFYC]-[LIVMAK]-x
PS01064 [LIVFMYWA]-E-F-W-[QHGENRAMVYLCF]-x(4)-[RW]-[LIVMK]-[HN]-[DNESIT]-R
PS01065 [IVAG]-x-[KR]-x(2)-[DE]-[GDE](2)-x(1,2)-[EQHF]-x-[LIV]-x(4)-P-x
PS01066 [DEH]-[LIVMF]-[LIVMFC]-[LIVMF]-R-[STPV]-[SGAC]-[GEN]-x(1,2)-R-x-S-x-[FY]
PS01067 [LIVMFY]-x-{D}-[DENQGA]-x-{E}-x(2)-[LIVMFTA]-x-[KRV]-x(2)-[KW]-P-x(3)
PS01068 [LIVMA]-x-[GT]-x-[TA]-[DAN]-x(2,3)-[DG]-[GSTPNKQ]-x(2)-[LFYDEPAVI]-[NQS]
PS01069 E-x-[LIVM]-N-[ST]-[SA]-[LIV]-E-x(2)-V-D
PS01070 D-R-G-H-[QLIM]-x(3)-[AG]
PS01071 [FYLV]-[DNST]-[PHEAYVS]-x(2)-[HMACNQ]-x-[ALV]-[LIVMTNSF]-x(16,21)-[GYP]
PS01073 [FY]-x-[GSHE]-x(2)-[IVLF]-x-P-[GA]-x-G-x(2)-[FYV]-x-[KRHE]-x-D
PS01074 [DE]-G-S-W-x-[GE]-x-W-[GA]-[LIVM]-x-[FY]-x-Y-[GA]