%!PS-Adobe-3.0
%Test postscript
%%Title: Phylip Tree Output
%%Creator: Phylip Drawgram
%%Pages: 1 1
%%DocumentFonts: (atend)
%%Orientation: Portrait
%%DocumentMedia: Page 585 765 0 ( ) ( )
%%BoundingBox: 46 61 539 704
%%EndComments
/l {newpath moveto lineto stroke} def
%%EndProlog
%%Page: 1 1
<< /PageSize [ 585 765 ] >> setpagedevice 1 setlinecap 
 1 setlinejoin
    0.69 setlinewidth newpath
  111.25   248.50   105.49   188.12 l
  111.25   248.50   111.25   281.43 l
  111.25   281.43    90.35   283.19 l
  111.25   281.43   173.88   374.09 l
  173.88   374.09   124.99   409.94 l
  173.88   374.09   264.46   479.69 l
  264.46   479.69   261.79   483.32 l
  261.79   483.32   242.19   492.78 l
  261.79   483.32   257.69   506.00 l
  264.46   479.69   424.06   593.62 l
  424.06   593.62   389.76   591.83 l
  424.06   593.62   426.90   600.05 l
  426.90   600.05   403.64   601.79 l
  426.90   600.05   432.89   599.82 l
  432.89   599.82   433.85   600.24 l
  433.85   600.24   433.35   601.78 l
  433.35   601.78   407.84   612.69 l
  407.84   612.69   388.59   614.79 l
  407.84   612.69   402.94   618.10 l
  433.35   601.78   429.89   612.02 l
  429.89   612.02   407.70   626.90 l
  429.89   612.02   428.66   614.88 l
  428.66   614.88   423.18   621.60 l
  428.66   614.88   426.96   620.05 l
  433.85   600.24   441.00   594.39 l
  441.00   594.39   442.33   595.63 l
  442.33   595.63   445.46   602.71 l
  445.46   602.71   430.81   660.04 l
  445.46   602.71   464.96   662.07 l
  442.33   595.63   472.20   624.59 l
  441.00   594.39   447.44   595.22 l
  447.44   595.22   469.11   606.48 l
  447.44   595.22   455.64   587.42 l
  455.64   587.42   460.36   586.57 l
  460.36   586.57   481.52   598.22 l
  460.36   586.57   475.10   584.34 l
  455.64   587.42   487.23   558.68 l
  432.89   599.82   433.53   596.87 l
  433.53   596.87   445.04   584.42 l
  445.04   584.42   463.61   558.92 l
  445.04   584.42   433.18   430.45 l
  433.18   430.45   435.71   432.72 l
  435.71   432.72   441.66   440.37 l
  441.66   440.37   470.04   469.23 l
  441.66   440.37   475.43   454.03 l
  435.71   432.72   437.09   431.62 l
  437.09   431.62   448.50   433.28 l
  448.50   433.28   467.29   439.77 l
  448.50   433.28   470.66   433.47 l
  437.09   431.62   439.50   427.37 l
  439.50   427.37   442.01   426.11 l
  442.01   426.11   484.09   421.67 l
  442.01   426.11   470.42   411.97 l
  439.50   427.37   448.05   414.48 l
  448.05   414.48   462.22   404.52 l
  448.05   414.48   452.15   406.15 l
  433.18   430.45   427.94   419.52 l
  427.94   419.52   428.68   413.37 l
  428.68   413.37   447.09   392.92 l
  428.68   413.37   432.68   392.99 l
  427.94   419.52   391.27   309.53 l
  433.53   596.87   423.97   570.85 l
  111.25   248.50   125.12   103.33 l
 stroke    0.23 setlinewidth 
1 setlinecap 1 setlinejoin 
gsave
/Times-Roman findfont 5.771951 scalefont setfont
78.154573 182.383911 translate 0.000000 rotate
0 0 moveto
(Dasypus Novemcinctus) show
grestore
gsave
/Times-Roman findfont 5.771951 scalefont setfont
47.562390 283.162650 translate 0.000000 rotate
0 0 moveto
(Papio Hamadryas) show
grestore
gsave
/Times-Roman findfont 5.771951 scalefont setfont
98.937025 411.852830 translate 0.000000 rotate
0 0 moveto
(Balaenoptera Musculu) show
grestore
gsave
/Times-Roman findfont 5.771951 scalefont setfont
229.278200 494.690642 translate 0.000000 rotate
0 0 moveto
(Felis Catus) show
grestore
gsave
/Times-Roman findfont 5.771951 scalefont setfont
243.979345 507.912213 translate 0.000000 rotate
0 0 moveto
(Bos Indicus) show
grestore
gsave
/Times-Roman findfont 5.771951 scalefont setfont
349.851888 588.831810 translate 0.000000 rotate
0 0 moveto
(Canis Familiaris) show
grestore
gsave
/Times-Roman findfont 5.771951 scalefont setfont
351.550366 601.903211 translate 0.000000 rotate
0 0 moveto
(Balaenoptera Physalu) show
grestore
gsave
/Times-Roman findfont 5.771951 scalefont setfont
354.769872 614.826639 translate 0.000000 rotate
0 0 moveto
(Equus Asinus) show
grestore
gsave
/Times-Roman findfont 5.771951 scalefont setfont
384.906746 620.011079 translate 0.000000 rotate
0 0 moveto
(Equus Caballus) show
grestore
gsave
/Times-Roman findfont 5.771951 scalefont setfont
382.454262 628.815016 translate 0.000000 rotate
0 0 moveto
(Rhinoceros Unicornis) show
grestore
gsave
/Times-Roman findfont 5.771951 scalefont setfont
400.016215 623.515022 translate 0.000000 rotate
0 0 moveto
(Halichoerus Grypus) show
grestore
gsave
/Times-Roman findfont 5.771951 scalefont setfont
409.725409 621.958114 translate 0.000000 rotate
0 0 moveto
(Phoca Vitulina) show
grestore
gsave
/Times-Roman findfont 5.771951 scalefont setfont
415.814403 661.952742 translate 0.000000 rotate
0 0 moveto
(Myoxus Glis) show
grestore
gsave
/Times-Roman findfont 5.771951 scalefont setfont
441.636034 663.976100 translate 0.000000 rotate
0 0 moveto
(Loxodonta Africana) show
grestore
gsave
/Times-Roman findfont 5.771951 scalefont setfont
454.001731 626.502646 translate 0.000000 rotate
0 0 moveto
(Cavia Porcellus) show
grestore
gsave
/Times-Roman findfont 5.771951 scalefont setfont
453.645999 608.392047 translate 0.000000 rotate
0 0 moveto
(Hylobates lar) show
grestore
gsave
/Times-Roman findfont 5.771951 scalefont setfont
464.447776 600.126085 translate 0.000000 rotate
0 0 moveto
(Gorilla Gorilla) show
grestore
gsave
/Times-Roman findfont 5.771951 scalefont setfont
477.015114 579.569883 translate 0.000000 rotate
0 0 moveto
(Homo Sapiens) show
grestore
gsave
/Times-Roman findfont 5.771951 scalefont setfont
470.150015 552.953436 translate 0.000000 rotate
0 0 moveto
(Mus Musculus) show
grestore
gsave
/Times-Roman findfont 5.771951 scalefont setfont
439.160702 553.188961 translate 0.000000 rotate
0 0 moveto
(Artibeus Jamaicensis) show
grestore
gsave
/Times-Roman findfont 5.771951 scalefont setfont
445.752433 471.145441 translate 0.000000 rotate
0 0 moveto
(Didelphis Virginiana) show
grestore
gsave
/Times-Roman findfont 5.771951 scalefont setfont
452.421763 455.943629 translate 0.000000 rotate
0 0 moveto
(Macropus Robustus) show
grestore
gsave
/Times-Roman findfont 5.771951 scalefont setfont
447.326899 441.684247 translate 0.000000 rotate
0 0 moveto
(Pongo Pygmaeus) show
grestore
gsave
/Times-Roman findfont 5.771951 scalefont setfont
472.567348 431.711356 translate 0.000000 rotate
0 0 moveto
(Pan Paniscus) show
grestore
gsave
/Times-Roman findfont 5.771951 scalefont setfont
486.003728 416.832956 translate 0.000000 rotate
0 0 moveto
(Ornithorhynchus Anat) show
grestore
gsave
/Times-Roman findfont 5.771951 scalefont setfont
449.017614 406.239748 translate 0.000000 rotate
0 0 moveto
(Rattus Norvegicus) show
grestore
gsave
/Times-Roman findfont 5.771951 scalefont setfont
436.807630 398.787044 translate 0.000000 rotate
0 0 moveto
(Oryctolagus Cuniculu) show
grestore
gsave
/Times-Roman findfont 5.771951 scalefont setfont
432.829059 400.413588 translate 0.000000 rotate
0 0 moveto
(Sciurus Vulgaris) show
grestore
gsave
/Times-Roman findfont 5.771951 scalefont setfont
434.664737 387.186012 translate 0.000000 rotate
0 0 moveto
(Sus Scrofa) show
grestore
gsave
/Times-Roman findfont 5.771951 scalefont setfont
420.251973 387.255015 translate 0.000000 rotate
0 0 moveto
(Ovis Aries) show
grestore
gsave
/Times-Roman findfont 5.771951 scalefont setfont
365.535653 303.798242 translate 0.000000 rotate
0 0 moveto
(Ceratotherium Simum) show
grestore
gsave
/Times-Roman findfont 5.771951 scalefont setfont
395.989992 565.123016 translate 0.000000 rotate
0 0 moveto
(Hippopotamus Amphibi) show
grestore
gsave
/Times-Roman findfont 5.771951 scalefont setfont
104.841081 97.603023 translate 0.000000 rotate
0 0 moveto
(Orycteropus Afer) show
grestore
stroke     0.69 setlinewidth 
 1 setlinecap 1 setlinejoin 
stroke showpage 

%%PageTrailer
%%PageFonts: Times-Roman
%%Trailer
%%DocumentFonts: Times-Roman
