%!PS-Adobe-3.0
%Test postscript
%%Title: Phylip Tree Output
%%Creator: Phylip Drawgram
%%Pages: 1 1
%%DocumentFonts: (atend)
%%Orientation: Portrait
%%DocumentMedia: Page 585 765 0 ( ) ( )
%%BoundingBox: 46 61 539 704
%%EndComments
/l {newpath moveto lineto stroke} def
%%EndProlog
%%Page: 1 1
<< /PageSize [ 585 765 ] >> setpagedevice 1 setlinecap 
 1 setlinejoin
    0.64 setlinewidth newpath
  171.09   305.99   161.44   204.90 l
  171.09   305.99   171.09   325.18 l
  171.09   325.18   112.18   307.60 l
  171.09   325.18   194.08   371.50 l
  194.08   371.50    97.39   420.12 l
  194.08   371.50   247.30   422.01 l
  247.30   422.01   224.35   470.45 l
  224.35   470.45   196.89   490.31 l
  224.35   470.45   227.37   521.50 l
  247.30   422.01   373.97   369.33 l
  373.97   369.33   393.38   489.06 l
  393.38   489.06   403.53   510.49 l
  403.53   510.49   400.54   513.05 l
  400.54   513.05   394.31   515.85 l
  394.31   515.85   384.27   520.78 l
  384.27   520.78   352.60   535.07 l
  384.27   520.78   383.31   523.02 l
  383.31   523.02   363.30   544.31 l
  383.31   523.02   374.76   549.51 l
  394.31   515.85   388.39   561.77 l
  400.54   513.05   401.58   516.41 l
  401.58   516.41   406.84   561.37 l
  401.58   516.41   420.64   550.09 l
  403.53   510.49   408.70   508.63 l
  408.70   508.63   411.70   510.47 l
  411.70   510.47   438.88   545.19 l
  411.70   510.47   451.10   530.20 l
  408.70   508.63   417.16   505.63 l
  417.16   505.63   453.86   511.39 l
  417.16   505.63   446.62   496.03 l
  393.38   489.06   488.30   434.42 l
  373.97   369.33   404.06   338.12 l
  404.06   338.12   439.27   361.40 l
  404.06   338.12   400.88   333.58 l
  400.88   333.58   450.16   353.20 l
  400.88   333.58   396.06   326.42 l
  396.06   326.42   401.47   327.61 l
  401.47   327.61   433.80   337.92 l
  401.47   327.61   437.51   332.44 l
  396.06   326.42   393.39   324.24 l
  393.39   324.24   403.01   322.33 l
  403.01   322.33   457.84   325.24 l
  403.01   322.33   449.74   313.86 l
  393.39   324.24   389.90   321.30 l
  389.90   321.30   390.29   321.01 l
  390.29   321.01   435.04   308.35 l
  390.29   321.01   396.97   316.36 l
  396.97   316.36   408.36   312.02 l
  408.36   312.02   426.93   304.13 l
  408.36   312.02   425.93   298.20 l
  396.97   316.36   420.19   296.11 l
  389.90   321.30   386.94   318.95 l
  386.94   318.95   389.15   309.02 l
  389.15   309.02   449.31   253.76 l
  389.15   309.02   396.81   292.66 l
  396.81   292.66   404.19   280.08 l
  396.81   292.66   398.23   281.60 l
  386.94   318.95   381.04   313.79 l
  381.04   313.79   376.89   301.84 l
  376.89   301.84   387.75   260.58 l
  376.89   301.84   368.43   274.21 l
  381.04   313.79   354.39   282.14 l
  171.09   305.99   180.94   202.93 l
 stroke    0.21 setlinewidth 
1 setlinecap 1 setlinejoin 
gsave
/Times-Roman findfont 5.392227 scalefont setfont
135.905652 199.547815 translate 0.000000 rotate
0 0 moveto
(Dasypus Novemcinctus) show
grestore
gsave
/Times-Roman findfont 5.392227 scalefont setfont
93.089061 302.242588 translate 0.000000 rotate
0 0 moveto
(Papio Hamadryas) show
grestore
gsave
/Times-Roman findfont 5.392227 scalefont setfont
73.052673 421.901839 translate 0.000000 rotate
0 0 moveto
(Balaenoptera Musculu) show
grestore
gsave
/Times-Roman findfont 5.392227 scalefont setfont
184.827372 492.094235 translate 0.000000 rotate
0 0 moveto
(Felis Catus) show
grestore
gsave
/Times-Roman findfont 5.392227 scalefont setfont
214.562565 523.285787 translate 0.000000 rotate
0 0 moveto
(Bos Indicus) show
grestore
gsave
/Times-Roman findfont 5.392227 scalefont setfont
329.905217 536.854788 translate 0.000000 rotate
0 0 moveto
(Didelphis Virginiana) show
grestore
gsave
/Times-Roman findfont 5.392227 scalefont setfont
339.562346 546.096630 translate 0.000000 rotate
0 0 moveto
(Oryctolagus Cuniculu) show
grestore
gsave
/Times-Roman findfont 5.392227 scalefont setfont
356.716061 551.296546 translate 0.000000 rotate
0 0 moveto
(Sciurus Vulgaris) show
grestore
gsave
/Times-Roman findfont 5.392227 scalefont setfont
366.892328 563.550697 translate 0.000000 rotate
0 0 moveto
(Macropus Robustus) show
grestore
gsave
/Times-Roman findfont 5.392227 scalefont setfont
382.653063 563.159754 translate 0.000000 rotate
0 0 moveto
(Ornithorhynchus Anat) show
grestore
gsave
/Times-Roman findfont 5.392227 scalefont setfont
400.648006 551.874461 translate 0.000000 rotate
0 0 moveto
(Rattus Norvegicus) show
grestore
gsave
/Times-Roman findfont 5.392227 scalefont setfont
420.235905 546.976621 translate 0.000000 rotate
0 0 moveto
(Pongo Pygmaeus) show
grestore
gsave
/Times-Roman findfont 5.392227 scalefont setfont
436.949791 531.983144 translate 0.000000 rotate
0 0 moveto
(Pan Paniscus) show
grestore
gsave
/Times-Roman findfont 5.392227 scalefont setfont
455.640567 511.707657 translate 0.000000 rotate
0 0 moveto
(Sus Scrofa) show
grestore
gsave
/Times-Roman findfont 5.392227 scalefont setfont
435.008246 490.674618 translate 0.000000 rotate
0 0 moveto
(Ovis Aries) show
grestore
gsave
/Times-Roman findfont 5.392227 scalefont setfont
464.254249 429.061233 translate 0.000000 rotate
0 0 moveto
(Ceratotherium Simum) show
grestore
gsave
/Times-Roman findfont 5.392227 scalefont setfont
416.434637 363.180447 translate 0.000000 rotate
0 0 moveto
(Artibeus Jamaicensis) show
grestore
gsave
/Times-Roman findfont 5.392227 scalefont setfont
426.571403 354.983218 translate 0.000000 rotate
0 0 moveto
(Rhinoceros Unicornis) show
grestore
gsave
/Times-Roman findfont 5.392227 scalefont setfont
419.352402 339.704190 translate 0.000000 rotate
0 0 moveto
(Hylobates lar) show
grestore
gsave
/Times-Roman findfont 5.392227 scalefont setfont
411.366499 334.225401 translate 0.000000 rotate
0 0 moveto
(Hippopotamus Amphibi) show
grestore
gsave
/Times-Roman findfont 5.392227 scalefont setfont
459.625294 324.701223 translate 0.000000 rotate
0 0 moveto
(Loxodonta Africana) show
grestore
gsave
/Times-Roman findfont 5.392227 scalefont setfont
451.523668 308.864667 translate 0.000000 rotate
0 0 moveto
(Mus Musculus) show
grestore
gsave
/Times-Roman findfont 5.392227 scalefont setfont
417.292789 302.998285 translate 0.000000 rotate
0 0 moveto
(Canis Familiaris) show
grestore
gsave
/Times-Roman findfont 5.392227 scalefont setfont
412.023895 298.779093 translate 0.000000 rotate
0 0 moveto
(Equus Asinus) show
grestore
gsave
/Times-Roman findfont 5.392227 scalefont setfont
409.078880 292.841647 translate 0.000000 rotate
0 0 moveto
(Equus Caballus) show
grestore
gsave
/Times-Roman findfont 5.392227 scalefont setfont
396.749573 290.752315 translate 0.000000 rotate
0 0 moveto
(Balaenoptera Physalu) show
grestore
gsave
/Times-Roman findfont 5.392227 scalefont setfont
435.304002 248.405295 translate 0.000000 rotate
0 0 moveto
(Myoxus Glis) show
grestore
gsave
/Times-Roman findfont 5.392227 scalefont setfont
382.554019 274.720692 translate 0.000000 rotate
0 0 moveto
(Halichoerus Grypus) show
grestore
gsave
/Times-Roman findfont 5.392227 scalefont setfont
382.130926 276.241890 translate 0.000000 rotate
0 0 moveto
(Phoca Vitulina) show
grestore
gsave
/Times-Roman findfont 5.392227 scalefont setfont
371.799258 255.221175 translate 0.000000 rotate
0 0 moveto
(Gorilla Gorilla) show
grestore
gsave
/Times-Roman findfont 5.392227 scalefont setfont
352.626691 268.856617 translate 0.000000 rotate
0 0 moveto
(Homo Sapiens) show
grestore
gsave
/Times-Roman findfont 5.392227 scalefont setfont
337.392746 276.785443 translate 0.000000 rotate
0 0 moveto
(Cavia Porcellus) show
grestore
gsave
/Times-Roman findfont 5.392227 scalefont setfont
161.994887 197.574464 translate 0.000000 rotate
0 0 moveto
(Orycteropus Afer) show
grestore
stroke     0.64 setlinewidth 
 1 setlinecap 1 setlinejoin 
stroke showpage 

%%PageTrailer
%%PageFonts: Times-Roman
%%Trailer
%%DocumentFonts: Times-Roman
