%!PS-Adobe-3.0
%Test postscript
%%Title: Phylip Tree Output
%%Creator: Phylip Drawgram
%%Pages: 1 1
%%DocumentFonts: (atend)
%%Orientation: Portrait
%%DocumentMedia: Page 585 765 0 ( ) ( )
%%BoundingBox: 46 61 539 704
%%EndComments
/l {newpath moveto lineto stroke} def
%%EndProlog
%%Page: 1 1
<< /PageSize [ 585 765 ] >> setpagedevice 1 setlinecap 
 1 setlinejoin
    0.72 setlinewidth newpath
  295.53   375.10   278.54   197.12 l
  295.53   375.10   295.53   378.45 l
  295.53   378.45   241.51   195.61 l
  295.53   378.45   295.96   380.29 l
  295.96   380.29   206.75   208.41 l
  295.96   380.29   296.00   380.46 l
  296.00   380.46   292.66   376.24 l
  292.66   376.24   178.90   233.04 l
  292.66   376.24   154.69   259.74 l
  296.00   380.46   296.05   380.79 l
  296.05   380.79   295.70   380.79 l
  295.70   380.79   293.52   380.18 l
  293.52   380.18   292.58   379.76 l
  292.58   379.76   151.05   298.42 l
  292.58   379.76   120.93   321.54 l
  293.52   380.18   105.84   354.90 l
  295.70   380.79   102.30   391.63 l
  296.05   380.79   296.07   380.94 l
  296.07   380.94   296.04   381.08 l
  296.04   381.08   296.03   381.23 l
  296.03   381.23   295.80   381.75 l
  295.80   381.75   295.74   381.79 l
  295.74   381.79   293.97   382.94 l
  293.97   382.94   291.84   383.69 l
  291.84   383.69   142.94   419.50 l
  291.84   383.69   131.79   457.19 l
  293.97   382.94   139.23   493.78 l
  295.74   381.79   163.02   521.63 l
  295.80   381.75   294.31   385.31 l
  294.31   385.31   192.97   542.81 l
  294.31   385.31   227.71   553.71 l
  296.03   381.23   296.14   381.36 l
  296.14   381.36   296.47   383.26 l
  296.47   383.26   296.40   385.67 l
  296.40   385.67   262.92   556.87 l
  296.40   385.67   296.74   566.18 l
  296.47   383.26   333.32   570.72 l
  296.14   381.36   296.32   381.56 l
  296.32   381.56   368.72   560.52 l
  296.32   381.56   298.78   384.86 l
  298.78   384.86   400.68   542.23 l
  298.78   384.86   425.01   514.87 l
  296.04   381.08   296.49   381.20 l
  296.49   381.20   297.66   381.73 l
  297.66   381.73   302.12   384.27 l
  302.12   384.27   431.90   476.64 l
  302.12   384.27   464.07   456.83 l
  297.66   381.73   484.53   425.81 l
  296.49   381.20   301.23   381.05 l
  301.23   381.05   486.62   389.11 l
  301.23   381.05   480.50   353.43 l
  296.07   380.94   296.20   380.69 l
  296.20   380.69   297.69   379.65 l
  297.69   379.65   299.68   378.68 l
  299.68   378.68   461.35   322.67 l
  299.68   378.68   455.62   287.66 l
  297.69   379.65   441.76   253.26 l
  296.20   380.69   296.29   380.51 l
  296.29   380.51   298.06   377.65 l
  298.06   377.65   414.57   228.38 l
  298.06   377.65   380.15   215.31 l
  296.29   380.51   349.48   194.44 l
  295.53   375.10   309.89   224.75 l
 stroke    0.24 setlinewidth 
1 setlinecap 1 setlinejoin 
gsave
/Times-Roman findfont 6.049526 scalefont setfont
257.617995 191.117676 translate 0.000000 rotate
0 0 moveto
(Pongo Pygmaeus) show
grestore
gsave
/Times-Roman findfont 6.049526 scalefont setfont
224.785050 189.606179 translate 0.000000 rotate
0 0 moveto
(Equus Asinus) show
grestore
gsave
/Times-Roman findfont 6.049526 scalefont setfont
181.128575 202.406268 translate 0.000000 rotate
0 0 moveto
(Artibeus Jamaicensis) show
grestore
gsave
/Times-Roman findfont 6.049526 scalefont setfont
163.184017 227.034623 translate 0.000000 rotate
0 0 moveto
(Myoxus Glis) show
grestore
gsave
/Times-Roman findfont 6.049526 scalefont setfont
128.053574 253.729998 translate 0.000000 rotate
0 0 moveto
(Oryctolagus Cuniculu) show
grestore
gsave
/Times-Roman findfont 6.049526 scalefont setfont
129.627456 292.408962 translate 0.000000 rotate
0 0 moveto
(Papio Hamadryas) show
grestore
gsave
/Times-Roman findfont 6.049526 scalefont setfont
107.912678 315.535031 translate 0.000000 rotate
0 0 moveto
(Sus Scrofa) show
grestore
gsave
/Times-Roman findfont 6.049526 scalefont setfont
68.380771 350.237888 translate 0.000000 rotate
0 0 moveto
(Homo Sapiens) show
grestore
gsave
/Times-Roman findfont 6.049526 scalefont setfont
47.369520 391.218207 translate 0.000000 rotate
0 0 moveto
(Rhinoceros Unicornis) show
grestore
gsave
/Times-Roman findfont 6.049526 scalefont setfont
114.296932 421.504192 translate 0.000000 rotate
0 0 moveto
(Dasypus Novemcinctus) show
grestore
gsave
/Times-Roman findfont 6.049526 scalefont setfont
104.815676 459.188339 translate 0.000000 rotate
0 0 moveto
(Ceratotherium Simum) show
grestore
gsave
/Times-Roman findfont 6.049526 scalefont setfont
109.906143 495.779460 translate 0.000000 rotate
0 0 moveto
(Hippopotamus Amphibi) show
grestore
gsave
/Times-Roman findfont 6.049526 scalefont setfont
138.743481 523.629961 translate 0.000000 rotate
0 0 moveto
(Halichoerus Grypus) show
grestore
gsave
/Times-Roman findfont 6.049526 scalefont setfont
175.076111 544.811925 translate 0.000000 rotate
0 0 moveto
(Gorilla Gorilla) show
grestore
gsave
/Times-Roman findfont 6.049526 scalefont setfont
207.464824 555.710142 translate 0.000000 rotate
0 0 moveto
(Sciurus Vulgaris) show
grestore
gsave
/Times-Roman findfont 6.049526 scalefont setfont
249.393941 558.873092 translate 0.000000 rotate
0 0 moveto
(Felis Catus) show
grestore
gsave
/Times-Roman findfont 6.049526 scalefont setfont
272.630347 568.177967 translate 0.000000 rotate
0 0 moveto
(Macropus Robustus) show
grestore
gsave
/Times-Roman findfont 6.049526 scalefont setfont
314.411693 572.721343 translate 0.000000 rotate
0 0 moveto
(Equus Caballus) show
grestore
gsave
/Times-Roman findfont 6.049526 scalefont setfont
348.806384 562.521278 translate 0.000000 rotate
0 0 moveto
(Canis Familiaris) show
grestore
gsave
/Times-Roman findfont 6.049526 scalefont setfont
381.607369 544.233658 translate 0.000000 rotate
0 0 moveto
(Cavia Porcellus) show
grestore
gsave
/Times-Roman findfont 6.049526 scalefont setfont
397.873549 516.871708 translate 0.000000 rotate
0 0 moveto
(Ornithorhynchus Anat) show
grestore
gsave
/Times-Roman findfont 6.049526 scalefont setfont
404.599210 478.638376 translate 0.000000 rotate
0 0 moveto
(Balaenoptera Musculu) show
grestore
gsave
/Times-Roman findfont 6.049526 scalefont setfont
448.193619 458.834646 translate 0.000000 rotate
0 0 moveto
(Pan Paniscus) show
grestore
gsave
/Times-Roman findfont 6.049526 scalefont setfont
466.635065 427.813099 translate 0.000000 rotate
0 0 moveto
(Mus Musculus) show
grestore
gsave
/Times-Roman findfont 6.049526 scalefont setfont
488.622002 388.261252 translate 0.000000 rotate
0 0 moveto
(Loxodonta Africana) show
grestore
gsave
/Times-Roman findfont 6.049526 scalefont setfont
482.506530 349.115315 translate 0.000000 rotate
0 0 moveto
(Ovis Aries) show
grestore
gsave
/Times-Roman findfont 6.049526 scalefont setfont
446.986425 316.660975 translate 0.000000 rotate
0 0 moveto
(Bos Indicus) show
grestore
gsave
/Times-Roman findfont 6.049526 scalefont setfont
430.165370 281.649343 translate 0.000000 rotate
0 0 moveto
(Didelphis Virginiana) show
grestore
gsave
/Times-Roman findfont 6.049526 scalefont setfont
423.697415 247.253766 translate 0.000000 rotate
0 0 moveto
(Phoca Vitulina) show
grestore
gsave
/Times-Roman findfont 6.049526 scalefont setfont
388.272199 222.377797 translate 0.000000 rotate
0 0 moveto
(Balaenoptera Physalu) show
grestore
gsave
/Times-Roman findfont 6.049526 scalefont setfont
357.719838 209.307421 translate 0.000000 rotate
0 0 moveto
(Rattus Norvegicus) show
grestore
gsave
/Times-Roman findfont 6.049526 scalefont setfont
333.267473 188.432208 translate 0.000000 rotate
0 0 moveto
(Hylobates lar) show
grestore
gsave
/Times-Roman findfont 6.049526 scalefont setfont
288.641728 218.745601 translate 0.000000 rotate
0 0 moveto
(Orycteropus Afer) show
grestore
stroke     0.72 setlinewidth 
 1 setlinecap 1 setlinejoin 
stroke showpage 

%%PageTrailer
%%PageFonts: Times-Roman
%%Trailer
%%DocumentFonts: Times-Roman
