%!PS-Adobe-3.0
%Test postscript
%%Title: Phylip Tree Output
%%Creator: Phylip Drawgram
%%Pages: 1 1
%%DocumentFonts: (atend)
%%Orientation: Portrait
%%DocumentMedia: Page 585 765 0 ( ) ( )
%%BoundingBox: 46 61 539 704
%%EndComments
/l {newpath moveto lineto stroke} def
%%EndProlog
%%Page: 1 1
<< /PageSize [ 585 765 ] >> setpagedevice 1 setlinecap 
 1 setlinejoin
    0.80 setlinewidth newpath
  337.03   279.44   333.10   320.63 l
  333.10   320.63   331.33   361.98 l
  331.33   361.98   315.53   323.73 l
  315.53   323.73   308.99   282.87 l
  315.53   323.73   291.94   289.73 l
  331.33   361.98   305.10   393.99 l
  305.10   393.99   263.78   391.63 l
  263.78   391.63   230.17   367.49 l
  230.17   367.49   243.37   328.27 l
  243.37   328.27   252.40   287.88 l
  243.37   328.27   205.68   311.20 l
  205.68   311.20   220.79   272.67 l
  205.68   311.20   192.32   272.03 l
  205.68   311.20   164.31   312.42 l
  164.31   312.42   145.88   275.37 l
  164.31   312.42   122.96   310.71 l
  230.17   367.49   189.19   361.70 l
  263.78   391.63   235.41   421.76 l
  235.41   421.76   194.11   419.21 l
  194.11   419.21   154.02   408.93 l
  154.02   408.93   116.61   391.23 l
  154.02   408.93   132.79   444.45 l
  132.79   444.45    92.91   433.39 l
  132.79   444.45   102.07   472.18 l
  132.79   444.45   139.73   485.25 l
  194.11   419.21   192.25   460.55 l
  235.41   421.76   222.75   461.15 l
  305.10   393.99   344.78   405.75 l
  344.78   405.75   314.58   434.04 l
  314.58   434.04   280.85   458.02 l
  280.85   458.02   249.29   484.79 l
  280.85   458.02   266.48   496.83 l
  314.58   434.04   311.67   475.32 l
  311.67   475.32   289.15   510.04 l
  311.67   475.32   310.67   516.70 l
  344.78   405.75   354.43   445.99 l
  354.43   445.99   341.65   485.35 l
  341.65   485.35   341.59   526.74 l
  341.65   485.35   370.66   514.87 l
  354.43   445.99   373.24   482.86 l
  354.43   445.99   381.47   477.32 l
  354.43   445.99   395.76   448.12 l
  395.76   448.12   411.33   486.46 l
  395.76   448.12   433.21   465.72 l
  344.78   405.75   385.02   415.42 l
  385.02   415.42   422.49   432.98 l
  385.02   415.42   407.06   380.39 l
  407.06   380.39   443.82   399.40 l
  443.82   399.40   478.53   421.94 l
  443.82   399.40   478.50   376.81 l
  407.06   380.39   435.98   350.79 l
  344.78   405.75   373.58   376.03 l
  331.33   361.98   369.04   344.94 l
  333.10   320.63   369.50   300.96 l
  369.50   300.96   409.49   290.29 l
  369.50   300.96   387.19   263.54 l
  337.03   279.44   340.96   238.24 l
 stroke    0.27 setlinewidth 
1 setlinecap 1 setlinejoin 
gsave
/Times-Roman findfont 6.702562 scalefont setfont
284.149864 276.209502 translate 0.000000 rotate
0 0 moveto
('Orycteropus afer') show
grestore
gsave
/Times-Roman findfont 6.702562 scalefont setfont
263.561286 283.071538 translate 0.000000 rotate
0 0 moveto
('Loxodonta africana') show
grestore
gsave
/Times-Roman findfont 6.702562 scalefont setfont
229.226596 281.227813 translate 0.000000 rotate
0 0 moveto
('Cavia porcellus') show
grestore
gsave
/Times-Roman findfont 6.702562 scalefont setfont
196.866257 266.013722 translate 0.000000 rotate
0 0 moveto
('Sciurus vulgaris') show
grestore
gsave
/Times-Roman findfont 6.702562 scalefont setfont
178.821139 265.370129 translate 0.000000 rotate
0 0 moveto
('Glis glis') show
grestore
gsave
/Times-Roman findfont 6.702562 scalefont setfont
119.537658 268.713174 translate 0.000000 rotate
0 0 moveto
('Rattus norvegicus') show
grestore
gsave
/Times-Roman findfont 6.702562 scalefont setfont
77.364150 307.504131 translate 0.000000 rotate
0 0 moveto
('Mus musculus') show
grestore
gsave
/Times-Roman findfont 6.702562 scalefont setfont
130.571245 355.174138 translate 0.000000 rotate
0 0 moveto
('Oryctolagus cunicul) show
grestore
gsave
/Times-Roman findfont 6.702562 scalefont setfont
91.388638 384.575322 translate 0.000000 rotate
0 0 moveto
('Pongo pygmaeus') show
grestore
gsave
/Times-Roman findfont 6.702562 scalefont setfont
71.600537 426.729576 translate 0.000000 rotate
0 0 moveto
('Homo sapiens') show
grestore
gsave
/Times-Roman findfont 6.702562 scalefont setfont
82.433740 474.400334 translate 0.000000 rotate
0 0 moveto
('Pan paniscus') show
grestore
gsave
/Times-Roman findfont 6.702562 scalefont setfont
118.419102 487.467673 translate 0.000000 rotate
0 0 moveto
('Gorilla gorilla') show
grestore
gsave
/Times-Roman findfont 6.702562 scalefont setfont
172.059033 462.766222 translate 0.000000 rotate
0 0 moveto
('Hylobates lar') show
grestore
gsave
/Times-Roman findfont 6.702562 scalefont setfont
197.530135 463.372362 translate 0.000000 rotate
0 0 moveto
('Papio hamadryas') show
grestore
gsave
/Times-Roman findfont 6.702562 scalefont setfont
220.898154 487.004262 translate 0.000000 rotate
0 0 moveto
('Rhinoceros unicorni) show
grestore
gsave
/Times-Roman findfont 6.702562 scalefont setfont
236.038967 499.044911 translate 0.000000 rotate
0 0 moveto
('Ceratotherium simum) show
grestore
gsave
/Times-Roman findfont 6.702562 scalefont setfont
266.716616 512.262831 translate 0.000000 rotate
0 0 moveto
('Equus caballus') show
grestore
gsave
/Times-Roman findfont 6.702562 scalefont setfont
290.840546 518.915141 translate 0.000000 rotate
0 0 moveto
('Equus asinus') show
grestore
gsave
/Times-Roman findfont 6.702562 scalefont setfont
325.862716 528.956438 translate 0.000000 rotate
0 0 moveto
('Ovis aries') show
grestore
gsave
/Times-Roman findfont 6.702562 scalefont setfont
352.692132 517.088639 translate 0.000000 rotate
0 0 moveto
('Bos indicus') show
grestore
gsave
/Times-Roman findfont 6.702562 scalefont setfont
341.493294 485.073850 translate 0.000000 rotate
0 0 moveto
('Hippopotamus amphib) show
grestore
gsave
/Times-Roman findfont 6.702562 scalefont setfont
365.372890 479.535778 translate 0.000000 rotate
0 0 moveto
('Sus scrofa') show
grestore
gsave
/Times-Roman findfont 6.702562 scalefont setfont
382.017995 488.681475 translate 0.000000 rotate
0 0 moveto
('Balaenoptera muscul) show
grestore
gsave
/Times-Roman findfont 6.702562 scalefont setfont
404.827147 467.940698 translate 0.000000 rotate
0 0 moveto
('Balaenoptera physal) show
grestore
gsave
/Times-Roman findfont 6.702562 scalefont setfont
406.016441 435.197111 translate 0.000000 rotate
0 0 moveto
('Felis catus') show
grestore
gsave
/Times-Roman findfont 6.702562 scalefont setfont
457.028456 424.156942 translate 0.000000 rotate
0 0 moveto
('Phoca vitulina') show
grestore
gsave
/Times-Roman findfont 6.702562 scalefont setfont
450.115200 370.152681 translate 0.000000 rotate
0 0 moveto
('Halichoerus grypus') show
grestore
gsave
/Times-Roman findfont 6.702562 scalefont setfont
408.800500 344.137548 translate 0.000000 rotate
0 0 moveto
('Canis lupus familia) show
grestore
gsave
/Times-Roman findfont 6.702562 scalefont setfont
345.749747 369.374427 translate 0.000000 rotate
0 0 moveto
('Artibeus jamaicensi) show
grestore
gsave
/Times-Roman findfont 6.702562 scalefont setfont
338.231406 338.286438 translate 0.000000 rotate
0 0 moveto
('Dasypus novemcinctu) show
grestore
gsave
/Times-Roman findfont 6.702562 scalefont setfont
381.659133 283.637552 translate 0.000000 rotate
0 0 moveto
('Macropus robustus') show
grestore
gsave
/Times-Roman findfont 6.702562 scalefont setfont
360.098814 256.887859 translate 0.000000 rotate
0 0 moveto
('Didelphis virginian) show
grestore
gsave
/Times-Roman findfont 6.702562 scalefont setfont
311.646128 231.586380 translate 0.000000 rotate
0 0 moveto
('Ornithorhynchus ana) show
grestore
stroke     0.80 setlinewidth 
 1 setlinecap 1 setlinejoin 
stroke showpage 

%%PageTrailer
%%PageFonts: Times-Roman
%%Trailer
%%DocumentFonts: Times-Roman
