%!PS-Adobe-3.0
%Test postscript
%%Title: Phylip Tree Output
%%Creator: Phylip Drawgram
%%Pages: 1 1
%%DocumentFonts: (atend)
%%Orientation: Portrait
%%DocumentMedia: Page 585 765 0 ( ) ( )
%%BoundingBox: 46 61 539 704
%%EndComments
/l {newpath moveto lineto stroke} def
%%EndProlog
%%Page: 1 1
<< /PageSize [ 585 765 ] >> setpagedevice 1 setlinecap 
 1 setlinejoin
    0.73 setlinewidth newpath
  296.18   375.24   279.16   197.01 l
  296.18   375.24   296.18   378.59 l
  296.18   378.59   242.15   195.34 l
  296.18   378.59   296.61   380.48 l
  296.61   380.48   207.41   208.07 l
  296.61   380.48   296.70   380.69 l
  296.70   380.69   292.68   376.30 l
  292.68   376.30   179.61   232.71 l
  292.68   376.30   155.27   259.29 l
  296.70   380.69   296.89   380.92 l
  296.89   380.92   296.38   380.78 l
  296.38   380.78   294.13   379.91 l
  294.13   379.91   293.40   379.56 l
  293.40   379.56   153.55   299.20 l
  293.40   379.56   121.31   321.25 l
  294.13   379.91   106.04   354.72 l
  296.38   380.78   102.64   391.60 l
  296.89   380.92   296.93   381.07 l
  296.93   381.07   296.91   381.21 l
  296.91   381.21   296.69   381.71 l
  296.69   381.71   296.62   381.75 l
  296.62   381.75   294.74   382.97 l
  294.74   382.97   292.64   383.74 l
  292.64   383.74   144.85   419.24 l
  292.64   383.74   132.89   457.08 l
  294.74   382.97   139.75   494.06 l
  296.62   381.75   163.53   522.09 l
  296.69   381.71   295.10   385.48 l
  295.10   385.48   193.72   543.20 l
  295.10   385.48   228.62   554.03 l
  296.91   381.21   297.06   381.39 l
  297.06   381.39   297.41   383.34 l
  297.41   383.34   297.32   385.86 l
  297.32   385.86   264.12   556.08 l
  297.32   385.86   297.81   566.38 l
  297.41   383.34   334.48   571.10 l
  297.06   381.39   297.16   381.50 l
  297.16   381.50   299.54   385.59 l
  299.54   385.59   368.98   558.47 l
  299.54   385.59   398.91   538.01 l
  297.16   381.50   431.81   521.04 l
  296.93   381.07   297.07   381.01 l
  297.07   381.01   297.56   381.13 l
  297.56   381.13   298.77   381.68 l
  298.77   381.68   303.35   384.37 l
  303.35   384.37   432.63   476.45 l
  303.35   384.37   465.36   456.98 l
  298.77   381.68   486.10   425.96 l
  297.56   381.13   301.80   380.99 l
  301.80   380.99   489.38   389.17 l
  301.80   380.99   481.17   353.44 l
  297.07   381.01   297.30   380.77 l
  297.30   380.77   298.88   379.85 l
  298.88   379.85   300.63   379.04 l
  300.63   379.04   462.26   322.64 l
  300.63   379.04   456.72   287.46 l
  298.88   379.85   442.76   253.01 l
  297.30   380.77   297.48   380.42 l
  297.48   380.42   299.18   377.73 l
  299.18   377.73   415.73   227.77 l
  299.18   377.73   381.07   214.83 l
  297.48   380.42   350.19   194.07 l
  296.18   375.24   310.58   224.43 l
 stroke    0.24 setlinewidth 
1 setlinecap 1 setlinejoin 
gsave
/Times-Roman findfont 6.086693 scalefont setfont
258.112635 190.968703 translate 0.000000 rotate
0 0 moveto
(Pongo Pygmaeus) show
grestore
gsave
/Times-Roman findfont 6.086693 scalefont setfont
225.325743 189.292640 translate 0.000000 rotate
0 0 moveto
(Equus Asinus) show
grestore
gsave
/Times-Roman findfont 6.086693 scalefont setfont
181.627910 202.028375 translate 0.000000 rotate
0 0 moveto
(Artibeus Jamaicensis) show
grestore
gsave
/Times-Roman findfont 6.086693 scalefont setfont
163.804227 226.665844 translate 0.000000 rotate
0 0 moveto
(Myoxus Glis) show
grestore
gsave
/Times-Roman findfont 6.086693 scalefont setfont
128.471798 253.248724 translate 0.000000 rotate
0 0 moveto
(Oryctolagus Cuniculu) show
grestore
gsave
/Times-Roman findfont 6.086693 scalefont setfont
131.996970 293.156748 translate 0.000000 rotate
0 0 moveto
(Papio Hamadryas) show
grestore
gsave
/Times-Roman findfont 6.086693 scalefont setfont
108.205629 315.208578 translate 0.000000 rotate
0 0 moveto
(Sus Scrofa) show
grestore
gsave
/Times-Roman findfont 6.086693 scalefont setfont
68.355933 350.048058 translate 0.000000 rotate
0 0 moveto
(Homo Sapiens) show
grestore
gsave
/Times-Roman findfont 6.086693 scalefont setfont
47.373067 391.184707 translate 0.000000 rotate
0 0 moveto
(Rhinoceros Unicornis) show
grestore
gsave
/Times-Roman findfont 6.086693 scalefont setfont
116.028395 421.250703 translate 0.000000 rotate
0 0 moveto
(Dasypus Novemcinctus) show
grestore
gsave
/Times-Roman findfont 6.086693 scalefont setfont
105.752535 459.093044 translate 0.000000 rotate
0 0 moveto
(Ceratotherium Simum) show
grestore
gsave
/Times-Roman findfont 6.086693 scalefont setfont
110.243714 496.073803 translate 0.000000 rotate
0 0 moveto
(Hippopotamus Amphibi) show
grestore
gsave
/Times-Roman findfont 6.086693 scalefont setfont
145.355891 524.107035 translate 0.000000 rotate
0 0 moveto
(Phoca Vitulina) show
grestore
gsave
/Times-Roman findfont 6.086693 scalefont setfont
175.715699 545.214607 translate 0.000000 rotate
0 0 moveto
(Gorilla Gorilla) show
grestore
gsave
/Times-Roman findfont 6.086693 scalefont setfont
208.250209 556.044181 translate 0.000000 rotate
0 0 moveto
(Sciurus Vulgaris) show
grestore
gsave
/Times-Roman findfont 6.086693 scalefont setfont
250.510299 558.090984 translate 0.000000 rotate
0 0 moveto
(Felis Catus) show
grestore
gsave
/Times-Roman findfont 6.086693 scalefont setfont
273.544544 568.399651 translate 0.000000 rotate
0 0 moveto
(Macropus Robustus) show
grestore
gsave
/Times-Roman findfont 6.086693 scalefont setfont
315.462160 573.111781 translate 0.000000 rotate
0 0 moveto
(Equus Caballus) show
grestore
gsave
/Times-Roman findfont 6.086693 scalefont setfont
353.166866 560.487684 translate 0.000000 rotate
0 0 moveto
(Myoxus Glis) show
grestore
gsave
/Times-Roman findfont 6.086693 scalefont setfont
385.804548 540.026704 translate 0.000000 rotate
0 0 moveto
(Ovis Aries) show
grestore
gsave
/Times-Roman findfont 6.086693 scalefont setfont
413.798449 523.050741 translate 0.000000 rotate
0 0 moveto
(Mus Musculus) show
grestore
gsave
/Times-Roman findfont 6.086693 scalefont setfont
405.159271 478.468421 translate 0.000000 rotate
0 0 moveto
(Balaenoptera Musculu) show
grestore
gsave
/Times-Roman findfont 6.086693 scalefont setfont
449.382635 458.995785 translate 0.000000 rotate
0 0 moveto
(Pan Paniscus) show
grestore
gsave
/Times-Roman findfont 6.086693 scalefont setfont
466.062099 427.974445 translate 0.000000 rotate
0 0 moveto
(Canis Familiaris) show
grestore
gsave
/Times-Roman findfont 6.086693 scalefont setfont
491.399401 388.083305 translate 0.000000 rotate
0 0 moveto
(Cavia Porcellus) show
grestore
gsave
/Times-Roman findfont 6.086693 scalefont setfont
453.865456 347.395503 translate 0.000000 rotate
0 0 moveto
(Ornithorhynchus Anat) show
grestore
gsave
/Times-Roman findfont 6.086693 scalefont setfont
447.800232 316.600124 translate 0.000000 rotate
0 0 moveto
(Bos Indicus) show
grestore
gsave
/Times-Roman findfont 6.086693 scalefont setfont
431.108660 281.415291 translate 0.000000 rotate
0 0 moveto
(Didelphis Virginiana) show
grestore
gsave
/Times-Roman findfont 6.086693 scalefont setfont
418.330533 246.961091 translate 0.000000 rotate
0 0 moveto
(Halichoerus Grypus) show
grestore
gsave
/Times-Roman findfont 6.086693 scalefont setfont
389.270435 221.723763 translate 0.000000 rotate
0 0 moveto
(Balaenoptera Physalu) show
grestore
gsave
/Times-Roman findfont 6.086693 scalefont setfont
358.496927 208.781494 translate 0.000000 rotate
0 0 moveto
(Rattus Norvegicus) show
grestore
gsave
/Times-Roman findfont 6.086693 scalefont setfont
333.874743 188.021906 translate 0.000000 rotate
0 0 moveto
(Hylobates lar) show
grestore
gsave
/Times-Roman findfont 6.086693 scalefont setfont
289.203728 218.386442 translate 0.000000 rotate
0 0 moveto
(Orycteropus Afer) show
grestore
stroke     0.73 setlinewidth 
 1 setlinecap 1 setlinejoin 
stroke showpage 

%%PageTrailer
%%PageFonts: Times-Roman
%%Trailer
%%DocumentFonts: Times-Roman
