\relax 
\providecommand\hyper@newdestlabel[2]{}
\providecommand{\transparent@use}[1]{}
\catcode `"\active 
\providecommand\HyperFirstAtBeginDocument{\AtBeginDocument}
\HyperFirstAtBeginDocument{\ifx\hyper@anchor\@undefined
\global\let\oldcontentsline\contentsline
\gdef\contentsline#1#2#3#4{\oldcontentsline{#1}{#2}{#3}}
\global\let\oldnewlabel\newlabel
\gdef\newlabel#1#2{\newlabelxx{#1}#2}
\gdef\newlabelxx#1#2#3#4#5#6{\oldnewlabel{#1}{{#2}{#3}}}
\AtEndDocument{\ifx\hyper@anchor\@undefined
\let\contentsline\oldcontentsline
\let\newlabel\oldnewlabel
\fi}
\fi}
\global\let\hyper@last\relax 
\gdef\HyperFirstAtBeginDocument#1{#1}
\providecommand\HyField@AuxAddToFields[1]{}
\providecommand\HyField@AuxAddToCoFields[2]{}
\select@language{italian}
\@writefile{toc}{\select@language{italian}}
\@writefile{lof}{\select@language{italian}}
\@writefile{lot}{\select@language{italian}}
\select@language{italian}
\@writefile{toc}{\select@language{italian}}
\@writefile{lof}{\select@language{italian}}
\@writefile{lot}{\select@language{italian}}
\citation{bioinformatichistory}
\citation{biologyonline}
\@writefile{toc}{\contentsline {chapter}{\numberline {1}Introduzione}{3}{chapter.1}}
\@writefile{lof}{\addvspace {10\p@ }}
\@writefile{lot}{\addvspace {10\p@ }}
\@writefile{toc}{\contentsline {section}{\numberline {1.1}La bioinformatica}{3}{section.1.1}}
\@writefile{toc}{\contentsline {subsection}{\numberline {1.1.1}La filogenia}{3}{subsection.1.1.1}}
\@writefile{toc}{\contentsline {section}{\numberline {1.2}L'evoluzione biologica}{4}{section.1.2}}
\@writefile{toc}{\contentsline {section}{\numberline {1.3}Alberi filogenetici}{4}{section.1.3}}
\@writefile{lof}{\contentsline {figure}{\numberline {1.1}{\ignorespaces Esempio di albero filogenetico\relax }}{5}{figure.caption.3}}
\providecommand*\caption@xref[2]{\@setref\relax\@undefined{#1}}
\newlabel{fig:albero_filogenetioc}{{1.1}{5}{Esempio di albero filogenetico\relax }{figure.caption.3}{}}
\@writefile{lof}{\contentsline {figure}{\numberline {1.2}{\ignorespaces Somiglianze di due specie con un antenato comune\relax }}{5}{figure.caption.4}}
\newlabel{fig:somiglianza}{{1.2}{5}{Somiglianze di due specie con un antenato comune\relax }{figure.caption.4}{}}
\@writefile{toc}{\contentsline {section}{\numberline {1.4}L\IeC {\textquoteright }analisi filogenetica}{5}{section.1.4}}
\citation{phylip}
\@writefile{toc}{\contentsline {chapter}{\numberline {2}Il progetto}{7}{chapter.2}}
\@writefile{lof}{\addvspace {10\p@ }}
\@writefile{lot}{\addvspace {10\p@ }}
\newlabel{progetto}{{2}{7}{Il progetto}{chapter.2}{}}
\@writefile{toc}{\contentsline {chapter}{Introduzione}{7}{chapter.2}}
\@writefile{toc}{\contentsline {section}{\numberline {2.1}Strumenti utilizzati}{7}{section.2.1}}
\@writefile{toc}{\contentsline {subsection}{\numberline {2.1.1}Phylip}{8}{subsection.2.1.1}}
\@writefile{toc}{\contentsline {subsubsection}{Neighbor}{8}{section*.5}}
\@writefile{toc}{\contentsline {subsubsection}{Drawtree}{8}{section*.6}}
\@writefile{toc}{\contentsline {subsection}{\numberline {2.1.2}Librerie software}{8}{subsection.2.1.2}}
\@writefile{toc}{\contentsline {subsubsection}{Libreria REGEX}{8}{section*.7}}
\newlabel{regex}{{2.1.2}{8}{Libreria REGEX}{section*.7}{}}
\@writefile{toc}{\contentsline {subsubsection}{Libreria ARGTABLE2}{8}{section*.8}}
\@writefile{toc}{\contentsline {subsubsection}{Libreria Swing}{8}{section*.9}}
\citation{fasta}
\citation{uniprot}
\citation{prosite}
\@writefile{toc}{\contentsline {section}{\numberline {2.2}Dataset di sequenze}{9}{section.2.2}}
\@writefile{toc}{\contentsline {subsection}{\numberline {2.2.1}Il formato FASTA}{9}{subsection.2.2.1}}
\@writefile{toc}{\contentsline {section}{\numberline {2.3}I pattern di prosite}{9}{section.2.3}}
\@writefile{toc}{\contentsline {subsection}{\numberline {2.3.1}Sintassi dei motifs}{9}{subsection.2.3.1}}
\@writefile{lof}{\contentsline {figure}{\numberline {2.1}{\ignorespaces Elenco sequenze mitocondriali\relax }}{10}{figure.caption.10}}
\newlabel{dataset}{{2.1}{10}{Elenco sequenze mitocondriali\relax }{figure.caption.10}{}}
\@writefile{toc}{\contentsline {section}{\numberline {2.4}Valutazione dei risultati}{11}{section.2.4}}
\@writefile{toc}{\contentsline {subsection}{\numberline {2.4.1}NCBI}{11}{subsection.2.4.1}}
\@writefile{lof}{\contentsline {figure}{\numberline {2.2}{\ignorespaces Sito NCBI\relax }}{12}{figure.caption.11}}
\@writefile{lof}{\contentsline {figure}{\numberline {2.3}{\ignorespaces Albero di riferimento\relax }}{13}{figure.caption.12}}
\@writefile{toc}{\contentsline {chapter}{\numberline {3}Implementazione}{14}{chapter.3}}
\@writefile{lof}{\addvspace {10\p@ }}
\@writefile{lot}{\addvspace {10\p@ }}
\@writefile{toc}{\contentsline {section}{\numberline {3.1}Moduli software}{14}{section.3.1}}
\@writefile{toc}{\contentsline {section}{\numberline {3.2}Metriche per il calcolo della distanza}{15}{section.3.2}}
\@writefile{toc}{\contentsline {section}{\numberline {3.3}Pipeline dell'applicazione}{15}{section.3.3}}
\@writefile{lot}{\contentsline {table}{\numberline {3.1}{\ignorespaces Parametri da linea di comando\relax }}{16}{table.caption.14}}
\newlabel{table:parametri}{{3.1}{16}{Parametri da linea di comando\relax }{table.caption.14}{}}
\@writefile{toc}{\contentsline {section}{\numberline {3.4}Configurazione da linea di comando}{16}{section.3.4}}
\@writefile{toc}{\contentsline {section}{\numberline {3.5}Gui}{16}{section.3.5}}
\newlabel{gui}{{3.5}{16}{Gui}{section.3.5}{}}
\@writefile{lof}{\contentsline {figure}{\numberline {3.1}{\ignorespaces Pipeline dell'applicazione\relax }}{17}{figure.caption.13}}
\newlabel{pipeline}{{3.1}{17}{Pipeline dell'applicazione\relax }{figure.caption.13}{}}
\@writefile{lof}{\contentsline {figure}{\numberline {3.2}{\ignorespaces Interfaccia utente del programma\relax }}{18}{figure.caption.15}}
\newlabel{img:gui}{{3.2}{18}{Interfaccia utente del programma\relax }{figure.caption.15}{}}
\@writefile{toc}{\contentsline {chapter}{\numberline {4}Testing}{19}{chapter.4}}
\@writefile{lof}{\addvspace {10\p@ }}
\@writefile{lot}{\addvspace {10\p@ }}
\@writefile{lof}{\contentsline {figure}{\numberline {4.1}{\ignorespaces Albero con metrica euclidean\relax }}{19}{figure.caption.16}}
\newlabel{euclidean}{{4.1}{19}{Albero con metrica euclidean\relax }{figure.caption.16}{}}
\@writefile{lof}{\contentsline {figure}{\numberline {4.2}{\ignorespaces Albero con metrica chi-square\relax }}{20}{figure.caption.17}}
\@writefile{lof}{\contentsline {figure}{\numberline {4.3}{\ignorespaces Albero con metrica jaccard\relax }}{21}{figure.caption.18}}
\newlabel{jaccard}{{4.3}{21}{Albero con metrica jaccard\relax }{figure.caption.18}{}}
\@writefile{lof}{\contentsline {figure}{\numberline {4.4}{\ignorespaces Albero di riferimento\relax }}{22}{figure.caption.19}}
\newlabel{fig:albero_riferimento}{{4.4}{22}{Albero di riferimento\relax }{figure.caption.19}{}}
\@writefile{lof}{\contentsline {figure}{\numberline {4.5}{\ignorespaces Performance in funzione della lunghezza delle sequenze (input piccoli)\relax }}{23}{figure.caption.20}}
\newlabel{fig:chart1}{{4.5}{23}{Performance in funzione della lunghezza delle sequenze (input piccoli)\relax }{figure.caption.20}{}}
\@writefile{lof}{\contentsline {figure}{\numberline {4.6}{\ignorespaces Performance in funzione del numero di motif\relax }}{23}{figure.caption.21}}
\newlabel{fig:chart2}{{4.6}{23}{Performance in funzione del numero di motif\relax }{figure.caption.21}{}}
\newlabel{RF1}{24}
\@writefile{lof}{\contentsline {figure}{\numberline {4.7}{\ignorespaces Benchmark\relax }}{24}{figure.caption.22}}
\newlabel{fig:chart3}{{4.7}{24}{Benchmark\relax }{figure.caption.22}{}}
\@writefile{lof}{\contentsline {figure}{\numberline {4.8}{\ignorespaces Benchmark (input piccoli)\relax }}{25}{figure.caption.23}}
\newlabel{fig:chart4}{{4.8}{25}{Benchmark (input piccoli)\relax }{figure.caption.23}{}}
\@writefile{lof}{\contentsline {figure}{\numberline {4.9}{\ignorespaces Comparativa tempo di matching e tempo di esecuzione\relax }}{25}{figure.caption.24}}
\newlabel{fig:chart5}{{4.9}{25}{Comparativa tempo di matching e tempo di esecuzione\relax }{figure.caption.24}{}}
\@writefile{toc}{\contentsline {chapter}{\numberline {5}Conclusioni}{26}{chapter.5}}
\@writefile{lof}{\addvspace {10\p@ }}
\@writefile{lot}{\addvspace {10\p@ }}
\@writefile{toc}{\contentsline {section}{\numberline {5.1}Performance}{26}{section.5.1}}
\@writefile{toc}{\contentsline {section}{\numberline {5.2}Difficolt\IeC {\`a} riscontrate}{27}{section.5.2}}
\@writefile{toc}{\contentsline {section}{\numberline {5.3}Lezioni apprese}{27}{section.5.3}}
\@writefile{toc}{\contentsline {section}{\numberline {5.4}Sviluppi futuri}{27}{section.5.4}}
\@writefile{toc}{\contentsline {chapter}{Appendices}{28}{section*.25}}
\bibstyle{ieeetr}
\bibdata{TesiBioinfo}
\@writefile{toc}{\contentsline {chapter}{\numberline {A}Conversione pattern di prosite in espressione regolare}{29}{Appendice.1.Alph1}}
\@writefile{lof}{\addvspace {10\p@ }}
\@writefile{lot}{\addvspace {10\p@ }}
\newlabel{prositetoposix}{{A}{29}{Conversione pattern di prosite in espressione regolare}{Appendice.1.Alph1}{}}
\bibcite{bioinformatichistory}{{1}{}{{}}{{}}}
\bibcite{biologyonline}{{2}{}{{}}{{}}}
\bibcite{phylip}{{3}{}{{}}{{}}}
\bibcite{fasta}{{4}{}{{}}{{}}}
\bibcite{uniprot}{{5}{}{{}}{{}}}
\bibcite{prosite}{{6}{}{{}}{{}}}
\providecommand\NAT@force@numbers{}\NAT@force@numbers
